<?xml version="1.0" encoding="UTF-8" standalone="no"?>
<!-- Created with Inkscape (http://www.inkscape.org/) -->

<svg
   xmlns:dc="http://purl.org/dc/elements/1.1/"
   xmlns:cc="http://creativecommons.org/ns#"
   xmlns:rdf="http://www.w3.org/1999/02/22-rdf-syntax-ns#"
   xmlns:svg="http://www.w3.org/2000/svg"
   xmlns="http://www.w3.org/2000/svg"
   xmlns:sodipodi="http://sodipodi.sourceforge.net/DTD/sodipodi-0.dtd"
   xmlns:inkscape="http://www.inkscape.org/namespaces/inkscape"
   width="1920"
   height="1080"
   viewBox="0 0 1920.0001 1080"
   id="svg2"
   version="1.1"
   inkscape:version="0.91 r13725"
   sodipodi:docname="18_the_letter_with_cicero.svg">
  <defs
     id="defs4">
    <inkscape:path-effect
       effect="spiro"
       id="path-effect9802"
       is_visible="true" />
    <inkscape:path-effect
       effect="spiro"
       id="path-effect4644"
       is_visible="true" />
    <inkscape:path-effect
       effect="spiro"
       id="path-effect4652"
       is_visible="true" />
    <inkscape:path-effect
       effect="spiro"
       id="path-effect9802-3"
       is_visible="true" />
    <inkscape:path-effect
       effect="spiro"
       id="path-effect4644-5"
       is_visible="true" />
    <inkscape:path-effect
       effect="spiro"
       id="path-effect4652-1"
       is_visible="true" />
    <inkscape:path-effect
       effect="spiro"
       id="path-effect9802-3-3"
       is_visible="true" />
    <inkscape:path-effect
       effect="spiro"
       id="path-effect4644-5-0"
       is_visible="true" />
    <inkscape:path-effect
       effect="spiro"
       id="path-effect4652-1-2"
       is_visible="true" />
    <inkscape:path-effect
       effect="spiro"
       id="path-effect4324-0-5-6-0-7-1-1"
       is_visible="true" />
    <inkscape:path-effect
       effect="spiro"
       id="path-effect4324-0-6-0-8-6-7"
       is_visible="true" />
    <inkscape:path-effect
       effect="spiro"
       id="path-effect4324-8-2-0-6-2"
       is_visible="true" />
    <inkscape:path-effect
       effect="spiro"
       id="path-effect4324-0-5-0-0-0-7"
       is_visible="true" />
    <inkscape:path-effect
       effect="spiro"
       id="path-effect4324-0-7-0-4-7"
       is_visible="true" />
    <inkscape:path-effect
       effect="spiro"
       id="path-effect4324-1-4-2-1"
       is_visible="true" />
    <inkscape:path-effect
       effect="spiro"
       id="path-effect4324-0-5-6-1-0-5"
       is_visible="true" />
    <inkscape:path-effect
       effect="spiro"
       id="path-effect4324-0-6-1-2-3"
       is_visible="true" />
    <inkscape:path-effect
       effect="spiro"
       id="path-effect4324-8-6-0-4"
       is_visible="true" />
    <inkscape:path-effect
       effect="spiro"
       id="path-effect4324-0-5-1-0-8"
       is_visible="true" />
    <inkscape:path-effect
       effect="spiro"
       id="path-effect4324-0-66-2-0"
       is_visible="true" />
    <inkscape:path-effect
       effect="spiro"
       id="path-effect4324-04-3-7"
       is_visible="true" />
    <inkscape:path-effect
       effect="spiro"
       id="path-effect4324-0-5-6-0-7-1"
       is_visible="true" />
    <inkscape:path-effect
       effect="spiro"
       id="path-effect4324-0-6-0-8-6"
       is_visible="true" />
    <inkscape:path-effect
       effect="spiro"
       id="path-effect4324-8-2-0-6"
       is_visible="true" />
    <inkscape:path-effect
       effect="spiro"
       id="path-effect4324-0-5-0-0-0"
       is_visible="true" />
    <inkscape:path-effect
       effect="spiro"
       id="path-effect4324-0-7-0-4"
       is_visible="true" />
    <inkscape:path-effect
       effect="spiro"
       id="path-effect4324-1-4-2"
       is_visible="true" />
    <inkscape:path-effect
       effect="spiro"
       id="path-effect4324-0-5-6-1-0"
       is_visible="true" />
    <inkscape:path-effect
       effect="spiro"
       id="path-effect4324-0-6-1-2"
       is_visible="true" />
    <inkscape:path-effect
       effect="spiro"
       id="path-effect4324-8-6-0"
       is_visible="true" />
    <inkscape:path-effect
       effect="spiro"
       id="path-effect4324-0-5-1-0"
       is_visible="true" />
    <inkscape:path-effect
       effect="spiro"
       id="path-effect4324-0-66-2"
       is_visible="true" />
    <inkscape:path-effect
       effect="spiro"
       id="path-effect4324-04-3"
       is_visible="true" />
    <inkscape:path-effect
       effect="spiro"
       id="path-effect4324-0-5-6-0-7"
       is_visible="true" />
    <inkscape:path-effect
       effect="spiro"
       id="path-effect4324-0-6-0-8"
       is_visible="true" />
    <inkscape:path-effect
       effect="spiro"
       id="path-effect4324-8-2-0"
       is_visible="true" />
    <inkscape:path-effect
       effect="spiro"
       id="path-effect4324-0-5-0-0"
       is_visible="true" />
    <inkscape:path-effect
       effect="spiro"
       id="path-effect4324-0-7-0"
       is_visible="true" />
    <inkscape:path-effect
       effect="spiro"
       id="path-effect4324-1-4"
       is_visible="true" />
    <inkscape:path-effect
       effect="spiro"
       id="path-effect4324-0-5-6-1"
       is_visible="true" />
    <inkscape:path-effect
       effect="spiro"
       id="path-effect4324-0-6-1"
       is_visible="true" />
    <inkscape:path-effect
       effect="spiro"
       id="path-effect4324-8-6"
       is_visible="true" />
    <inkscape:path-effect
       effect="spiro"
       id="path-effect4324-0-5-1"
       is_visible="true" />
    <inkscape:path-effect
       effect="spiro"
       id="path-effect4324-0-66"
       is_visible="true" />
    <inkscape:path-effect
       effect="spiro"
       id="path-effect4324-04"
       is_visible="true" />
    <inkscape:path-effect
       effect="spiro"
       id="path-effect4324-0-5-6-0"
       is_visible="true" />
    <inkscape:path-effect
       effect="spiro"
       id="path-effect4324-0-6-0"
       is_visible="true" />
    <inkscape:path-effect
       effect="spiro"
       id="path-effect4324-8-2"
       is_visible="true" />
    <inkscape:path-effect
       effect="spiro"
       id="path-effect4324-0-5-0"
       is_visible="true" />
    <inkscape:path-effect
       effect="spiro"
       id="path-effect4324-0-7"
       is_visible="true" />
    <inkscape:path-effect
       effect="spiro"
       id="path-effect4324-1"
       is_visible="true" />
    <inkscape:path-effect
       effect="spiro"
       id="path-effect4324-0-5-6"
       is_visible="true" />
    <inkscape:path-effect
       effect="spiro"
       id="path-effect4324-0-6"
       is_visible="true" />
    <inkscape:path-effect
       effect="spiro"
       id="path-effect4324-8"
       is_visible="true" />
    <inkscape:path-effect
       effect="spiro"
       id="path-effect4324-0-5"
       is_visible="true" />
    <inkscape:path-effect
       effect="spiro"
       id="path-effect4324-0"
       is_visible="true" />
    <inkscape:path-effect
       effect="spiro"
       id="path-effect4324"
       is_visible="true" />
    <inkscape:path-effect
       effect="spiro"
       id="path-effect9802-3-6"
       is_visible="true" />
    <inkscape:path-effect
       effect="spiro"
       id="path-effect4644-5-7"
       is_visible="true" />
    <inkscape:path-effect
       effect="spiro"
       id="path-effect4652-1-8"
       is_visible="true" />
    <inkscape:path-effect
       effect="spiro"
       id="path-effect4585-2"
       is_visible="true" />
  </defs>
  <sodipodi:namedview
     id="base"
     pagecolor="#ffffff"
     bordercolor="#666666"
     borderopacity="1.0"
     inkscape:pageopacity="0.0"
     inkscape:pageshadow="2"
     inkscape:zoom="0.70710678"
     inkscape:cx="1079.9735"
     inkscape:cy="811.51266"
     inkscape:document-units="px"
     inkscape:current-layer="layer1"
     showgrid="false"
     inkscape:window-width="1920"
     inkscape:window-height="1016"
     inkscape:window-x="1920"
     inkscape:window-y="27"
     inkscape:window-maximized="1"
     units="px" />
  <metadata
     id="metadata7">
    <rdf:RDF>
      <cc:Work
         rdf:about="">
        <dc:format>image/svg+xml</dc:format>
        <dc:type
           rdf:resource="http://purl.org/dc/dcmitype/StillImage" />
        <dc:title></dc:title>
      </cc:Work>
    </rdf:RDF>
  </metadata>
  <g
     inkscape:label="Layer 1"
     inkscape:groupmode="layer"
     id="layer1"
     transform="translate(0,27.637408)">
    <g
       id="g10748"
       transform="translate(181.01935,-2.8284275)">
      <rect
         inkscape:transform-center-y="-42.568801"
         inkscape:transform-center-x="142.50004"
         transform="matrix(-0.27532156,0.96135219,-0.95578881,-0.294054,0,0)"
         ry="10.341512"
         rx="10.656564"
         y="-702.34259"
         x="181.72682"
         height="387.8067"
         width="21.313128"
         id="rect8093-2-6-9"
         style="fill:#000000;fill-opacity:1;stroke-width:15;stroke-miterlimit:4;stroke-dasharray:none;stroke-dashoffset:0" />
      <rect
         inkscape:transform-center-y="142.68405"
         inkscape:transform-center-x="45.204326"
         transform="matrix(0.96184119,0.27360835,-0.29587191,0.95522762,0,0)"
         ry="10.347587"
         rx="10.723289"
         y="487.6362"
         x="776.77271"
         height="388.03452"
         width="21.446579"
         id="rect8093-70-4"
         style="fill:#000000;fill-opacity:1;stroke-width:15;stroke-miterlimit:4;stroke-dasharray:none;stroke-dashoffset:0" />
      <rect
         inkscape:transform-center-y="141.42857"
         inkscape:transform-center-x="-45"
         transform="matrix(-0.96291845,0.26979263,0.29998851,0.95394282,0,0)"
         ry="10.32697"
         rx="10.838685"
         y="822.16162"
         x="-388.12268"
         height="387.26138"
         width="21.67737"
         id="rect8093-7-0-4"
         style="fill:#000000;fill-opacity:1;stroke-width:15;stroke-miterlimit:4;stroke-dasharray:none;stroke-dashoffset:0" />
      <rect
         transform="matrix(-0.9999996,-8.9412959e-4,-7.7484128e-4,0.9999997,0,0)"
         ry="10.386817"
         rx="9.6691475"
         y="303.89319"
         x="-621.45715"
         height="389.50562"
         width="19.338295"
         id="rect8093-7-2-8-3"
         style="fill:#000000;fill-opacity:1;stroke-width:15;stroke-miterlimit:4;stroke-dasharray:none;stroke-dashoffset:0" />
      <rect
         inkscape:transform-center-y="-45.960038"
         inkscape:transform-center-x="-142.14287"
         transform="matrix(0.27618591,0.96110423,0.95606836,-0.2931438,0,0)"
         ry="10.338489"
         rx="10.623212"
         y="469.7402"
         x="535.89606"
         height="387.69333"
         width="21.246424"
         id="rect8093-2-2-5-6"
         style="fill:#000000;fill-opacity:1;stroke-width:15;stroke-miterlimit:4;stroke-dasharray:none;stroke-dashoffset:0" />
      <ellipse
         ry="143.1329"
         rx="143.13289"
         cy="159.23967"
         cx="610.7923"
         id="path8125-3-8"
         style="opacity:1;fill:#ffffff;fill-opacity:1;fill-rule:evenodd;stroke:#000000;stroke-width:20.3592453;stroke-miterlimit:4;stroke-dasharray:none;stroke-dashoffset:0;stroke-opacity:1" />
      <circle
         r="17.77903"
         cy="122.89684"
         cx="540.8598"
         id="path9777-2-9"
         style="opacity:1;fill:#000000;fill-opacity:1;fill-rule:evenodd;stroke:#000000;stroke-width:13.50194836;stroke-miterlimit:4;stroke-dasharray:none;stroke-dashoffset:0;stroke-opacity:1" />
      <circle
         r="17.77903"
         cy="122.89684"
         cx="681.90735"
         id="path9777-9-3-5"
         style="opacity:1;fill:#000000;fill-opacity:1;fill-rule:evenodd;stroke:#000000;stroke-width:13.50194836;stroke-miterlimit:4;stroke-dasharray:none;stroke-dashoffset:0;stroke-opacity:1" />
      <path
         sodipodi:nodetypes="ccccccccccc"
         inkscape:connector-curvature="0"
         inkscape:original-d="m 483.67325,997.00957 253.90584,-0.60712 -6.70345,-357.44387 16.10638,-281.24217 -15.79656,-31.90302 -97.60507,37.34412 -48.31919,0 -98.45908,-35.79544 -14.5851,41.45712 24.09732,276.8838 z"
         inkscape:path-effect="#path-effect4644-5-0"
         id="path4642-9-1"
         d="m 483.67325,997.00957 253.90584,-0.60712 -6.70345,-357.44387 16.10638,-281.24217 -15.79656,-31.90302 -97.60507,37.34412 -48.31919,0 -98.45908,-35.79544 -14.5851,41.45712 24.09732,276.8838 -12.64109,351.30658 z"
         style="fill:#ffffff;fill-opacity:1;fill-rule:evenodd;stroke:#000000;stroke-width:1.22650027px;stroke-linecap:butt;stroke-linejoin:miter;stroke-opacity:1" />
      <path
         sodipodi:nodetypes="cc"
         inkscape:connector-curvature="0"
         inkscape:original-d="M 642.29449,359.86385 485.00589,516.36437"
         inkscape:path-effect="#path-effect4652-1-2"
         id="path4650-5-9"
         d="M 642.29449,359.86385 485.00589,516.36437"
         style="fill:none;fill-rule:evenodd;stroke:#000000;stroke-width:1.21860516px;stroke-linecap:butt;stroke-linejoin:miter;stroke-opacity:1" />
      <path
         sodipodi:nodetypes="csc"
         inkscape:connector-curvature="0"
         id="path4658-4-7"
         d="m 495.12384,659.54796 c 0,0 120.36892,40.8206 178.04566,-34.01721 57.67674,-74.83782 67.08056,-150.29415 67.08056,-150.29415"
         style="fill:none;fill-rule:evenodd;stroke:#000000;stroke-width:1.23287046px;stroke-linecap:butt;stroke-linejoin:miter;stroke-opacity:1" />
      <path
         sodipodi:nodetypes="cc"
         inkscape:connector-curvature="0"
         id="path4201-5-3"
         d="m 547.58587,240.85984 c 60.45171,-16.93628 60.65645,-17.24227 128.10041,0"
         style="fill:none;fill-rule:evenodd;stroke:#000000;stroke-width:4.75177431;stroke-linecap:round;stroke-linejoin:miter;stroke-miterlimit:4;stroke-dasharray:none;stroke-opacity:1" />
    </g>
    <g
       transform="matrix(0.59397179,0,0,0.59397179,-1539.8175,427.28925)"
       id="g4227-6-5">
      <path
         sodipodi:nodetypes="cc"
         inkscape:connector-curvature="0"
         inkscape:original-d="m 3190.6596,-224.85073 c -541.2852,853.12383 -270.6426,426.5619 0,0 z"
         inkscape:path-effect="#path-effect9802-3-6"
         id="path9800-3-2"
         d="m 3190.6596,-224.85073 0,0 z"
         style="fill:none;fill-rule:evenodd;stroke:#000000;stroke-width:2.06491327px;stroke-linecap:butt;stroke-linejoin:miter;stroke-opacity:1" />
      <rect
         inkscape:transform-center-y="142.68405"
         inkscape:transform-center-x="45.204326"
         transform="matrix(0.96184119,0.27360834,-0.29587192,0.95522762,0,0)"
         ry="17.421007"
         rx="18.053534"
         y="-464.65964"
         x="3166.9788"
         height="653.28778"
         width="36.107067"
         id="rect8093-70-9"
         style="fill:#000000;fill-opacity:1;stroke-width:15;stroke-miterlimit:4;stroke-dasharray:none;stroke-dashoffset:0" />
      <rect
         inkscape:transform-center-y="141.42857"
         inkscape:transform-center-x="-45"
         transform="matrix(-0.96291845,0.26979262,0.29998851,0.95394281,0,0)"
         ry="17.386297"
         rx="18.24781"
         y="1276.5095"
         x="-2939.1489"
         height="651.98615"
         width="36.495621"
         id="rect8093-7-0-5"
         style="fill:#000000;fill-opacity:1;stroke-width:15;stroke-miterlimit:4;stroke-dasharray:none;stroke-dashoffset:0" />
      <rect
         transform="matrix(-0.9999996,-8.9412958e-4,-7.7484128e-4,0.9999997,0,0)"
         ry="17.487055"
         rx="16.278799"
         y="-209.68614"
         x="-3214.3721"
         height="655.76453"
         width="32.557598"
         id="rect8093-7-2-8-0"
         style="fill:#000000;fill-opacity:1;stroke-width:15;stroke-miterlimit:4;stroke-dasharray:none;stroke-dashoffset:0" />
      <rect
         inkscape:transform-center-y="-45.960038"
         inkscape:transform-center-x="-142.14287"
         transform="matrix(0.27618591,0.96110423,0.95606836,-0.29314381,0,0)"
         ry="17.405689"
         rx="17.885044"
         y="3074.1895"
         x="850.17175"
         height="652.71338"
         width="35.770088"
         id="rect8093-2-2-5-0"
         style="fill:#000000;fill-opacity:1;stroke-width:15;stroke-miterlimit:4;stroke-dasharray:none;stroke-dashoffset:0" />
      <rect
         inkscape:transform-center-y="-42.568801"
         inkscape:transform-center-x="142.50004"
         transform="matrix(-0.27532156,0.96135219,-0.95578881,-0.294054,0,0)"
         ry="17.41078"
         rx="17.941195"
         y="-3069.594"
         x="-1019.575"
         height="652.90424"
         width="35.882389"
         id="rect8093-2-6-2"
         style="fill:#000000;fill-opacity:1;stroke-width:15;stroke-miterlimit:4;stroke-dasharray:none;stroke-dashoffset:0" />
      <ellipse
         ry="240.97594"
         rx="240.97591"
         cy="-451.28336"
         cx="3196.9749"
         id="path8125-3-9"
         style="opacity:1;fill:#ffffff;fill-opacity:1;fill-rule:evenodd;stroke:#000000;stroke-width:34.27645111;stroke-miterlimit:4;stroke-dasharray:none;stroke-dashoffset:0;stroke-opacity:1" />
      <circle
         r="29.932447"
         cy="-512.46948"
         cx="3079.2378"
         id="path9777-2-2"
         style="opacity:1;fill:#000000;fill-opacity:1;fill-rule:evenodd;stroke:#000000;stroke-width:22.73163223;stroke-miterlimit:4;stroke-dasharray:none;stroke-dashoffset:0;stroke-opacity:1" />
      <circle
         r="29.932447"
         cy="-512.46948"
         cx="3316.7029"
         id="path9777-9-3-0"
         style="opacity:1;fill:#000000;fill-opacity:1;fill-rule:evenodd;stroke:#000000;stroke-width:22.73163223;stroke-miterlimit:4;stroke-dasharray:none;stroke-dashoffset:0;stroke-opacity:1" />
      <path
         sodipodi:nodetypes="ccccccccccc"
         inkscape:connector-curvature="0"
         inkscape:original-d="m 2982.9596,959.17067 427.4712,-1.02214 -11.2858,-601.78593 27.1164,-473.49416 -26.5948,-53.71134 -164.3261,62.87188 -81.3493,0 -165.7639,-60.26454 -24.5552,69.796444 40.5698,466.156486 z"
         inkscape:path-effect="#path-effect4644-5-7"
         id="path4642-9-6"
         d="m 2982.9596,959.17067 427.4712,-1.02214 -11.2858,-601.78593 27.1164,-473.49416 -26.5948,-53.71134 -164.3261,62.87188 -81.3493,0 -165.7639,-60.26454 -24.5552,69.796444 40.5698,466.156486 -21.2823,591.4533 z"
         style="fill:#ffffff;fill-opacity:1;fill-rule:evenodd;stroke:#000000;stroke-width:2.06491327px;stroke-linecap:butt;stroke-linejoin:miter;stroke-opacity:1" />
      <path
         sodipodi:nodetypes="cc"
         inkscape:connector-curvature="0"
         inkscape:original-d="M 3250.0114,-113.51616 2985.2032,149.96523"
         inkscape:path-effect="#path-effect4652-1-8"
         id="path4650-5-5"
         d="M 3250.0114,-113.51616 2985.2032,149.96523"
         style="fill:none;fill-rule:evenodd;stroke:#000000;stroke-width:2.0516212px;stroke-linecap:butt;stroke-linejoin:miter;stroke-opacity:1" />
      <path
         sodipodi:nodetypes="csc"
         inkscape:connector-curvature="0"
         id="path4658-4-71"
         d="m 3002.2376,391.0265 c 0,0 202.6509,68.72482 299.7544,-57.27075 97.1035,-125.99558 112.9356,-253.032466 112.9356,-253.032466"
         style="fill:none;fill-rule:evenodd;stroke:#000000;stroke-width:2.07563806px;stroke-linecap:butt;stroke-linejoin:miter;stroke-opacity:1" />
      <path
         sodipodi:nodetypes="cc"
         inkscape:connector-curvature="0"
         id="path4201-5-9"
         d="m 3090.5617,-313.86914 c 101.7754,-28.5136 102.1201,-29.02876 215.6675,0"
         style="fill:none;fill-rule:evenodd;stroke:#000000;stroke-width:8;stroke-linecap:round;stroke-linejoin:miter;stroke-miterlimit:4;stroke-dasharray:none;stroke-opacity:1" />
    </g>
    <g
       transform="matrix(0.59397179,0,0,0.59397179,-317.64433,427.28925)"
       id="g4227-6">
      <path
         sodipodi:nodetypes="cc"
         inkscape:connector-curvature="0"
         inkscape:original-d="m 3190.6596,-224.85073 c -541.2852,853.12383 -270.6426,426.5619 0,0 z"
         inkscape:path-effect="#path-effect9802-3"
         id="path9800-3"
         d="m 3190.6596,-224.85073 0,0 z"
         style="fill:none;fill-rule:evenodd;stroke:#000000;stroke-width:2.06491327px;stroke-linecap:butt;stroke-linejoin:miter;stroke-opacity:1" />
      <rect
         inkscape:transform-center-y="142.68405"
         inkscape:transform-center-x="45.204326"
         transform="matrix(0.96184119,0.27360834,-0.29587192,0.95522762,0,0)"
         ry="17.421007"
         rx="18.053534"
         y="-464.65964"
         x="3166.9788"
         height="653.28778"
         width="36.107067"
         id="rect8093-70"
         style="fill:#000000;fill-opacity:1;stroke-width:15;stroke-miterlimit:4;stroke-dasharray:none;stroke-dashoffset:0" />
      <rect
         inkscape:transform-center-y="141.42857"
         inkscape:transform-center-x="-45"
         transform="matrix(-0.96291845,0.26979262,0.29998851,0.95394281,0,0)"
         ry="17.386297"
         rx="18.24781"
         y="1276.5095"
         x="-2939.1489"
         height="651.98615"
         width="36.495621"
         id="rect8093-7-0"
         style="fill:#000000;fill-opacity:1;stroke-width:15;stroke-miterlimit:4;stroke-dasharray:none;stroke-dashoffset:0" />
      <rect
         transform="matrix(-0.9999996,-8.9412958e-4,-7.7484128e-4,0.9999997,0,0)"
         ry="17.487055"
         rx="16.278799"
         y="-209.68614"
         x="-3214.3721"
         height="655.76453"
         width="32.557598"
         id="rect8093-7-2-8"
         style="fill:#000000;fill-opacity:1;stroke-width:15;stroke-miterlimit:4;stroke-dasharray:none;stroke-dashoffset:0" />
      <rect
         inkscape:transform-center-y="-45.960038"
         inkscape:transform-center-x="-142.14287"
         transform="matrix(0.27618591,0.96110423,0.95606836,-0.29314381,0,0)"
         ry="17.405689"
         rx="17.885044"
         y="3074.1895"
         x="850.17175"
         height="652.71338"
         width="35.770088"
         id="rect8093-2-2-5"
         style="fill:#000000;fill-opacity:1;stroke-width:15;stroke-miterlimit:4;stroke-dasharray:none;stroke-dashoffset:0" />
      <rect
         inkscape:transform-center-y="-42.568801"
         inkscape:transform-center-x="142.50004"
         transform="matrix(-0.27532156,0.96135219,-0.95578881,-0.294054,0,0)"
         ry="17.41078"
         rx="17.941195"
         y="-3069.594"
         x="-1019.575"
         height="652.90424"
         width="35.882389"
         id="rect8093-2-6"
         style="fill:#000000;fill-opacity:1;stroke-width:15;stroke-miterlimit:4;stroke-dasharray:none;stroke-dashoffset:0" />
      <ellipse
         ry="240.97594"
         rx="240.97591"
         cy="-451.28336"
         cx="3196.9749"
         id="path8125-3"
         style="opacity:1;fill:#ffffff;fill-opacity:1;fill-rule:evenodd;stroke:#000000;stroke-width:34.27645111;stroke-miterlimit:4;stroke-dasharray:none;stroke-dashoffset:0;stroke-opacity:1" />
      <circle
         r="29.932447"
         cy="-512.46948"
         cx="3079.2378"
         id="path9777-2"
         style="opacity:1;fill:#000000;fill-opacity:1;fill-rule:evenodd;stroke:#000000;stroke-width:22.73163223;stroke-miterlimit:4;stroke-dasharray:none;stroke-dashoffset:0;stroke-opacity:1" />
      <circle
         r="29.932447"
         cy="-512.46948"
         cx="3316.7029"
         id="path9777-9-3"
         style="opacity:1;fill:#000000;fill-opacity:1;fill-rule:evenodd;stroke:#000000;stroke-width:22.73163223;stroke-miterlimit:4;stroke-dasharray:none;stroke-dashoffset:0;stroke-opacity:1" />
      <path
         sodipodi:nodetypes="ccccccccccc"
         inkscape:connector-curvature="0"
         inkscape:original-d="m 2982.9596,959.17067 427.4712,-1.02214 -11.2858,-601.78593 27.1164,-473.49416 -26.5948,-53.71134 -164.3261,62.87188 -81.3493,0 -165.7639,-60.26454 -24.5552,69.796444 40.5698,466.156486 z"
         inkscape:path-effect="#path-effect4644-5"
         id="path4642-9"
         d="m 2982.9596,959.17067 427.4712,-1.02214 -11.2858,-601.78593 27.1164,-473.49416 -26.5948,-53.71134 -164.3261,62.87188 -81.3493,0 -165.7639,-60.26454 -24.5552,69.796444 40.5698,466.156486 -21.2823,591.4533 z"
         style="fill:#ffffff;fill-opacity:1;fill-rule:evenodd;stroke:#000000;stroke-width:2.06491327px;stroke-linecap:butt;stroke-linejoin:miter;stroke-opacity:1" />
      <path
         sodipodi:nodetypes="cc"
         inkscape:connector-curvature="0"
         inkscape:original-d="M 3250.0114,-113.51616 2985.2032,149.96523"
         inkscape:path-effect="#path-effect4652-1"
         id="path4650-5"
         d="M 3250.0114,-113.51616 2985.2032,149.96523"
         style="fill:none;fill-rule:evenodd;stroke:#000000;stroke-width:2.0516212px;stroke-linecap:butt;stroke-linejoin:miter;stroke-opacity:1" />
      <path
         sodipodi:nodetypes="csc"
         inkscape:connector-curvature="0"
         id="path4658-4"
         d="m 3002.2376,391.0265 c 0,0 202.6509,68.72482 299.7544,-57.27075 97.1035,-125.99558 112.9356,-253.032466 112.9356,-253.032466"
         style="fill:none;fill-rule:evenodd;stroke:#000000;stroke-width:2.07563806px;stroke-linecap:butt;stroke-linejoin:miter;stroke-opacity:1" />
      <path
         sodipodi:nodetypes="cc"
         inkscape:connector-curvature="0"
         id="path4201-5"
         d="m 3090.5617,-313.86914 c 101.7754,-28.5136 102.1201,-29.02876 215.6675,0"
         style="fill:none;fill-rule:evenodd;stroke:#000000;stroke-width:8;stroke-linecap:round;stroke-linejoin:miter;stroke-miterlimit:4;stroke-dasharray:none;stroke-opacity:1" />
    </g>
    <text
       xml:space="preserve"
       style="font-style:normal;font-weight:normal;font-size:20px;line-height:125%;font-family:Sans;letter-spacing:0px;word-spacing:0px;fill:#000000;fill-opacity:1;stroke:none;stroke-width:1px;stroke-linecap:butt;stroke-linejoin:miter;stroke-opacity:1"
       x="3210"
       y="-1106.2092"
       id="text4465"
       sodipodi:linespacing="125%"><tspan
         sodipodi:role="line"
         id="tspan4467"
         x="3210"
         y="-1106.2092" /></text>
    <text
       xml:space="preserve"
       style="font-style:normal;font-weight:normal;font-size:25px;line-height:125%;font-family:Sans;letter-spacing:0px;word-spacing:0px;fill:#000000;fill-opacity:1;stroke:none;stroke-width:1px;stroke-linecap:butt;stroke-linejoin:miter;stroke-opacity:1"
       x="3518.5713"
       y="-1068.3522"
       id="text4489"
       sodipodi:linespacing="125%"><tspan
         sodipodi:role="line"
         x="3518.5713"
         y="-1068.3522"
         id="tspan4493" /></text>
    <g
       id="g4431"
       transform="matrix(0.59397179,0,0,0.59397179,-737.97241,427.28925)">
      <path
         sodipodi:nodetypes="cc"
         inkscape:connector-curvature="0"
         inkscape:original-d="m 3190.6596,-224.85073 c -541.2852,853.12383 -270.6426,426.5619 0,0 z"
         inkscape:path-effect="#path-effect9802"
         id="path9800"
         d="m 3190.6596,-224.85073 0,0 z"
         style="fill:none;fill-rule:evenodd;stroke:#000000;stroke-width:2.06491327px;stroke-linecap:butt;stroke-linejoin:miter;stroke-opacity:1" />
      <rect
         inkscape:transform-center-y="142.68405"
         inkscape:transform-center-x="45.204326"
         transform="matrix(0.96184119,0.27360834,-0.29587192,0.95522762,0,0)"
         ry="17.421007"
         rx="18.053534"
         y="-464.65964"
         x="3166.9788"
         height="653.28778"
         width="36.107067"
         id="rect8093"
         style="fill:#000000;fill-opacity:1;stroke-width:15;stroke-miterlimit:4;stroke-dasharray:none;stroke-dashoffset:0" />
      <rect
         inkscape:transform-center-y="141.42857"
         inkscape:transform-center-x="-45"
         transform="matrix(-0.96291845,0.26979262,0.29998851,0.95394281,0,0)"
         ry="17.386297"
         rx="18.24781"
         y="1276.5095"
         x="-2939.1489"
         height="651.98615"
         width="36.495621"
         id="rect8093-7"
         style="fill:#000000;fill-opacity:1;stroke-width:15;stroke-miterlimit:4;stroke-dasharray:none;stroke-dashoffset:0" />
      <rect
         transform="matrix(-0.9999996,-8.9412958e-4,-7.7484128e-4,0.9999997,0,0)"
         ry="17.487055"
         rx="16.278799"
         y="-209.68614"
         x="-3214.3721"
         height="655.76453"
         width="32.557598"
         id="rect8093-7-2"
         style="fill:#000000;fill-opacity:1;stroke-width:15;stroke-miterlimit:4;stroke-dasharray:none;stroke-dashoffset:0" />
      <ellipse
         ry="240.97594"
         rx="240.97591"
         cy="-451.28336"
         cx="3196.9749"
         id="path8125"
         style="opacity:1;fill:#ffffff;fill-opacity:1;fill-rule:evenodd;stroke:#000000;stroke-width:34.27645111;stroke-miterlimit:4;stroke-dasharray:none;stroke-dashoffset:0;stroke-opacity:1" />
      <circle
         r="29.932447"
         cy="-512.46948"
         cx="3079.2378"
         id="path9777"
         style="opacity:1;fill:#000000;fill-opacity:1;fill-rule:evenodd;stroke:#000000;stroke-width:22.73163223;stroke-miterlimit:4;stroke-dasharray:none;stroke-dashoffset:0;stroke-opacity:1" />
      <circle
         r="29.932447"
         cy="-512.46948"
         cx="3316.7029"
         id="path9777-9"
         style="opacity:1;fill:#000000;fill-opacity:1;fill-rule:evenodd;stroke:#000000;stroke-width:22.73163223;stroke-miterlimit:4;stroke-dasharray:none;stroke-dashoffset:0;stroke-opacity:1" />
      <rect
         inkscape:transform-center-y="21.342501"
         inkscape:transform-center-x="134.22411"
         transform="matrix(-0.14038308,-0.99009726,-0.98688886,0.16140128,0,0)"
         ry="16"
         rx="16"
         y="-3515.6536"
         x="-440.64926"
         height="295.59406"
         width="35.768627"
         id="rect8093-2-2-8"
         style="fill:#000000;fill-opacity:1;stroke-width:15;stroke-miterlimit:4;stroke-dasharray:none;stroke-dashoffset:0" />
      <rect
         inkscape:transform-center-y="21.342471"
         inkscape:transform-center-x="-134.22401"
         transform="matrix(0.14038308,-0.99009726,0.98688886,0.16140128,0,0)"
         ry="16"
         rx="16"
         y="2813.1096"
         x="582.91943"
         height="295.59406"
         width="35.768627"
         id="rect8093-2-2-8-7"
         style="fill:#000000;fill-opacity:1;stroke-width:15;stroke-miterlimit:4;stroke-dasharray:none;stroke-dashoffset:0" />
      <path
         sodipodi:nodetypes="ccccccccccc"
         inkscape:connector-curvature="0"
         inkscape:original-d="m 2982.9596,959.17067 427.4712,-1.02214 -11.2858,-601.78593 27.1164,-473.49416 -15.1662,-45.8542 -164.3261,62.87188 -92.7779,-7.85714 -176.4782,-47.4074 -13.8409,56.939304 40.5698,466.156486 z"
         inkscape:path-effect="#path-effect4644"
         id="path4642"
         d="m 2982.9596,959.17067 427.4712,-1.02214 -11.2858,-601.78593 27.1164,-473.49416 -15.1662,-45.8542 -164.3261,62.87188 -92.7779,-7.85714 -176.4782,-47.4074 -13.8409,56.939304 40.5698,466.156486 -21.2823,591.4533 z"
         style="fill:#ffffff;fill-opacity:1;fill-rule:evenodd;stroke:#000000;stroke-width:2.06491327px;stroke-linecap:butt;stroke-linejoin:miter;stroke-opacity:1" />
      <path
         sodipodi:nodetypes="cc"
         inkscape:connector-curvature="0"
         inkscape:original-d="M 3250.0114,-113.51616 2985.2032,149.96523"
         inkscape:path-effect="#path-effect4652"
         id="path4650"
         d="M 3250.0114,-113.51616 2985.2032,149.96523"
         style="fill:none;fill-rule:evenodd;stroke:#000000;stroke-width:2.0516212px;stroke-linecap:butt;stroke-linejoin:miter;stroke-opacity:1" />
      <path
         sodipodi:nodetypes="cc"
         inkscape:connector-curvature="0"
         id="path4201"
         d="m 3090.5617,-313.86914 c 101.7754,-28.5136 102.1201,-29.02876 215.6675,0"
         style="fill:none;fill-rule:evenodd;stroke:#000000;stroke-width:8;stroke-linecap:round;stroke-linejoin:miter;stroke-miterlimit:4;stroke-dasharray:none;stroke-opacity:1" />
      <rect
         ry="17.410801"
         rx="17.9412"
         y="-285.27081"
         x="3076.1326"
         height="390.3887"
         width="240.05954"
         id="rect4318"
         style="opacity:1;fill:#ffffff;fill-opacity:1;fill-rule:evenodd;stroke:#000000;stroke-width:8;stroke-linecap:round;stroke-linejoin:miter;stroke-miterlimit:4;stroke-dasharray:none;stroke-dashoffset:0;stroke-opacity:1" />
      <rect
         inkscape:transform-center-y="76.70977"
         inkscape:transform-center-x="112.19302"
         transform="matrix(-0.55043433,-0.83487847,-0.82298727,0.56805982,0,0)"
         ry="16"
         rx="16"
         y="-3027.4651"
         x="-1891.9546"
         height="295.59406"
         width="35.768627"
         id="rect8093-2-2"
         style="fill:#000000;fill-opacity:1;stroke-width:15;stroke-miterlimit:4;stroke-dasharray:none;stroke-dashoffset:0" />
      <rect
         inkscape:transform-center-y="76.709872"
         inkscape:transform-center-x="-112.19308"
         transform="matrix(0.55043433,-0.83487847,0.82298727,0.56805982,0,0)"
         ry="16"
         rx="16"
         y="2312.604"
         x="1731.8549"
         height="295.59406"
         width="35.768627"
         id="rect8093-2-2-1"
         style="fill:#000000;fill-opacity:1;stroke-width:15;stroke-miterlimit:4;stroke-dasharray:none;stroke-dashoffset:0" />
    </g>
    <path
       style="fill:none;fill-rule:evenodd;stroke:#000000;stroke-width:1.20500374px;stroke-linecap:butt;stroke-linejoin:miter;stroke-opacity:1"
       inkscape:path-effect="#path-effect4324"
       inkscape:original-d="m 1155.8428,10.951424 c 0,-3.120828 0,-6.241667 0,-9.362494 -15.1971,2.035323 -30.3942,4.070647 -45.5913,6.10597 -15.1252,8.541165 -30.4531,16.824434 -45.452,25.526477 -12.2584,13.201312 -24.5167,26.402608 -36.7751,39.603908 -7.3272,18.04655 -14.6543,36.093095 -21.9815,54.139635"
       id="path4322"
       d="m 1155.8428,10.951424 0,-9.362494 -45.5913,6.10597 -45.452,25.526477 -36.7751,39.603908 -21.9815,54.139635"
       inkscape:connector-curvature="0" />
    <path
       style="display:inline;fill:none;fill-rule:evenodd;stroke:#000000;stroke-width:1.20500374px;stroke-linecap:butt;stroke-linejoin:miter;stroke-opacity:1"
       inkscape:path-effect="#path-effect4324-0"
       inkscape:original-d="m 1162.0719,15.213957 c 0.1321,-3.118033 0.2642,-6.236076 0.3963,-9.354096 -15.2696,1.39014 -30.5392,2.780294 -45.8089,4.170446 -15.4733,7.893198 -31.1381,15.520162 -46.4919,23.579443 -12.8062,12.670544 -25.6124,25.341065 -38.4187,38.011595 -8.0845,17.72018 -16.1691,35.440365 -24.2537,53.160545"
       id="path4322-0"
       d="m 1162.0719,15.213957 0.3963,-9.354096 -45.8089,4.170446 -46.4919,23.579443 -38.4187,38.011595 -24.2537,53.160545"
       inkscape:connector-curvature="0" />
    <path
       style="display:inline;fill:none;fill-rule:evenodd;stroke:#000000;stroke-width:1.20500374px;stroke-linecap:butt;stroke-linejoin:miter;stroke-opacity:1"
       inkscape:path-effect="#path-effect4324-0-5"
       inkscape:original-d="m 1149.6366,12.562057 c -0.1653,-3.116454 -0.3305,-6.23292 -0.4957,-9.349361 -15.068,2.836977 -30.1361,5.673978 -45.2041,8.510979 -14.6519,9.329911 -29.5198,18.413026 -44.037,27.8969 -11.5422,13.83176 -23.0845,27.66349 -34.6268,41.49524 -6.3615,18.40913 -12.7231,36.818265 -19.0846,55.227395"
       id="path4322-0-0"
       d="m 1149.6366,12.562057 -0.4957,-9.349361 -45.2041,8.510979 -44.037,27.8969 -34.6268,41.49524 -19.0846,55.227395"
       inkscape:connector-curvature="0" />
    <path
       style="display:inline;fill:none;fill-rule:evenodd;stroke:#000000;stroke-width:1.20500374px;stroke-linecap:butt;stroke-linejoin:miter;stroke-opacity:1"
       inkscape:path-effect="#path-effect4324-8"
       inkscape:original-d="m 1164.8577,9.872488 c 0,-3.120828 0,-6.241667 0,-9.36249397 15.1971,2.03532297 30.3942,4.07064697 45.5913,6.10596997 15.1252,8.541165 30.4531,16.824434 45.452,25.526477 12.2583,13.201311 24.5167,26.402614 36.775,39.603914 7.3272,18.04655 14.6543,36.093085 21.9815,54.139635"
       id="path4322-07"
       d="m 1164.8577,9.872488 0,-9.36249397 45.5913,6.10596997 45.452,25.526477 36.775,39.603914 21.9815,54.139635"
       inkscape:connector-curvature="0" />
    <path
       style="display:inline;fill:none;fill-rule:evenodd;stroke:#000000;stroke-width:1.20500374px;stroke-linecap:butt;stroke-linejoin:miter;stroke-opacity:1"
       inkscape:path-effect="#path-effect4324-0-6"
       inkscape:original-d="m 1158.6286,14.135021 c -0.1321,-3.118033 -0.2642,-6.236077 -0.3963,-9.354097 15.2696,1.390141 30.5392,2.780293 45.8089,4.170447 15.4732,7.893197 31.138,15.52016 46.4918,23.579443 12.8062,12.670543 25.6125,25.341061 38.4187,38.011591 8.0846,17.72019 16.1691,35.440365 24.2537,53.160545"
       id="path4322-0-4"
       d="m 1158.6286,14.135021 -0.3963,-9.354097 45.8089,4.170447 46.4918,23.579443 38.4187,38.011591 24.2537,53.160545"
       inkscape:connector-curvature="0" />
    <path
       style="display:inline;fill:none;fill-rule:evenodd;stroke:#000000;stroke-width:1.20500374px;stroke-linecap:butt;stroke-linejoin:miter;stroke-opacity:1"
       inkscape:path-effect="#path-effect4324-0-5-6"
       inkscape:original-d="m 1171.0639,11.48312 c 0.1653,-3.116453 0.3305,-6.232919 0.4957,-9.34936 15.068,2.836977 30.136,5.673977 45.204,8.510978 14.6519,9.329912 29.5198,18.413026 44.037,27.8969 11.5423,13.831757 23.0845,27.663487 34.6268,41.495237 6.3616,18.40913 12.7231,36.818275 19.0846,55.227405"
       id="path4322-0-0-3"
       d="m 1171.0639,11.48312 0.4957,-9.34936 45.204,8.510978 44.037,27.8969 34.6268,41.495237 19.0846,55.227405"
       inkscape:connector-curvature="0" />
    <path
       style="display:inline;fill:none;fill-rule:evenodd;stroke:#000000;stroke-width:1.20500374px;stroke-linecap:butt;stroke-linejoin:miter;stroke-opacity:1"
       inkscape:path-effect="#path-effect4324-1"
       inkscape:original-d="m 1167.72,9.620726 c 0,-3.120828 0,-6.241667 0,-9.36249397 -15.197,2.03532397 -30.3941,4.07064697 -45.5912,6.10597097 -15.1253,8.541164 -30.4532,16.824433 -45.4521,25.526477 -12.2583,13.20131 -24.5167,26.402615 -36.775,39.603905 -7.3272,18.04655 -14.6544,36.093095 -21.9815,54.139635"
       id="path4322-1"
       d="m 1167.72,9.620726 0,-9.36249397 -45.5912,6.10597097 -45.4521,25.526477 -36.775,39.603905 -21.9815,54.139635"
       inkscape:connector-curvature="0" />
    <path
       style="display:inline;fill:none;fill-rule:evenodd;stroke:#000000;stroke-width:1.20500374px;stroke-linecap:butt;stroke-linejoin:miter;stroke-opacity:1"
       inkscape:path-effect="#path-effect4324-0-7"
       inkscape:original-d="m 1173.9491,13.883259 c 0.1321,-3.118032 0.2643,-6.236077 0.3964,-9.354096 -15.2696,1.39014 -30.5393,2.780293 -45.8089,4.170446 -15.4733,7.893197 -31.1381,15.520161 -46.492,23.579444 -12.8062,12.670542 -25.6124,25.341062 -38.4186,38.011592 -8.0846,17.72019 -16.1692,35.440365 -24.2537,53.160545"
       id="path4322-0-1"
       d="m 1173.9491,13.883259 0.3964,-9.354096 -45.8089,4.170446 -46.492,23.579444 -38.4186,38.011592 -24.2537,53.160545"
       inkscape:connector-curvature="0" />
    <path
       style="display:inline;fill:none;fill-rule:evenodd;stroke:#000000;stroke-width:1.20500374px;stroke-linecap:butt;stroke-linejoin:miter;stroke-opacity:1"
       inkscape:path-effect="#path-effect4324-0-5-0"
       inkscape:original-d="m 1161.5138,11.231358 c -0.1652,-3.116454 -0.3304,-6.232918 -0.4957,-9.349359 -15.068,2.836976 -30.136,5.673977 -45.204,8.510978 -14.6519,9.329912 -29.5198,18.413026 -44.037,27.8969 -11.5423,13.831757 -23.0846,27.663488 -34.6269,41.495238 -6.3615,18.40913 -12.723,36.818265 -19.0845,55.227395"
       id="path4322-0-0-2"
       d="m 1161.5138,11.231358 -0.4957,-9.349359 -45.204,8.510978 -44.037,27.8969 -34.6269,41.495238 -19.0845,55.227395"
       inkscape:connector-curvature="0" />
    <path
       style="display:inline;fill:none;fill-rule:evenodd;stroke:#000000;stroke-width:1.20500374px;stroke-linecap:butt;stroke-linejoin:miter;stroke-opacity:1"
       inkscape:path-effect="#path-effect4324-8-2"
       inkscape:original-d="m 1156.101,10.564304 c 0,-3.120828 0,-6.241667 0,-9.362494 15.1971,2.035324 30.3942,4.070647 45.5912,6.105971 15.1252,8.541165 30.4531,16.824433 45.452,25.526477 12.2584,13.201312 24.5167,26.402607 36.7751,39.603907 7.3271,18.04655 14.6543,36.093095 21.9815,54.139635"
       id="path4322-07-7"
       d="m 1156.101,10.564304 0,-9.362494 45.5912,6.105971 45.452,25.526477 36.7751,39.603907 21.9815,54.139635"
       inkscape:connector-curvature="0" />
    <path
       style="display:inline;fill:none;fill-rule:evenodd;stroke:#000000;stroke-width:1.20500374px;stroke-linecap:butt;stroke-linejoin:miter;stroke-opacity:1"
       inkscape:path-effect="#path-effect4324-0-6-0"
       inkscape:original-d="m 1150.0754,12.587977 c -0.1321,-3.118033 -0.2642,-6.236077 -0.3963,-9.354097 15.2696,1.390141 30.5392,2.780293 45.8089,4.170446 15.4733,7.893198 31.138,15.520161 46.4918,23.579444 12.8063,12.670543 25.6125,25.341065 38.4187,38.011595 8.0846,17.72018 16.1691,35.440365 24.2537,53.160545"
       id="path4322-0-4-3"
       d="m 1150.0754,12.587977 -0.3963,-9.354097 45.8089,4.170446 46.4918,23.579444 38.4187,38.011595 24.2537,53.160545"
       inkscape:connector-curvature="0" />
    <path
       style="display:inline;fill:none;fill-rule:evenodd;stroke:#000000;stroke-width:1.20500374px;stroke-linecap:butt;stroke-linejoin:miter;stroke-opacity:1"
       inkscape:path-effect="#path-effect4324-0-5-6-0"
       inkscape:original-d="m 1162.5108,9.936076 c 0.1652,-3.116454 0.3304,-6.232919 0.4956,-9.34935997 15.068,2.83697697 30.1361,5.67397697 45.2041,8.51097797 14.6518,9.329912 29.5197,18.413026 44.0369,27.8969 11.5423,13.831757 23.0846,27.663491 34.6268,41.495231 6.3616,18.40914 12.7231,36.818275 19.0846,55.227405"
       id="path4322-0-0-3-6"
       d="m 1162.5108,9.936076 0.4956,-9.34935997 45.2041,8.51097797 44.0369,27.8969 34.6268,41.495231 19.0846,55.227405"
       inkscape:connector-curvature="0" />
    <path
       style="display:inline;fill:none;fill-rule:evenodd;stroke:#000000;stroke-width:1.31698668px;stroke-linecap:butt;stroke-linejoin:miter;stroke-opacity:1"
       inkscape:path-effect="#path-effect4324-04"
       inkscape:original-d="m 1155.7187,16.380979 c 0,-3.410848 0,-6.82172 0,-10.232568 -16.6094,2.224474 -33.2188,4.448935 -49.8281,6.673409 -16.5309,9.334911 -33.2833,18.38796 -49.676,27.898694 -13.3976,14.428131 -26.7951,28.856251 -40.1926,43.284371 -8.0081,19.723635 -16.0162,39.447265 -24.02434,59.170915"
       id="path4322-7"
       d="m 1155.7187,16.380979 0,-10.232568 -49.8281,6.673409 -49.676,27.898694 -40.1926,43.284371 -24.02434,59.170915"
       inkscape:connector-curvature="0" />
    <path
       style="display:inline;fill:none;fill-rule:evenodd;stroke:#000000;stroke-width:1.31698668px;stroke-linecap:butt;stroke-linejoin:miter;stroke-opacity:1"
       inkscape:path-effect="#path-effect4324-0-66"
       inkscape:original-d="m 1162.5267,21.039633 c 0.1444,-3.407799 0.2887,-6.815599 0.4331,-10.223386 -16.6886,1.519329 -33.3773,3.03867 -50.0659,4.558011 -16.9113,8.626731 -34.0318,16.962478 -50.8125,25.770719 -13.9964,13.848038 -27.9927,27.696048 -41.989,41.544078 -8.8359,19.366955 -17.6718,38.733895 -26.50769,58.100835"
       id="path4322-0-2"
       d="m 1162.5267,21.039633 0.4331,-10.223386 -50.0659,4.558011 -50.8125,25.770719 -41.989,41.544078 -26.50769,58.100835"
       inkscape:connector-curvature="0" />
    <path
       style="display:inline;fill:none;fill-rule:evenodd;stroke:#000000;stroke-width:1.31698668px;stroke-linecap:butt;stroke-linejoin:miter;stroke-opacity:1"
       inkscape:path-effect="#path-effect4324-0-5-1"
       inkscape:original-d="m 1148.9357,18.141285 c -0.1806,-3.406064 -0.3611,-6.812153 -0.5417,-10.218205 -16.4683,3.10062 -32.9367,6.201264 -49.405,9.301921 -16.0135,10.196947 -32.2631,20.124177 -48.1294,30.489404 -12.6149,15.11716 -25.2299,30.23429 -37.8448,45.35145 -6.9527,20.119925 -13.9054,40.239855 -20.8581,60.359775"
       id="path4322-0-0-21"
       d="m 1148.9357,18.141285 -0.5417,-10.218205 -49.405,9.301921 -48.1294,30.489404 -37.8448,45.35145 -20.8581,60.359775"
       inkscape:connector-curvature="0" />
    <path
       style="display:inline;fill:none;fill-rule:evenodd;stroke:#000000;stroke-width:1.31698668px;stroke-linecap:butt;stroke-linejoin:miter;stroke-opacity:1"
       inkscape:path-effect="#path-effect4324-8-6"
       inkscape:original-d="m 1165.5714,15.201774 c 0,-3.410848 0,-6.82172 0,-10.232568 16.6094,2.224473 33.2188,4.448935 49.828,6.673408 16.5309,9.334913 33.2833,18.387962 49.676,27.898696 13.3976,14.428135 26.7951,28.856255 40.1927,43.284365 8.0081,19.723645 16.0161,39.447285 24.0242,59.170925"
       id="path4322-07-5"
       d="m 1165.5714,15.201774 0,-10.232568 49.828,6.673408 49.676,27.898696 40.1927,43.284365 24.0242,59.170925"
       inkscape:connector-curvature="0" />
    <path
       style="display:inline;fill:none;fill-rule:evenodd;stroke:#000000;stroke-width:1.31698668px;stroke-linecap:butt;stroke-linejoin:miter;stroke-opacity:1"
       inkscape:path-effect="#path-effect4324-0-6-1"
       inkscape:original-d="m 1158.7634,19.860428 c -0.1444,-3.4078 -0.2888,-6.815598 -0.4331,-10.223386 16.6886,1.519329 33.3773,3.038671 50.0659,4.558012 16.9112,8.626731 34.0318,16.962477 50.8125,25.770718 13.9963,13.848033 27.9926,27.696053 41.9889,41.544073 8.8359,19.366965 17.6718,38.733905 26.5077,58.100845"
       id="path4322-0-4-9"
       d="m 1158.7634,19.860428 -0.4331,-10.223386 50.0659,4.558012 50.8125,25.770718 41.9889,41.544073 26.5077,58.100845"
       inkscape:connector-curvature="0" />
    <path
       style="display:inline;fill:none;fill-rule:evenodd;stroke:#000000;stroke-width:1.31698668px;stroke-linecap:butt;stroke-linejoin:miter;stroke-opacity:1"
       inkscape:path-effect="#path-effect4324-0-5-6-1"
       inkscape:original-d="m 1172.3544,16.96208 c 0.1806,-3.406064 0.3611,-6.812152 0.5417,-10.218205 16.4683,3.10062 32.9366,6.201265 49.4049,9.30192 16.0135,10.196948 32.2631,20.124179 48.1294,30.489405 12.6149,15.117155 25.2298,30.234305 37.8448,45.351455 6.9527,20.119915 13.9054,40.239855 20.8581,60.359775"
       id="path4322-0-0-3-3"
       d="m 1172.3544,16.96208 0.5417,-10.218205 49.4049,9.30192 48.1294,30.489405 37.8448,45.351455 20.8581,60.359775"
       inkscape:connector-curvature="0" />
    <path
       style="display:inline;fill:none;fill-rule:evenodd;stroke:#000000;stroke-width:1.31698668px;stroke-linecap:butt;stroke-linejoin:miter;stroke-opacity:1"
       inkscape:path-effect="#path-effect4324-1-4"
       inkscape:original-d="m 1168.6997,14.926612 c 0,-3.410849 0,-6.821709 0,-10.232568 -16.6093,2.224473 -33.2187,4.448947 -49.8281,6.67342 -16.5309,9.3349 -33.2832,18.387949 -49.676,27.898683 -13.3975,14.428138 -26.7951,28.856248 -40.1926,43.284378 -8.0081,19.723635 -16.0162,39.447275 -24.0243,59.170915"
       id="path4322-1-9"
       d="m 1168.6997,14.926612 0,-10.232568 -49.8281,6.67342 -49.676,27.898683 -40.1926,43.284378 -24.0243,59.170915"
       inkscape:connector-curvature="0" />
    <path
       style="display:inline;fill:none;fill-rule:evenodd;stroke:#000000;stroke-width:1.31698668px;stroke-linecap:butt;stroke-linejoin:miter;stroke-opacity:1"
       inkscape:path-effect="#path-effect4324-0-7-0"
       inkscape:original-d="m 1175.5077,19.585277 c 0.1444,-3.407799 0.2888,-6.81561 0.4332,-10.223398 -16.6887,1.519329 -33.3774,3.03867 -50.066,4.558024 -16.9113,8.626719 -34.0318,16.962466 -50.8125,25.770719 -13.9963,13.848033 -27.9927,27.696053 -41.989,41.544073 -8.8359,19.366945 -17.6718,38.733895 -26.5077,58.100845"
       id="path4322-0-1-0"
       d="m 1175.5077,19.585277 0.4332,-10.223398 -50.066,4.558024 -50.8125,25.770719 -41.989,41.544073 -26.5077,58.100845"
       inkscape:connector-curvature="0" />
    <path
       style="display:inline;fill:none;fill-rule:evenodd;stroke:#000000;stroke-width:1.31698668px;stroke-linecap:butt;stroke-linejoin:miter;stroke-opacity:1"
       inkscape:path-effect="#path-effect4324-0-5-0-0"
       inkscape:original-d="m 1161.9167,16.686929 c -0.1805,-3.406075 -0.3611,-6.812152 -0.5417,-10.218216 -16.4683,3.10062 -32.9366,6.201276 -49.405,9.301919 -16.0135,10.196961 -32.2631,20.12418 -48.1294,30.489406 -12.6149,15.117167 -25.2298,30.234307 -37.8447,45.351457 -6.9528,20.119915 -13.9055,40.239845 -20.8582,60.359775"
       id="path4322-0-0-2-7"
       d="m 1161.9167,16.686929 -0.5417,-10.218216 -49.405,9.301919 -48.1294,30.489406 -37.8447,45.351457 -20.8582,60.359775"
       inkscape:connector-curvature="0" />
    <path
       style="display:inline;fill:none;fill-rule:evenodd;stroke:#000000;stroke-width:1.31698668px;stroke-linecap:butt;stroke-linejoin:miter;stroke-opacity:1"
       inkscape:path-effect="#path-effect4324-8-2-0"
       inkscape:original-d="m 1156.0009,15.957878 c 0,-3.410847 0,-6.821708 0,-10.232568 16.6094,2.224473 33.2188,4.448947 49.8281,6.67342 16.5308,9.3349 33.2832,18.38795 49.6759,27.898683 13.3976,14.428142 26.7951,28.856252 40.1927,43.284382 8.008,19.723625 16.0161,39.447275 24.0242,59.170915"
       id="path4322-07-7-1"
       d="m 1156.0009,15.957878 0,-10.232568 49.8281,6.67342 49.6759,27.898683 40.1927,43.284382 24.0242,59.170915"
       inkscape:connector-curvature="0" />
    <path
       style="display:inline;fill:none;fill-rule:evenodd;stroke:#000000;stroke-width:1.31698668px;stroke-linecap:butt;stroke-linejoin:miter;stroke-opacity:1"
       inkscape:path-effect="#path-effect4324-0-6-0-8"
       inkscape:original-d="m 1149.4154,18.169615 c -0.1444,-3.4078 -0.2888,-6.815599 -0.4332,-10.223387 16.6886,1.51933 33.3773,3.038671 50.066,4.558013 16.9111,8.626731 34.0317,16.962477 50.8124,25.770718 13.9963,13.848036 27.9926,27.696046 41.989,41.544076 8.8359,19.36695 17.6718,38.733905 26.5076,58.100845"
       id="path4322-0-4-3-5"
       d="m 1149.4154,18.169615 -0.4332,-10.223387 50.066,4.558013 50.8124,25.770718 41.989,41.544076 26.5076,58.100845"
       inkscape:connector-curvature="0" />
    <path
       style="display:inline;fill:none;fill-rule:evenodd;stroke:#000000;stroke-width:1.31698668px;stroke-linecap:butt;stroke-linejoin:miter;stroke-opacity:1"
       inkscape:path-effect="#path-effect4324-0-5-6-0-7"
       inkscape:original-d="m 1163.0063,15.271267 c 0.1806,-3.406065 0.3612,-6.812152 0.5417,-10.218205 16.4684,3.100619 32.9367,6.201264 49.405,9.30192 16.0135,10.196947 32.2631,20.124179 48.1293,30.489404 12.615,15.117159 25.2299,30.234309 37.8448,45.351459 6.9527,20.119915 13.9055,40.239845 20.8582,60.359775"
       id="path4322-0-0-3-6-7"
       d="m 1163.0063,15.271267 0.5417,-10.218205 49.405,9.30192 48.1293,30.489404 37.8448,45.351459 20.8582,60.359775"
       inkscape:connector-curvature="0" />
    <path
       style="display:inline;fill:none;fill-rule:evenodd;stroke:#000000;stroke-width:1.05869484px;stroke-linecap:butt;stroke-linejoin:miter;stroke-opacity:1"
       inkscape:path-effect="#path-effect4324-04-3"
       inkscape:original-d="m 1152.8491,28.876893 c 0,-2.741901 0,-5.483828 0,-8.225717 -13.3519,1.788201 -26.7038,3.57639 -40.0557,5.364593 -13.2888,7.504112 -26.7556,14.781648 -39.9334,22.427109 -10.77,11.598427 -21.5399,23.196867 -32.3099,34.795297 -6.4375,15.85538 -12.8751,31.710735 -19.3126,47.566115"
       id="path4322-7-5"
       d="m 1152.8491,28.876893 0,-8.225717 -40.0557,5.364593 -39.9334,22.427109 -32.3099,34.795297 -19.3126,47.566115"
       inkscape:connector-curvature="0" />
    <path
       style="display:inline;fill:none;fill-rule:evenodd;stroke:#000000;stroke-width:1.05869484px;stroke-linecap:butt;stroke-linejoin:miter;stroke-opacity:1"
       inkscape:path-effect="#path-effect4324-0-66-2"
       inkscape:original-d="m 1158.8975,21.540095 c 0.116,-2.739456 -0.3436,5.602882 -0.2275,2.863438 l -40.2468,3.66408 c -13.5946,6.934833 -27.3574,13.635738 -40.847,20.716474 -11.2514,11.132118 -22.5027,22.264218 -33.754,33.396318 -7.1029,15.56864 -14.2059,31.137285 -21.3089,46.705905"
       id="path4322-0-2-9"
       d="m 1158.8975,21.540095 -0.2275,2.863438 -40.2468,3.66408 -40.847,20.716474 -33.754,33.396318 -21.3089,46.705905"
       inkscape:connector-curvature="0"
       sodipodi:nodetypes="cccccc" />
    <path
       style="display:inline;fill:none;fill-rule:evenodd;stroke:#000000;stroke-width:1.05869484px;stroke-linecap:butt;stroke-linejoin:miter;stroke-opacity:1"
       inkscape:path-effect="#path-effect4324-0-5-1-0"
       inkscape:original-d="m 1147.3964,30.291965 c -0.1452,-2.738057 -0.2904,-5.47614 -0.4355,-8.214186 -13.2385,2.492526 -26.477,4.985054 -39.7155,7.477604 -12.8729,8.197087 -25.9356,16.177356 -38.6901,24.509722 -10.1409,12.15233 -20.2817,24.30463 -30.4226,36.45697 -5.5891,16.173935 -11.1782,32.347885 -16.7673,48.521815"
       id="path4322-0-0-21-9"
       d="m 1147.3964,30.291965 -0.4355,-8.214186 -39.7155,7.477604 -38.6901,24.509722 -30.4226,36.45697 -16.7673,48.521815"
       inkscape:connector-curvature="0" />
    <path
       style="display:inline;fill:none;fill-rule:evenodd;stroke:#000000;stroke-width:1.05869484px;stroke-linecap:butt;stroke-linejoin:miter;stroke-opacity:1"
       inkscape:path-effect="#path-effect4324-8-6-0"
       inkscape:original-d="m 1160.7694,27.928953 c 0,-2.741903 0,-5.483816 0,-8.225718 13.3519,1.788202 26.7038,3.576391 40.0557,5.364592 13.2887,7.504126 26.7555,14.781662 39.9333,22.42711 10.7699,11.598448 21.5399,23.196868 32.3099,34.795298 6.4375,15.85538 12.875,31.710755 19.3125,47.566115"
       id="path4322-07-5-1"
       d="m 1160.7694,27.928953 0,-8.225718 40.0557,5.364592 39.9333,22.42711 32.3099,34.795298 19.3125,47.566115"
       inkscape:connector-curvature="0" />
    <path
       style="display:inline;fill:none;fill-rule:evenodd;stroke:#000000;stroke-width:1.05869484px;stroke-linecap:butt;stroke-linejoin:miter;stroke-opacity:1"
       inkscape:path-effect="#path-effect4324-0-6-1-2"
       inkscape:original-d="m 1155.2966,31.673936 c -0.116,-2.739444 -0.2321,-5.478899 -0.3482,-8.218343 13.4156,1.221355 26.8312,2.442724 40.2469,3.66408 13.5945,6.934833 27.3573,13.63575 40.8469,20.716485 11.2513,11.132117 22.5026,22.264207 33.7539,33.396307 7.103,15.56865 14.206,31.137285 21.3089,46.705915"
       id="path4322-0-4-9-1"
       d="m 1155.2966,31.673936 -0.3482,-8.218343 40.2469,3.66408 40.8469,20.716485 33.7539,33.396307 21.3089,46.705915"
       inkscape:connector-curvature="0" />
    <path
       style="display:inline;fill:none;fill-rule:evenodd;stroke:#000000;stroke-width:1.05869484px;stroke-linecap:butt;stroke-linejoin:miter;stroke-opacity:1"
       inkscape:path-effect="#path-effect4324-0-5-6-1-0"
       inkscape:original-d="m 1166.2221,29.344025 c 0.1452,-2.738058 0.2903,-5.476128 0.4354,-8.214174 13.2385,2.492514 26.4771,4.985053 39.7156,7.477591 12.8728,8.197087 25.9354,16.177357 38.69,24.509733 10.1408,12.15233 20.2817,24.30465 30.4225,36.45697 5.5892,16.173925 11.1783,32.347875 16.7674,48.521805"
       id="path4322-0-0-3-3-4"
       d="m 1166.2221,29.344025 0.4354,-8.214174 39.7156,7.477591 38.69,24.509733 30.4225,36.45697 16.7674,48.521805"
       inkscape:connector-curvature="0" />
    <path
       style="display:inline;fill:none;fill-rule:evenodd;stroke:#000000;stroke-width:1.05869484px;stroke-linecap:butt;stroke-linejoin:miter;stroke-opacity:1"
       inkscape:path-effect="#path-effect4324-1-4-2"
       inkscape:original-d="m 1163.2842,27.707763 c 0,-2.741903 0,-5.483817 0,-8.22573 -13.3519,1.788213 -26.7038,3.576415 -40.0557,5.364616 -13.2888,7.504101 -26.7556,14.781638 -39.9334,22.427098 -10.7699,11.598438 -21.5399,23.196868 -32.3099,34.795298 -6.4375,15.85536 -12.875,31.710735 -19.3125,47.566115"
       id="path4322-1-9-8"
       d="m 1163.2842,27.707763 0,-8.22573 -40.0557,5.364616 -39.9334,22.427098 -32.3099,34.795298 -19.3125,47.566115"
       inkscape:connector-curvature="0" />
    <path
       style="display:inline;fill:none;fill-rule:evenodd;stroke:#000000;stroke-width:1.05869484px;stroke-linecap:butt;stroke-linejoin:miter;stroke-opacity:1"
       inkscape:path-effect="#path-effect4324-0-7-0-4"
       inkscape:original-d="m 1168.757,31.452757 c 0.116,-2.739455 0.2321,-5.47891 0.3482,-8.218355 -13.4156,1.221356 -26.8313,2.442712 -40.2469,3.664092 -13.5946,6.934808 -27.3574,13.635727 -40.847,20.716474 -11.2513,11.132117 -22.5026,22.264207 -33.7539,33.396307 -7.103,15.56864 -14.206,31.137275 -21.3089,46.705915"
       id="path4322-0-1-0-4"
       d="m 1168.757,31.452757 0.3482,-8.218355 -40.2469,3.664092 -40.847,20.716474 -33.7539,33.396307 -21.3089,46.705915"
       inkscape:connector-curvature="0" />
    <path
       style="display:inline;fill:none;fill-rule:evenodd;stroke:#000000;stroke-width:1.05869484px;stroke-linecap:butt;stroke-linejoin:miter;stroke-opacity:1"
       inkscape:path-effect="#path-effect4324-0-5-0-0-0"
       inkscape:original-d="m 1157.8315,29.122835 c -0.1452,-2.738058 -0.2903,-5.476129 -0.4355,-8.214186 -13.2385,2.492526 -26.477,4.985065 -39.7155,7.477603 -12.8729,8.197099 -25.9355,16.177356 -38.6901,24.509713 -10.1408,12.15235 -20.2817,24.30465 -30.4225,36.45698 -5.5891,16.173935 -11.1783,32.347885 -16.7674,48.521815"
       id="path4322-0-0-2-7-6"
       d="m 1157.8315,29.122835 -0.4355,-8.214186 -39.7155,7.477603 -38.6901,24.509713 -30.4225,36.45698 -16.7674,48.521815"
       inkscape:connector-curvature="0" />
    <path
       style="display:inline;fill:none;fill-rule:evenodd;stroke:#000000;stroke-width:1.05869484px;stroke-linecap:butt;stroke-linejoin:miter;stroke-opacity:1"
       inkscape:path-effect="#path-effect4324-8-2-0-6"
       inkscape:original-d="m 1153.0759,28.536769 c 0,-2.741902 0,-5.483804 0,-8.225718 13.3519,1.788202 26.7038,3.576403 40.0557,5.364605 13.2888,7.504113 26.7555,14.781637 39.9333,22.427097 10.7699,11.598442 21.5399,23.196872 32.3099,34.795312 6.4375,15.85536 12.875,31.710735 19.3125,47.566115"
       id="path4322-07-7-1-1"
       d="m 1153.0759,28.536769 0,-8.225718 40.0557,5.364605 39.9333,22.427097 32.3099,34.795312 19.3125,47.566115"
       inkscape:connector-curvature="0" />
    <path
       style="display:inline;fill:none;fill-rule:evenodd;stroke:#000000;stroke-width:1.05869484px;stroke-linecap:butt;stroke-linejoin:miter;stroke-opacity:1"
       inkscape:path-effect="#path-effect4324-0-6-0-8-6"
       inkscape:original-d="m 1147.7819,30.31474 c -0.116,-2.739456 -0.2321,-5.478912 -0.3482,-8.218343 13.4156,1.221355 26.8313,2.442711 40.2469,3.66408 13.5946,6.93482 27.3573,13.635738 40.8469,20.716473 11.2513,11.132115 22.5026,22.264205 33.754,33.396305 7.1029,15.56865 14.2059,31.137285 21.3089,46.705925"
       id="path4322-0-4-3-5-1"
       d="m 1147.7819,30.31474 -0.3482,-8.218343 40.2469,3.66408 40.8469,20.716473 33.754,33.396305 21.3089,46.705925"
       inkscape:connector-curvature="0" />
    <path
       style="display:inline;fill:none;fill-rule:evenodd;stroke:#000000;stroke-width:1.05869484px;stroke-linecap:butt;stroke-linejoin:miter;stroke-opacity:1"
       inkscape:path-effect="#path-effect4324-0-5-6-0-7-1"
       inkscape:original-d="m 1158.7074,27.984817 c 0.1452,-2.738047 0.2903,-5.476128 0.4355,-8.214174 13.2385,2.492514 26.477,4.985052 39.7155,7.477603 12.8729,8.197087 25.9355,16.177357 38.69,24.509717 10.1408,12.152332 20.2817,24.304652 30.4226,36.456972 5.5891,16.173925 11.1782,32.347875 16.7673,48.521815"
       id="path4322-0-0-3-6-7-7"
       d="m 1158.7074,27.984817 0.4355,-8.214174 39.7155,7.477603 38.69,24.509717 30.4226,36.456972 16.7673,48.521815"
       inkscape:connector-curvature="0" />
    <path
       style="display:inline;fill:none;fill-rule:evenodd;stroke:#000000;stroke-width:0.99792027px;stroke-linecap:butt;stroke-linejoin:miter;stroke-opacity:1"
       inkscape:path-effect="#path-effect4324-04-3-7"
       inkscape:original-d="m 1155.434,20.962982 0.5757,6.206638 -37.7563,5.056641 c -12.526,7.073325 -25.2197,13.933099 -37.641,21.139674 l -30.4551,32.79786 -18.204,44.835575"
       id="path4322-7-5-2"
       d="m 1155.434,20.962982 0.5757,6.206638 -37.7563,5.056641 -37.641,21.139674 -30.4551,32.79786 -18.204,44.835575"
       inkscape:connector-curvature="0"
       sodipodi:nodetypes="cccccc" />
    <path
       style="display:inline;fill:none;fill-rule:evenodd;stroke:#000000;stroke-width:0.99792027px;stroke-linecap:butt;stroke-linejoin:miter;stroke-opacity:1"
       inkscape:path-effect="#path-effect4324-0-66-2-0"
       inkscape:original-d="m 1162.6075,22.478106 -1.111,8.228465 -37.9365,3.453746 c -12.8142,6.536724 -25.7869,12.852968 -38.5022,19.527228 -10.6054,10.49308 -21.2108,20.98615 -31.8163,31.4792 -6.6952,14.67492 -13.3904,29.349835 -20.0856,44.024745"
       id="path4322-0-2-9-9"
       d="m 1162.6075,22.478106 -1.111,8.228465 -37.9365,3.453746 -38.5022,19.527228 -31.8163,31.4792 -20.0856,44.024745"
       inkscape:connector-curvature="0"
       sodipodi:nodetypes="cccccc" />
    <path
       style="display:inline;fill:none;fill-rule:evenodd;stroke:#000000;stroke-width:0.99792027px;stroke-linecap:butt;stroke-linejoin:miter;stroke-opacity:1"
       inkscape:path-effect="#path-effect4324-0-5-1-0-8"
       inkscape:original-d="m 1151.3018,23.016417 c -0.1369,-2.580889 -0.7055,8.07878 -0.8423,5.497915 -12.4785,2.349444 -24.9571,4.698888 -37.4356,7.048357 -12.1339,7.726519 -24.4467,15.248672 -36.4691,23.102716 l -28.6761,34.36415 -15.8049,45.736415"
       id="path4322-0-0-21-9-6"
       d="m 1151.3018,23.016417 -0.8423,5.497915 -37.4356,7.048357 -36.4691,23.102716 -28.6761,34.36415 -15.8049,45.736415"
       inkscape:connector-curvature="0"
       sodipodi:nodetypes="cccccc" />
    <path
       style="display:inline;fill:none;fill-rule:evenodd;stroke:#000000;stroke-width:0.99792027px;stroke-linecap:butt;stroke-linejoin:miter;stroke-opacity:1"
       inkscape:path-effect="#path-effect4324-8-6-0-4"
       inkscape:original-d="m 1163.6193,19.637707 -0.144,6.638391 37.7563,5.056641 c 12.5259,7.073337 25.2196,13.933109 37.6409,21.139656 10.1517,10.93265 20.3035,21.86526 30.4552,32.79787 l 18.2039,44.835585"
       id="path4322-07-5-1-5"
       d="m 1163.6193,19.637707 -0.144,6.638391 37.7563,5.056641 37.6409,21.139656 30.4552,32.79787 18.2039,44.835585"
       inkscape:connector-curvature="0"
       sodipodi:nodetypes="cccccc" />
    <path
       style="display:inline;fill:none;fill-rule:evenodd;stroke:#000000;stroke-width:0.99792027px;stroke-linecap:butt;stroke-linejoin:miter;stroke-opacity:1"
       inkscape:path-effect="#path-effect4324-0-6-1-2-3"
       inkscape:original-d="m 1158.3167,22.304175 -0.3282,7.508874 37.9365,3.453745 c 12.8142,6.536724 25.7868,12.852981 38.5021,19.527241 10.6054,10.49308 21.2109,20.98612 31.8163,31.47919 l 20.0856,44.024755"
       id="path4322-0-4-9-1-7"
       d="m 1158.3167,22.304175 -0.3282,7.508874 37.9365,3.453745 38.5021,19.527241 31.8163,31.47919 20.0856,44.024755"
       inkscape:connector-curvature="0"
       sodipodi:nodetypes="cccccc" />
    <path
       style="display:inline;fill:none;fill-rule:evenodd;stroke:#000000;stroke-width:0.99792027px;stroke-linecap:butt;stroke-linejoin:miter;stroke-opacity:1"
       inkscape:path-effect="#path-effect4324-0-5-6-1-0-5"
       inkscape:original-d="m 1170.1981,19.820181 c 0.1369,-2.580877 -1.3094,10.381505 -1.1726,7.800641 l 37.4356,7.048332 c 12.1339,7.72652 24.4467,15.248684 36.469,23.102741 l 28.6762,34.36415 c 5.2683,15.245455 10.5365,30.490935 15.8048,45.736405"
       id="path4322-0-0-3-3-4-2"
       d="m 1170.1981,19.820181 -1.1726,7.800641 37.4356,7.048332 36.469,23.102741 28.6762,34.36415 15.8048,45.736405"
       inkscape:connector-curvature="0"
       sodipodi:nodetypes="cccccc" />
    <path
       style="display:inline;fill:none;fill-rule:evenodd;stroke:#000000;stroke-width:0.99792027px;stroke-linecap:butt;stroke-linejoin:miter;stroke-opacity:1"
       inkscape:path-effect="#path-effect4324-1-4-2-1"
       inkscape:original-d="m 1167.1411,19.860958 -1.2953,6.206638 -37.7563,5.056653 c -12.526,7.073325 -25.2197,13.933086 -37.641,21.139656 l -30.4551,32.79787 -18.204,44.835585"
       id="path4322-1-9-8-8"
       d="m 1167.1411,19.860958 -1.2953,6.206638 -37.7563,5.056653 -37.641,21.139656 -30.4551,32.79787 -18.204,44.835585"
       inkscape:connector-curvature="0"
       sodipodi:nodetypes="cccccc" />
    <path
       style="display:inline;fill:none;fill-rule:evenodd;stroke:#000000;stroke-width:0.99792027px;stroke-linecap:butt;stroke-linejoin:miter;stroke-opacity:1"
       inkscape:path-effect="#path-effect4324-0-7-0-4-7"
       inkscape:original-d="m 1172.8753,23.822721 -1.5427,5.781838 c -12.6455,1.151248 -25.291,2.302485 -37.9365,3.453757 -12.8141,6.536701 -25.7869,12.852956 -38.5021,19.527229 l -31.8164,31.47919 -20.0856,44.024755"
       id="path4322-0-1-0-4-4"
       d="m 1172.8753,23.822721 -1.5427,5.781838 -37.9365,3.453757 -38.5021,19.527229 -31.8164,31.47919 -20.0856,44.024755"
       inkscape:connector-curvature="0"
       sodipodi:nodetypes="cccccc" />
    <path
       style="display:inline;fill:none;fill-rule:evenodd;stroke:#000000;stroke-width:0.99792027px;stroke-linecap:butt;stroke-linejoin:miter;stroke-opacity:1"
       inkscape:path-effect="#path-effect4324-0-5-0-0-0-7"
       inkscape:original-d="m 1160.7061,20.619122 c -0.1368,-2.580877 -0.2737,9.374075 -0.4105,6.793198 l -37.4356,7.048345 c -12.1339,7.726531 -24.4467,15.248684 -36.4691,23.10272 -9.5587,11.45474 -19.1174,22.90945 -28.6761,34.36415 l -15.8049,45.736425"
       id="path4322-0-0-2-7-6-3"
       d="m 1160.7061,20.619122 -0.4105,6.793198 -37.4356,7.048345 -36.4691,23.10272 -28.6761,34.36415 -15.8049,45.736425"
       inkscape:connector-curvature="0"
       sodipodi:nodetypes="cccccc" />
    <path
       style="display:inline;fill:none;fill-rule:evenodd;stroke:#000000;stroke-width:0.99792027px;stroke-linecap:butt;stroke-linejoin:miter;stroke-opacity:1"
       inkscape:path-effect="#path-effect4324-8-2-0-6-2"
       inkscape:original-d="m 1157.8066,21.361971 -1.5831,5.487058 37.7563,5.056641 c 12.5259,7.073325 25.2196,13.933085 37.6409,21.139655 l 30.4551,32.79789 18.2039,44.835565"
       id="path4322-07-7-1-1-0"
       d="m 1157.8066,21.361971 -1.5831,5.487058 37.7563,5.056641 37.6409,21.139655 30.4551,32.79789 18.2039,44.835565"
       inkscape:connector-curvature="0"
       sodipodi:nodetypes="cccccc" />
    <path
       style="display:inline;fill:none;fill-rule:evenodd;stroke:#000000;stroke-width:0.99792027px;stroke-linecap:butt;stroke-linejoin:miter;stroke-opacity:1"
       inkscape:path-effect="#path-effect4324-0-6-0-8-6-7"
       inkscape:original-d="m 1151.0895,21.310855 -0.1843,7.221022 37.9365,3.453745 c 12.8142,6.536712 25.7868,12.852968 38.5021,19.527232 10.6054,10.493081 21.2109,20.986131 31.8163,31.479181 6.6952,14.67494 13.3904,29.349845 20.0856,44.024765"
       id="path4322-0-4-3-5-1-6"
       d="m 1151.0895,21.310855 -0.1843,7.221022 37.9365,3.453745 38.5021,19.527232 31.8163,31.479181 20.0856,44.024765"
       inkscape:connector-curvature="0"
       sodipodi:nodetypes="cccccc" />
    <path
       style="display:inline;fill:none;fill-rule:evenodd;stroke:#000000;stroke-width:0.99792027px;stroke-linecap:butt;stroke-linejoin:miter;stroke-opacity:1"
       inkscape:path-effect="#path-effect4324-0-5-6-0-7-1-1"
       inkscape:original-d="m 1162.5391,22.280907 c 0.1369,-2.580877 -0.7337,6.639595 -0.5969,4.05873 12.4785,2.349432 24.9571,4.698888 37.4356,7.048356 12.134,7.726509 24.4467,15.248673 36.469,23.102722 l 28.6762,34.36414 15.8048,45.736415"
       id="path4322-0-0-3-6-7-7-5"
       d="m 1162.5391,22.280907 -0.5969,4.05873 37.4356,7.048356 36.469,23.102722 28.6762,34.36414 15.8048,45.736415"
       inkscape:connector-curvature="0"
       sodipodi:nodetypes="cccccc" />
    <g
       transform="matrix(1.2263737,0,0,1.2260758,3.8934435,-231.40379)"
       id="g4650">
      <path
         sodipodi:nodetypes="csccscc"
         inkscape:connector-curvature="0"
         d="m 1046.948,596.70488 c 0,0 -7.7118,61.22032 -54.7373,122.23769 -47.02553,61.01737 -142.37047,28.68352 -142.37047,28.68352 l 0.45931,-12.09263 c 0,0 96.11437,32.78817 143.1399,-28.2292 47.02546,-61.01737 54.09956,-122.0066 54.09956,-122.0066 z"
         style="fill:#6e00ad;fill-opacity:1;fill-rule:evenodd;stroke:#6e00ad;stroke-width:1;stroke-linecap:butt;stroke-linejoin:miter;stroke-miterlimit:4;stroke-dasharray:none;stroke-opacity:1"
         id="path4658-4-5-0-9" />
      <path
         inkscape:path-effect="#path-effect4585-2"
         sodipodi:nodetypes="cccc"
         inkscape:connector-curvature="0"
         inkscape:original-d="m 1047.0357,585.26013 1.121,-1.95095 -0.1188,2.09583 z"
         id="path4583-3"
         d="m 1047.0357,585.26013 1.121,-1.95095 -0.1188,2.09583 -1.0022,-0.14488 z"
         style="fill:#6e00ad;fill-opacity:1;fill-rule:evenodd;stroke:#000000;stroke-width:0;stroke-linecap:butt;stroke-linejoin:miter;stroke-miterlimit:4;stroke-dasharray:none;stroke-opacity:1" />
    </g>
    <text
       xml:space="preserve"
       style="font-style:normal;font-weight:normal;font-size:30.00000191px;line-height:125%;font-family:Sans;letter-spacing:0px;word-spacing:0px;fill:#000000;fill-opacity:1;stroke:none;stroke-width:1px;stroke-linecap:butt;stroke-linejoin:miter;stroke-opacity:1"
       x="1095.5695"
       y="379.28296"
       id="text9964"
       sodipodi:linespacing="125%"><tspan
         sodipodi:role="line"
         id="tspan9966"
         x="1095.5695"
         y="379.28296">MONITIO</tspan></text>
  </g>
</svg>
