<?xml version="1.0" encoding="UTF-8" standalone="no"?>
<!-- Created with Inkscape (http://www.inkscape.org/) -->

<svg
   xmlns:dc="http://purl.org/dc/elements/1.1/"
   xmlns:cc="http://creativecommons.org/ns#"
   xmlns:rdf="http://www.w3.org/1999/02/22-rdf-syntax-ns#"
   xmlns:svg="http://www.w3.org/2000/svg"
   xmlns="http://www.w3.org/2000/svg"
   xmlns:sodipodi="http://sodipodi.sourceforge.net/DTD/sodipodi-0.dtd"
   xmlns:inkscape="http://www.inkscape.org/namespaces/inkscape"
   width="1920"
   height="1080"
   viewBox="0 0 1920 1080"
   id="svg8414"
   version="1.1"
   inkscape:version="0.91 r13725"
   sodipodi:docname="27a_the_exile.svg">
  <defs
     id="defs8416">
    <inkscape:path-effect
       effect="spiro"
       id="path-effect8983"
       is_visible="true" />
    <inkscape:path-effect
       effect="spiro"
       id="path-effect9802"
       is_visible="true" />
    <inkscape:path-effect
       effect="spiro"
       id="path-effect4644"
       is_visible="true" />
    <inkscape:path-effect
       effect="spiro"
       id="path-effect4652"
       is_visible="true" />
    <inkscape:path-effect
       effect="spiro"
       id="path-effect4316"
       is_visible="true" />
    <inkscape:path-effect
       effect="spiro"
       id="path-effect4320"
       is_visible="true" />
    <inkscape:path-effect
       effect="spiro"
       id="path-effect4332"
       is_visible="true" />
    <inkscape:path-effect
       effect="spiro"
       id="path-effect4344"
       is_visible="true" />
    <inkscape:path-effect
       effect="spiro"
       id="path-effect4356"
       is_visible="true" />
    <inkscape:path-effect
       effect="spiro"
       id="path-effect4368"
       is_visible="true" />
    <inkscape:path-effect
       effect="spiro"
       id="path-effect4384"
       is_visible="true" />
    <inkscape:path-effect
       effect="spiro"
       id="path-effect4388"
       is_visible="true" />
    <inkscape:path-effect
       effect="spiro"
       id="path-effect4392"
       is_visible="true" />
    <inkscape:path-effect
       effect="spiro"
       id="path-effect4396"
       is_visible="true" />
    <inkscape:path-effect
       effect="spiro"
       id="path-effect4400"
       is_visible="true" />
    <inkscape:path-effect
       effect="spiro"
       id="path-effect4404"
       is_visible="true" />
    <inkscape:path-effect
       effect="spiro"
       id="path-effect4316-4"
       is_visible="true" />
    <inkscape:path-effect
       effect="spiro"
       id="path-effect4320-5"
       is_visible="true" />
    <inkscape:path-effect
       effect="spiro"
       id="path-effect4332-4"
       is_visible="true" />
    <inkscape:path-effect
       effect="spiro"
       id="path-effect4344-1"
       is_visible="true" />
    <inkscape:path-effect
       effect="spiro"
       id="path-effect4356-3"
       is_visible="true" />
    <inkscape:path-effect
       effect="spiro"
       id="path-effect4368-5"
       is_visible="true" />
    <inkscape:path-effect
       effect="spiro"
       id="path-effect4384-7"
       is_visible="true" />
    <inkscape:path-effect
       effect="spiro"
       id="path-effect4388-4"
       is_visible="true" />
    <inkscape:path-effect
       effect="spiro"
       id="path-effect4392-5"
       is_visible="true" />
    <inkscape:path-effect
       effect="spiro"
       id="path-effect4396-3"
       is_visible="true" />
    <inkscape:path-effect
       effect="spiro"
       id="path-effect4400-0"
       is_visible="true" />
    <inkscape:path-effect
       effect="spiro"
       id="path-effect4404-5"
       is_visible="true" />
    <inkscape:path-effect
       effect="spiro"
       id="path-effect4316-4-6"
       is_visible="true" />
    <inkscape:path-effect
       effect="spiro"
       id="path-effect4320-5-8"
       is_visible="true" />
    <inkscape:path-effect
       effect="spiro"
       id="path-effect4332-4-0"
       is_visible="true" />
    <inkscape:path-effect
       effect="spiro"
       id="path-effect4344-1-9"
       is_visible="true" />
    <inkscape:path-effect
       effect="spiro"
       id="path-effect4356-3-1"
       is_visible="true" />
    <inkscape:path-effect
       effect="spiro"
       id="path-effect4368-5-8"
       is_visible="true" />
    <inkscape:path-effect
       effect="spiro"
       id="path-effect4384-7-4"
       is_visible="true" />
    <inkscape:path-effect
       effect="spiro"
       id="path-effect4388-4-8"
       is_visible="true" />
    <inkscape:path-effect
       effect="spiro"
       id="path-effect4392-5-2"
       is_visible="true" />
    <inkscape:path-effect
       effect="spiro"
       id="path-effect4396-3-5"
       is_visible="true" />
    <inkscape:path-effect
       effect="spiro"
       id="path-effect4400-0-1"
       is_visible="true" />
    <inkscape:path-effect
       effect="spiro"
       id="path-effect4404-5-7"
       is_visible="true" />
    <inkscape:path-effect
       effect="spiro"
       id="path-effect4316-4-6-9"
       is_visible="true" />
    <inkscape:path-effect
       effect="spiro"
       id="path-effect4320-5-8-3"
       is_visible="true" />
    <inkscape:path-effect
       effect="spiro"
       id="path-effect4332-4-0-5"
       is_visible="true" />
    <inkscape:path-effect
       effect="spiro"
       id="path-effect4344-1-9-3"
       is_visible="true" />
    <inkscape:path-effect
       effect="spiro"
       id="path-effect4356-3-1-7"
       is_visible="true" />
    <inkscape:path-effect
       effect="spiro"
       id="path-effect4368-5-8-9"
       is_visible="true" />
    <inkscape:path-effect
       effect="spiro"
       id="path-effect4384-7-4-0"
       is_visible="true" />
    <inkscape:path-effect
       effect="spiro"
       id="path-effect4388-4-8-7"
       is_visible="true" />
    <inkscape:path-effect
       effect="spiro"
       id="path-effect4392-5-2-9"
       is_visible="true" />
    <inkscape:path-effect
       effect="spiro"
       id="path-effect4396-3-5-1"
       is_visible="true" />
    <inkscape:path-effect
       effect="spiro"
       id="path-effect4400-0-1-8"
       is_visible="true" />
    <inkscape:path-effect
       effect="spiro"
       id="path-effect4404-5-7-7"
       is_visible="true" />
    <inkscape:path-effect
       effect="spiro"
       id="path-effect4316-7"
       is_visible="true" />
    <inkscape:path-effect
       effect="spiro"
       id="path-effect4320-4"
       is_visible="true" />
    <inkscape:path-effect
       effect="spiro"
       id="path-effect4332-1"
       is_visible="true" />
    <inkscape:path-effect
       effect="spiro"
       id="path-effect4344-7"
       is_visible="true" />
    <inkscape:path-effect
       effect="spiro"
       id="path-effect4356-7"
       is_visible="true" />
    <inkscape:path-effect
       effect="spiro"
       id="path-effect4368-1"
       is_visible="true" />
    <inkscape:path-effect
       effect="spiro"
       id="path-effect4384-8"
       is_visible="true" />
    <inkscape:path-effect
       effect="spiro"
       id="path-effect4388-1"
       is_visible="true" />
    <inkscape:path-effect
       effect="spiro"
       id="path-effect4392-7"
       is_visible="true" />
    <inkscape:path-effect
       effect="spiro"
       id="path-effect4396-2"
       is_visible="true" />
    <inkscape:path-effect
       effect="spiro"
       id="path-effect4400-06"
       is_visible="true" />
    <inkscape:path-effect
       effect="spiro"
       id="path-effect4404-4"
       is_visible="true" />
    <inkscape:path-effect
       effect="spiro"
       id="path-effect4316-4-7"
       is_visible="true" />
    <inkscape:path-effect
       effect="spiro"
       id="path-effect4320-5-9"
       is_visible="true" />
    <inkscape:path-effect
       effect="spiro"
       id="path-effect4332-4-8"
       is_visible="true" />
    <inkscape:path-effect
       effect="spiro"
       id="path-effect4344-1-6"
       is_visible="true" />
    <inkscape:path-effect
       effect="spiro"
       id="path-effect4356-3-8"
       is_visible="true" />
    <inkscape:path-effect
       effect="spiro"
       id="path-effect4368-5-4"
       is_visible="true" />
    <inkscape:path-effect
       effect="spiro"
       id="path-effect4384-7-9"
       is_visible="true" />
    <inkscape:path-effect
       effect="spiro"
       id="path-effect4388-4-6"
       is_visible="true" />
    <inkscape:path-effect
       effect="spiro"
       id="path-effect4392-5-4"
       is_visible="true" />
    <inkscape:path-effect
       effect="spiro"
       id="path-effect4396-3-0"
       is_visible="true" />
    <inkscape:path-effect
       effect="spiro"
       id="path-effect4400-0-4"
       is_visible="true" />
    <inkscape:path-effect
       effect="spiro"
       id="path-effect4404-5-5"
       is_visible="true" />
    <inkscape:path-effect
       effect="spiro"
       id="path-effect4316-4-6-5"
       is_visible="true" />
    <inkscape:path-effect
       effect="spiro"
       id="path-effect4320-5-8-2"
       is_visible="true" />
    <inkscape:path-effect
       effect="spiro"
       id="path-effect4332-4-0-4"
       is_visible="true" />
    <inkscape:path-effect
       effect="spiro"
       id="path-effect4344-1-9-6"
       is_visible="true" />
    <inkscape:path-effect
       effect="spiro"
       id="path-effect4356-3-1-1"
       is_visible="true" />
    <inkscape:path-effect
       effect="spiro"
       id="path-effect4368-5-8-3"
       is_visible="true" />
    <inkscape:path-effect
       effect="spiro"
       id="path-effect4384-7-4-5"
       is_visible="true" />
    <inkscape:path-effect
       effect="spiro"
       id="path-effect4388-4-8-1"
       is_visible="true" />
    <inkscape:path-effect
       effect="spiro"
       id="path-effect4392-5-2-1"
       is_visible="true" />
    <inkscape:path-effect
       effect="spiro"
       id="path-effect4396-3-5-4"
       is_visible="true" />
    <inkscape:path-effect
       effect="spiro"
       id="path-effect4400-0-1-5"
       is_visible="true" />
    <inkscape:path-effect
       effect="spiro"
       id="path-effect4404-5-7-0"
       is_visible="true" />
    <inkscape:path-effect
       effect="spiro"
       id="path-effect4316-4-6-2"
       is_visible="true" />
    <inkscape:path-effect
       effect="spiro"
       id="path-effect4320-5-8-5"
       is_visible="true" />
    <inkscape:path-effect
       effect="spiro"
       id="path-effect4332-4-0-7"
       is_visible="true" />
    <inkscape:path-effect
       effect="spiro"
       id="path-effect4344-1-9-1"
       is_visible="true" />
    <inkscape:path-effect
       effect="spiro"
       id="path-effect4356-3-1-0"
       is_visible="true" />
    <inkscape:path-effect
       effect="spiro"
       id="path-effect4368-5-8-1"
       is_visible="true" />
    <inkscape:path-effect
       effect="spiro"
       id="path-effect4384-7-4-8"
       is_visible="true" />
    <inkscape:path-effect
       effect="spiro"
       id="path-effect4388-4-8-8"
       is_visible="true" />
    <inkscape:path-effect
       effect="spiro"
       id="path-effect4392-5-2-2"
       is_visible="true" />
    <inkscape:path-effect
       effect="spiro"
       id="path-effect4396-3-5-14"
       is_visible="true" />
    <inkscape:path-effect
       effect="spiro"
       id="path-effect4400-0-1-53"
       is_visible="true" />
    <inkscape:path-effect
       effect="spiro"
       id="path-effect4404-5-7-03"
       is_visible="true" />
    <inkscape:path-effect
       effect="spiro"
       id="path-effect4316-4-6-9-3"
       is_visible="true" />
    <inkscape:path-effect
       effect="spiro"
       id="path-effect4320-5-8-3-8"
       is_visible="true" />
    <inkscape:path-effect
       effect="spiro"
       id="path-effect4332-4-0-5-4"
       is_visible="true" />
    <inkscape:path-effect
       effect="spiro"
       id="path-effect4344-1-9-3-6"
       is_visible="true" />
    <inkscape:path-effect
       effect="spiro"
       id="path-effect4356-3-1-7-1"
       is_visible="true" />
    <inkscape:path-effect
       effect="spiro"
       id="path-effect4368-5-8-9-6"
       is_visible="true" />
    <inkscape:path-effect
       effect="spiro"
       id="path-effect4384-7-4-0-4"
       is_visible="true" />
    <inkscape:path-effect
       effect="spiro"
       id="path-effect4388-4-8-7-9"
       is_visible="true" />
    <inkscape:path-effect
       effect="spiro"
       id="path-effect4392-5-2-9-0"
       is_visible="true" />
    <inkscape:path-effect
       effect="spiro"
       id="path-effect4396-3-5-1-6"
       is_visible="true" />
    <inkscape:path-effect
       effect="spiro"
       id="path-effect4400-0-1-8-3"
       is_visible="true" />
    <inkscape:path-effect
       effect="spiro"
       id="path-effect4404-5-7-7-8"
       is_visible="true" />
    <inkscape:path-effect
       effect="spiro"
       id="path-effect4316-7-0"
       is_visible="true" />
    <inkscape:path-effect
       effect="spiro"
       id="path-effect4320-4-7"
       is_visible="true" />
    <inkscape:path-effect
       effect="spiro"
       id="path-effect4332-1-1"
       is_visible="true" />
    <inkscape:path-effect
       effect="spiro"
       id="path-effect4344-7-3"
       is_visible="true" />
    <inkscape:path-effect
       effect="spiro"
       id="path-effect4356-7-8"
       is_visible="true" />
    <inkscape:path-effect
       effect="spiro"
       id="path-effect4368-1-6"
       is_visible="true" />
    <inkscape:path-effect
       effect="spiro"
       id="path-effect4384-8-8"
       is_visible="true" />
    <inkscape:path-effect
       effect="spiro"
       id="path-effect4388-1-7"
       is_visible="true" />
    <inkscape:path-effect
       effect="spiro"
       id="path-effect4392-7-2"
       is_visible="true" />
    <inkscape:path-effect
       effect="spiro"
       id="path-effect4396-2-4"
       is_visible="true" />
    <inkscape:path-effect
       effect="spiro"
       id="path-effect4400-06-8"
       is_visible="true" />
    <inkscape:path-effect
       effect="spiro"
       id="path-effect4404-4-0"
       is_visible="true" />
  </defs>
  <sodipodi:namedview
     id="base"
     pagecolor="#ffffff"
     bordercolor="#666666"
     borderopacity="1.0"
     inkscape:pageopacity="0.0"
     inkscape:pageshadow="2"
     inkscape:zoom="0.70710678"
     inkscape:cx="966.72793"
     inkscape:cy="546.90988"
     inkscape:document-units="px"
     inkscape:current-layer="layer1"
     showgrid="false"
     units="px"
     inkscape:window-width="1920"
     inkscape:window-height="1016"
     inkscape:window-x="1920"
     inkscape:window-y="27"
     inkscape:window-maximized="1" />
  <metadata
     id="metadata8419">
    <rdf:RDF>
      <cc:Work
         rdf:about="">
        <dc:format>image/svg+xml</dc:format>
        <dc:type
           rdf:resource="http://purl.org/dc/dcmitype/StillImage" />
        <dc:title></dc:title>
      </cc:Work>
    </rdf:RDF>
  </metadata>
  <g
     inkscape:label="Layer 1"
     inkscape:groupmode="layer"
     id="layer1"
     transform="translate(0,27.637839)">
    <path
       style="fill:none;fill-rule:evenodd;stroke:#000000;stroke-width:1.33424795px;stroke-linecap:butt;stroke-linejoin:miter;stroke-opacity:1"
       d="m 1144.1186,1053.7908 0,-678.56048 -1145.5471714,0"
       id="path8981"
       inkscape:path-effect="#path-effect8983"
       inkscape:original-d="m 1144.1186,1053.7908 0,-678.56048 -1145.5471714,0"
       inkscape:connector-curvature="0" />
    <text
       xml:space="preserve"
       style="font-style:normal;font-weight:normal;font-size:180px;line-height:125%;font-family:Sans;letter-spacing:0px;word-spacing:0px;fill:#000000;fill-opacity:1;stroke:none;stroke-width:1px;stroke-linecap:butt;stroke-linejoin:miter;stroke-opacity:1"
       x="447.14285"
       y="669.505"
       id="text8985"
       sodipodi:linespacing="125%"><tspan
         sodipodi:role="line"
         id="tspan8987"
         x="447.14285"
         y="669.505">ROME</tspan></text>
    <path
       style="fill:none;fill-rule:evenodd;stroke:#000000;stroke-width:1.51855624px;stroke-linecap:butt;stroke-linejoin:miter;stroke-opacity:1"
       d="m 0.60227091,551.39922 c 0,0 158.75259909,-286.19498 330.35459909,1.08469 1.1065,1.85231 0.4662,4.0617 0.4662,4.0617 l -0.058,495.31249 -327.6950391,-0.3834 z"
       id="path4302"
       inkscape:connector-curvature="0"
       sodipodi:nodetypes="cscccc" />
    <g
       id="g11708"
       transform="translate(-1052,0)">
      <path
         sodipodi:nodetypes="cc"
         inkscape:connector-curvature="0"
         inkscape:original-d="m 1346.3253,742.10819 c -131.4862,207.23645 -65.7431,103.61822 0,0 z"
         inkscape:path-effect="#path-effect9802"
         id="path9800"
         d="m 1346.3253,742.10819 0,0 z"
         style="fill:none;fill-rule:evenodd;stroke:#000000;stroke-width:0.50159806px;stroke-linecap:butt;stroke-linejoin:miter;stroke-opacity:1" />
      <rect
         inkscape:transform-center-y="137.99206"
         inkscape:transform-center-x="57.968618"
         transform="matrix(0.93303668,0.35978125,-0.38135264,0.92442964,0,0)"
         ry="4.2318215"
         rx="4.3854713"
         y="355.15619"
         x="1579.9993"
         height="158.69331"
         width="8.7709427"
         id="rect8093"
         style="fill:#000000;fill-opacity:1;stroke-width:15;stroke-miterlimit:4;stroke-dasharray:none;stroke-dashoffset:0" />
      <rect
         inkscape:transform-center-y="140.49389"
         inkscape:transform-center-x="-12.540063"
         transform="matrix(-0.99845075,0.05564268,0.08536938,0.99634937,0,0)"
         ry="4.0138726"
         rx="4.4324331"
         y="977.32904"
         x="-1255.3151"
         height="150.52023"
         width="8.8648663"
         id="rect8093-7"
         style="fill:#000000;fill-opacity:1;stroke-width:15;stroke-miterlimit:4;stroke-dasharray:none;stroke-dashoffset:0" />
      <rect
         transform="matrix(-0.9999996,-8.9412964e-4,-7.7483979e-4,0.9999997,0,0)"
         ry="4.2478652"
         rx="3.9543619"
         y="745.28082"
         x="-1352.7026"
         height="159.29494"
         width="7.9087238"
         id="rect8093-7-2"
         style="fill:#000000;fill-opacity:1;stroke-width:15;stroke-miterlimit:4;stroke-dasharray:none;stroke-dashoffset:0" />
      <rect
         inkscape:transform-center-y="-45.960038"
         inkscape:transform-center-x="-142.14287"
         transform="matrix(0.2761859,0.96110423,0.95606835,-0.29314383,0,0)"
         ry="4.2281003"
         rx="4.344543"
         y="1075.8197"
         x="1135.8542"
         height="158.55376"
         width="8.689086"
         id="rect8093-2-2"
         style="fill:#000000;fill-opacity:1;stroke-width:15;stroke-miterlimit:4;stroke-dasharray:none;stroke-dashoffset:0" />
      <rect
         inkscape:transform-center-y="-42.568801"
         inkscape:transform-center-x="142.50004"
         transform="matrix(-0.27532157,0.96135219,-0.95578881,-0.294054,0,0)"
         ry="4.2293367"
         rx="4.3581824"
         y="-1514.3416"
         x="345.96368"
         height="158.60013"
         width="8.7163649"
         id="rect8093-2"
         style="fill:#000000;fill-opacity:1;stroke-width:15;stroke-miterlimit:4;stroke-dasharray:none;stroke-dashoffset:0" />
      <ellipse
         ry="58.536633"
         rx="58.536625"
         cy="687.10437"
         cx="1347.8594"
         id="path8125"
         style="opacity:1;fill:#ffffff;fill-opacity:1;fill-rule:evenodd;stroke:#000000;stroke-width:8.32625866;stroke-miterlimit:4;stroke-dasharray:none;stroke-dashoffset:0;stroke-opacity:1" />
      <circle
         r="7.2710357"
         cy="672.24133"
         cx="1319.2593"
         id="path9777"
         style="opacity:1;fill:#000000;fill-opacity:1;fill-rule:evenodd;stroke:#000000;stroke-width:5.52185106;stroke-miterlimit:4;stroke-dasharray:none;stroke-dashoffset:0;stroke-opacity:1" />
      <circle
         r="7.2710357"
         cy="672.24133"
         cx="1376.9431"
         id="path9777-9"
         style="opacity:1;fill:#000000;fill-opacity:1;fill-rule:evenodd;stroke:#000000;stroke-width:5.52185106;stroke-miterlimit:4;stroke-dasharray:none;stroke-dashoffset:0;stroke-opacity:1" />
      <path
         sodipodi:nodetypes="ccc"
         inkscape:connector-curvature="0"
         id="path9814"
         d="m 1321.5411,716.8328 53.2663,0 z"
         style="fill:none;fill-rule:evenodd;stroke:#000000;stroke-width:4.01278448;stroke-linecap:butt;stroke-linejoin:round;stroke-miterlimit:4;stroke-dasharray:none;stroke-dashoffset:0;stroke-opacity:1" />
      <path
         sodipodi:nodetypes="ccccccccccc"
         inkscape:connector-curvature="0"
         inkscape:original-d="m 1269.4433,1019.7246 99.5534,13.3231 12.2585,-140.46845 22.3013,-124.30447 -6.4603,-13.04728 -39.9172,15.27251 -19.761,0 -40.2665,-14.63915 -5.9648,16.95459 4.855,113.95062 z"
         inkscape:path-effect="#path-effect4644"
         id="path4642"
         d="m 1269.4433,1019.7246 99.5534,13.3231 12.2585,-140.46845 22.3013,-124.30447 -6.4603,-13.04728 -39.9172,15.27251 -19.761,0 -40.2665,-14.63915 -5.9648,16.95459 4.855,113.95062 -26.5984,132.95853 z"
         style="fill:#ffffff;fill-opacity:1;fill-rule:evenodd;stroke:#000000;stroke-width:0.50159806px;stroke-linecap:butt;stroke-linejoin:miter;stroke-opacity:1" />
      <path
         sodipodi:nodetypes="cc"
         inkscape:connector-curvature="0"
         inkscape:original-d="m 1360.7427,769.15301 -66.8338,66.18011"
         inkscape:path-effect="#path-effect4652"
         id="path4650"
         d="m 1360.7427,769.15301 -66.8338,66.18011"
         style="fill:none;fill-rule:evenodd;stroke:#000000;stroke-width:0.49836925px;stroke-linecap:butt;stroke-linejoin:miter;stroke-opacity:1" />
      <path
         sodipodi:nodetypes="csc"
         inkscape:connector-curvature="0"
         id="path4658"
         d="m 1295.0548,891.37017 c 0,0 47.7598,23.10946 71.3477,-7.49674 23.5879,-30.6062 27.4337,-61.46534 27.4337,-61.46534"
         style="fill:none;fill-rule:evenodd;stroke:#000000;stroke-width:0.50420332px;stroke-linecap:butt;stroke-linejoin:miter;stroke-opacity:1" />
      <g
         transform="matrix(0.50159808,0,0,0.50159808,1149.096,525.1)"
         id="g4459">
        <path
           style="fill:none;fill-rule:evenodd;stroke:#000000;stroke-width:1px;stroke-linecap:butt;stroke-linejoin:miter;stroke-opacity:1"
           inkscape:path-effect="#path-effect4316"
           inkscape:original-d="m 323.1478,223.2795 -13.34665,-12.28598 -13.87696,-4.5962"
           id="path4314"
           d="m 323.1478,223.2795 -13.34665,-12.28598 -13.87696,-4.5962"
           inkscape:connector-curvature="0"
           sodipodi:nodetypes="ccc" />
        <path
           style="fill:none;fill-rule:evenodd;stroke:#000000;stroke-width:1px;stroke-linecap:butt;stroke-linejoin:miter;stroke-opacity:1"
           inkscape:path-effect="#path-effect4320"
           inkscape:original-d="m 310.77343,233.179 -10.25305,-3.27037 -14.14214,-3.62393"
           id="path4318"
           d="m 310.77343,233.179 c -3.39021,-1.17389 -6.80927,-2.26445 -10.25305,-3.27037 -4.67203,-1.36469 -9.38957,-2.57356 -14.14214,-3.62393"
           inkscape:connector-curvature="0"
           sodipodi:nodetypes="ccc" />
        <path
           style="fill:none;fill-rule:evenodd;stroke:#000000;stroke-width:1px;stroke-linecap:butt;stroke-linejoin:miter;stroke-opacity:1"
           inkscape:path-effect="#path-effect4332"
           inkscape:original-d="m 315.36962,228.5828 -16.88217,-6.27557 -8.13172,-8.57367"
           id="path4330"
           d="m 315.36962,228.5828 -16.88217,-6.27557 -8.13172,-8.57367"
           inkscape:connector-curvature="0"
           sodipodi:nodetypes="ccc" />
        <path
           style="fill:none;fill-rule:evenodd;stroke:#000000;stroke-width:1px;stroke-linecap:butt;stroke-linejoin:miter;stroke-opacity:1"
           inkscape:path-effect="#path-effect4344"
           inkscape:original-d="m 299.45972,245.90692 -11.84404,-2.47487 -6.80589,-7.6898"
           id="path4342"
           d="m 299.45972,245.90692 -11.84404,-2.47487 -6.80589,-7.6898"
           inkscape:connector-curvature="0"
           sodipodi:nodetypes="ccc" />
        <path
           style="fill:none;fill-rule:evenodd;stroke:#000000;stroke-width:1px;stroke-linecap:butt;stroke-linejoin:miter;stroke-opacity:1"
           inkscape:path-effect="#path-effect4356"
           inkscape:original-d="m 305.11658,239.54296 -13.08147,-3.88909 -6.44691,-0.15366"
           id="path4354"
           d="m 305.11658,239.54296 -13.08147,-3.88909 -6.44691,-0.15366"
           inkscape:connector-curvature="0"
           sodipodi:nodetypes="ccc" />
        <path
           style="fill:none;fill-rule:evenodd;stroke:#000000;stroke-width:1px;stroke-linecap:butt;stroke-linejoin:miter;stroke-opacity:1"
           inkscape:path-effect="#path-effect4368"
           inkscape:original-d="m 294.86353,253.33154 -13.87697,-3.44714 -2.56327,-7.68979"
           id="path4366"
           d="m 294.86353,253.33154 -13.87697,-3.44714 -2.56327,-7.68979"
           inkscape:connector-curvature="0"
           sodipodi:nodetypes="ccc" />
        <path
           style="fill:none;fill-rule:evenodd;stroke:#000000;stroke-width:1px;stroke-linecap:butt;stroke-linejoin:miter;stroke-opacity:1"
           inkscape:path-effect="#path-effect4384"
           inkscape:original-d="m 290.26733,257.92774 -13.96535,-3.44715 -9.28078,1.14904"
           id="path4382"
           d="m 290.26733,257.92774 -13.96535,-3.44715 -9.28078,1.14904"
           inkscape:connector-curvature="0"
           sodipodi:nodetypes="ccc" />
        <path
           style="fill:none;fill-rule:evenodd;stroke:#000000;stroke-width:1px;stroke-linecap:butt;stroke-linejoin:miter;stroke-opacity:1"
           inkscape:path-effect="#path-effect4388"
           inkscape:original-d="m 287.43891,265.35236 -14.84924,-1.94455 -9.45756,-7.77817"
           id="path4386"
           d="m 287.43891,265.35236 -14.84924,-1.94455 -9.45756,-7.77817"
           inkscape:connector-curvature="0"
           sodipodi:nodetypes="ccc" />
        <path
           style="fill:none;fill-rule:evenodd;stroke:#000000;stroke-width:1px;stroke-linecap:butt;stroke-linejoin:miter;stroke-opacity:1"
           inkscape:path-effect="#path-effect4392"
           inkscape:original-d="m 283.54982,271.00921 -14.05375,0.0884 -7.77817,-5.83363"
           id="path4390"
           d="m 283.54982,271.00921 -14.05375,0.0884 -7.77817,-5.83363"
           inkscape:connector-curvature="0"
           sodipodi:nodetypes="ccc" />
        <path
           style="fill:none;fill-rule:evenodd;stroke:#000000;stroke-width:1px;stroke-linecap:butt;stroke-linejoin:miter;stroke-opacity:1"
           inkscape:path-effect="#path-effect4396"
           inkscape:original-d="m 282.13561,277.72672 -16.26346,0.35355 -7.6014,2.56327"
           id="path4394"
           d="m 282.13561,277.72672 -16.26346,0.35355 -7.6014,2.56327"
           inkscape:connector-curvature="0"
           sodipodi:nodetypes="ccc" />
        <path
           style="fill:none;fill-rule:evenodd;stroke:#000000;stroke-width:1px;stroke-linecap:butt;stroke-linejoin:miter;stroke-opacity:1"
           inkscape:path-effect="#path-effect4400"
           inkscape:original-d="m 277.89297,285.5049 -14.31892,-1.14905 -8.75045,1.85616"
           id="path4398"
           d="m 277.89297,285.5049 -14.31892,-1.14905 -8.75045,1.85616"
           inkscape:connector-curvature="0"
           sodipodi:nodetypes="ccc" />
        <path
           style="fill:none;fill-rule:evenodd;stroke:#000000;stroke-width:1px;stroke-linecap:butt;stroke-linejoin:miter;stroke-opacity:1"
           inkscape:path-effect="#path-effect4404"
           inkscape:original-d="m 275.77165,291.16175 -13.25826,1.50261 -12.72792,-4.41942"
           id="path4402"
           d="m 275.77165,291.16175 -13.25826,1.50261 -12.72792,-4.41942"
           inkscape:connector-curvature="0"
           sodipodi:nodetypes="ccc" />
      </g>
      <g
         id="g4459-7"
         style="display:inline"
         transform="matrix(0.36209971,0.34710868,-0.34710868,0.36209971,1315.0197,433.64129)">
        <path
           style="fill:none;fill-rule:evenodd;stroke:#000000;stroke-width:1px;stroke-linecap:butt;stroke-linejoin:miter;stroke-opacity:1"
           inkscape:path-effect="#path-effect4316-4"
           inkscape:original-d="m 323.1478,223.2795 -13.34665,-12.28598 -13.87696,-4.5962"
           id="path4314-7"
           d="m 323.1478,223.2795 -13.34665,-12.28598 -13.87696,-4.5962"
           inkscape:connector-curvature="0"
           sodipodi:nodetypes="ccc" />
        <path
           style="fill:none;fill-rule:evenodd;stroke:#000000;stroke-width:1px;stroke-linecap:butt;stroke-linejoin:miter;stroke-opacity:1"
           inkscape:path-effect="#path-effect4320-5"
           inkscape:original-d="m 310.77343,233.179 -10.25305,-3.27037 -14.14214,-3.62393"
           id="path4318-2"
           d="m 310.77343,233.179 c -3.39021,-1.17389 -6.80927,-2.26445 -10.25305,-3.27037 -4.67203,-1.36469 -9.38957,-2.57356 -14.14214,-3.62393"
           inkscape:connector-curvature="0"
           sodipodi:nodetypes="ccc" />
        <path
           style="fill:none;fill-rule:evenodd;stroke:#000000;stroke-width:1px;stroke-linecap:butt;stroke-linejoin:miter;stroke-opacity:1"
           inkscape:path-effect="#path-effect4332-4"
           inkscape:original-d="m 315.36962,228.5828 -16.88217,-6.27557 -8.13172,-8.57367"
           id="path4330-2"
           d="m 315.36962,228.5828 -16.88217,-6.27557 -8.13172,-8.57367"
           inkscape:connector-curvature="0"
           sodipodi:nodetypes="ccc" />
        <path
           style="fill:none;fill-rule:evenodd;stroke:#000000;stroke-width:1px;stroke-linecap:butt;stroke-linejoin:miter;stroke-opacity:1"
           inkscape:path-effect="#path-effect4344-1"
           inkscape:original-d="m 299.45972,245.90692 -11.84404,-2.47487 -6.80589,-7.6898"
           id="path4342-0"
           d="m 299.45972,245.90692 -11.84404,-2.47487 -6.80589,-7.6898"
           inkscape:connector-curvature="0"
           sodipodi:nodetypes="ccc" />
        <path
           style="fill:none;fill-rule:evenodd;stroke:#000000;stroke-width:1px;stroke-linecap:butt;stroke-linejoin:miter;stroke-opacity:1"
           inkscape:path-effect="#path-effect4356-3"
           inkscape:original-d="m 305.11658,239.54296 -13.08147,-3.88909 -6.44691,-0.15366"
           id="path4354-7"
           d="m 305.11658,239.54296 -13.08147,-3.88909 -6.44691,-0.15366"
           inkscape:connector-curvature="0"
           sodipodi:nodetypes="ccc" />
        <path
           style="fill:none;fill-rule:evenodd;stroke:#000000;stroke-width:1px;stroke-linecap:butt;stroke-linejoin:miter;stroke-opacity:1"
           inkscape:path-effect="#path-effect4368-5"
           inkscape:original-d="m 294.86353,253.33154 -13.87697,-3.44714 -2.56327,-7.68979"
           id="path4366-6"
           d="m 294.86353,253.33154 -13.87697,-3.44714 -2.56327,-7.68979"
           inkscape:connector-curvature="0"
           sodipodi:nodetypes="ccc" />
        <path
           style="fill:none;fill-rule:evenodd;stroke:#000000;stroke-width:1px;stroke-linecap:butt;stroke-linejoin:miter;stroke-opacity:1"
           inkscape:path-effect="#path-effect4384-7"
           inkscape:original-d="m 290.26733,257.92774 -13.96535,-3.44715 -9.28078,1.14904"
           id="path4382-8"
           d="m 290.26733,257.92774 -13.96535,-3.44715 -9.28078,1.14904"
           inkscape:connector-curvature="0"
           sodipodi:nodetypes="ccc" />
        <path
           style="fill:none;fill-rule:evenodd;stroke:#000000;stroke-width:1px;stroke-linecap:butt;stroke-linejoin:miter;stroke-opacity:1"
           inkscape:path-effect="#path-effect4388-4"
           inkscape:original-d="m 287.43891,265.35236 -14.84924,-1.94455 -9.45756,-7.77817"
           id="path4386-8"
           d="m 287.43891,265.35236 -14.84924,-1.94455 -9.45756,-7.77817"
           inkscape:connector-curvature="0"
           sodipodi:nodetypes="ccc" />
        <path
           style="fill:none;fill-rule:evenodd;stroke:#000000;stroke-width:1px;stroke-linecap:butt;stroke-linejoin:miter;stroke-opacity:1"
           inkscape:path-effect="#path-effect4392-5"
           inkscape:original-d="m 283.54982,271.00921 -14.05375,0.0884 -7.77817,-5.83363"
           id="path4390-5"
           d="m 283.54982,271.00921 -14.05375,0.0884 -7.77817,-5.83363"
           inkscape:connector-curvature="0"
           sodipodi:nodetypes="ccc" />
        <path
           style="fill:none;fill-rule:evenodd;stroke:#000000;stroke-width:1px;stroke-linecap:butt;stroke-linejoin:miter;stroke-opacity:1"
           inkscape:path-effect="#path-effect4396-3"
           inkscape:original-d="m 282.13561,277.72672 -16.26346,0.35355 -7.6014,2.56327"
           id="path4394-2"
           d="m 282.13561,277.72672 -16.26346,0.35355 -7.6014,2.56327"
           inkscape:connector-curvature="0"
           sodipodi:nodetypes="ccc" />
        <path
           style="fill:none;fill-rule:evenodd;stroke:#000000;stroke-width:1px;stroke-linecap:butt;stroke-linejoin:miter;stroke-opacity:1"
           inkscape:path-effect="#path-effect4400-0"
           inkscape:original-d="m 277.89297,285.5049 -14.31892,-1.14905 -8.75045,1.85616"
           id="path4398-3"
           d="m 277.89297,285.5049 -14.31892,-1.14905 -8.75045,1.85616"
           inkscape:connector-curvature="0"
           sodipodi:nodetypes="ccc" />
        <path
           style="fill:none;fill-rule:evenodd;stroke:#000000;stroke-width:1px;stroke-linecap:butt;stroke-linejoin:miter;stroke-opacity:1"
           inkscape:path-effect="#path-effect4404-5"
           inkscape:original-d="m 275.77165,291.16175 -13.25826,1.50261 -12.72792,-4.41942"
           id="path4402-1"
           d="m 275.77165,291.16175 -13.25826,1.50261 -12.72792,-4.41942"
           inkscape:connector-curvature="0"
           sodipodi:nodetypes="ccc" />
      </g>
      <g
         id="g4459-7-4"
         style="display:inline"
         transform="matrix(0.05574116,0.49849128,-0.49849128,0.05574116,1487.6529,472.88363)">
        <path
           style="fill:none;fill-rule:evenodd;stroke:#000000;stroke-width:1px;stroke-linecap:butt;stroke-linejoin:miter;stroke-opacity:1"
           inkscape:path-effect="#path-effect4316-4-6"
           inkscape:original-d="m 323.1478,223.2795 -13.34665,-12.28598 -13.87696,-4.5962"
           id="path4314-7-7"
           d="m 323.1478,223.2795 -13.34665,-12.28598 -13.87696,-4.5962"
           inkscape:connector-curvature="0"
           sodipodi:nodetypes="ccc" />
        <path
           style="fill:none;fill-rule:evenodd;stroke:#000000;stroke-width:1px;stroke-linecap:butt;stroke-linejoin:miter;stroke-opacity:1"
           inkscape:path-effect="#path-effect4320-5-8"
           inkscape:original-d="m 310.77343,233.179 -10.25305,-3.27037 -14.14214,-3.62393"
           id="path4318-2-4"
           d="m 310.77343,233.179 c -3.39021,-1.17389 -6.80927,-2.26445 -10.25305,-3.27037 -4.67203,-1.36469 -9.38957,-2.57356 -14.14214,-3.62393"
           inkscape:connector-curvature="0"
           sodipodi:nodetypes="ccc" />
        <path
           style="fill:none;fill-rule:evenodd;stroke:#000000;stroke-width:1px;stroke-linecap:butt;stroke-linejoin:miter;stroke-opacity:1"
           inkscape:path-effect="#path-effect4332-4-0"
           inkscape:original-d="m 315.36962,228.5828 -16.88217,-6.27557 -8.13172,-8.57367"
           id="path4330-2-0"
           d="m 315.36962,228.5828 -16.88217,-6.27557 -8.13172,-8.57367"
           inkscape:connector-curvature="0"
           sodipodi:nodetypes="ccc" />
        <path
           style="fill:none;fill-rule:evenodd;stroke:#000000;stroke-width:1px;stroke-linecap:butt;stroke-linejoin:miter;stroke-opacity:1"
           inkscape:path-effect="#path-effect4344-1-9"
           inkscape:original-d="m 299.45972,245.90692 -11.84404,-2.47487 -6.80589,-7.6898"
           id="path4342-0-9"
           d="m 299.45972,245.90692 -11.84404,-2.47487 -6.80589,-7.6898"
           inkscape:connector-curvature="0"
           sodipodi:nodetypes="ccc" />
        <path
           style="fill:none;fill-rule:evenodd;stroke:#000000;stroke-width:1px;stroke-linecap:butt;stroke-linejoin:miter;stroke-opacity:1"
           inkscape:path-effect="#path-effect4356-3-1"
           inkscape:original-d="m 305.11658,239.54296 -13.08147,-3.88909 -6.44691,-0.15366"
           id="path4354-7-1"
           d="m 305.11658,239.54296 -13.08147,-3.88909 -6.44691,-0.15366"
           inkscape:connector-curvature="0"
           sodipodi:nodetypes="ccc" />
        <path
           style="fill:none;fill-rule:evenodd;stroke:#000000;stroke-width:1px;stroke-linecap:butt;stroke-linejoin:miter;stroke-opacity:1"
           inkscape:path-effect="#path-effect4368-5-8"
           inkscape:original-d="m 294.86353,253.33154 -13.87697,-3.44714 -2.56327,-7.68979"
           id="path4366-6-7"
           d="m 294.86353,253.33154 -13.87697,-3.44714 -2.56327,-7.68979"
           inkscape:connector-curvature="0"
           sodipodi:nodetypes="ccc" />
        <path
           style="fill:none;fill-rule:evenodd;stroke:#000000;stroke-width:1px;stroke-linecap:butt;stroke-linejoin:miter;stroke-opacity:1"
           inkscape:path-effect="#path-effect4384-7-4"
           inkscape:original-d="m 290.26733,257.92774 -13.96535,-3.44715 -9.28078,1.14904"
           id="path4382-8-8"
           d="m 290.26733,257.92774 -13.96535,-3.44715 -9.28078,1.14904"
           inkscape:connector-curvature="0"
           sodipodi:nodetypes="ccc" />
        <path
           style="fill:none;fill-rule:evenodd;stroke:#000000;stroke-width:1px;stroke-linecap:butt;stroke-linejoin:miter;stroke-opacity:1"
           inkscape:path-effect="#path-effect4388-4-8"
           inkscape:original-d="m 287.43891,265.35236 -14.84924,-1.94455 -9.45756,-7.77817"
           id="path4386-8-3"
           d="m 287.43891,265.35236 -14.84924,-1.94455 -9.45756,-7.77817"
           inkscape:connector-curvature="0"
           sodipodi:nodetypes="ccc" />
        <path
           style="fill:none;fill-rule:evenodd;stroke:#000000;stroke-width:1px;stroke-linecap:butt;stroke-linejoin:miter;stroke-opacity:1"
           inkscape:path-effect="#path-effect4392-5-2"
           inkscape:original-d="m 283.54982,271.00921 -14.05375,0.0884 -7.77817,-5.83363"
           id="path4390-5-0"
           d="m 283.54982,271.00921 -14.05375,0.0884 -7.77817,-5.83363"
           inkscape:connector-curvature="0"
           sodipodi:nodetypes="ccc" />
        <path
           style="fill:none;fill-rule:evenodd;stroke:#000000;stroke-width:1px;stroke-linecap:butt;stroke-linejoin:miter;stroke-opacity:1"
           inkscape:path-effect="#path-effect4396-3-5"
           inkscape:original-d="m 282.13561,277.72672 -16.26346,0.35355 -7.6014,2.56327"
           id="path4394-2-0"
           d="m 282.13561,277.72672 -16.26346,0.35355 -7.6014,2.56327"
           inkscape:connector-curvature="0"
           sodipodi:nodetypes="ccc" />
        <path
           style="fill:none;fill-rule:evenodd;stroke:#000000;stroke-width:1px;stroke-linecap:butt;stroke-linejoin:miter;stroke-opacity:1"
           inkscape:path-effect="#path-effect4400-0-1"
           inkscape:original-d="m 277.89297,285.5049 -14.31892,-1.14905 -8.75045,1.85616"
           id="path4398-3-3"
           d="m 277.89297,285.5049 -14.31892,-1.14905 -8.75045,1.85616"
           inkscape:connector-curvature="0"
           sodipodi:nodetypes="ccc" />
        <path
           style="fill:none;fill-rule:evenodd;stroke:#000000;stroke-width:1px;stroke-linecap:butt;stroke-linejoin:miter;stroke-opacity:1"
           inkscape:path-effect="#path-effect4404-5-7"
           inkscape:original-d="m 275.77165,291.16175 -13.25826,1.50261 -12.72792,-4.41942"
           id="path4402-1-8"
           d="m 275.77165,291.16175 -13.25826,1.50261 -12.72792,-4.41942"
           inkscape:connector-curvature="0"
           sodipodi:nodetypes="ccc" />
      </g>
      <g
         id="g4459-7-4-5"
         style="display:inline"
         transform="matrix(-0.31192551,0.39281435,-0.39281435,-0.31192551,1596.7304,630.53357)">
        <path
           style="fill:none;fill-rule:evenodd;stroke:#000000;stroke-width:1px;stroke-linecap:butt;stroke-linejoin:miter;stroke-opacity:1"
           inkscape:path-effect="#path-effect4316-4-6-9"
           inkscape:original-d="m 323.1478,223.2795 -13.34665,-12.28598 -13.87696,-4.5962"
           id="path4314-7-7-8"
           d="m 323.1478,223.2795 -13.34665,-12.28598 -13.87696,-4.5962"
           inkscape:connector-curvature="0"
           sodipodi:nodetypes="ccc" />
        <path
           style="fill:none;fill-rule:evenodd;stroke:#000000;stroke-width:1px;stroke-linecap:butt;stroke-linejoin:miter;stroke-opacity:1"
           inkscape:path-effect="#path-effect4320-5-8-3"
           inkscape:original-d="m 310.77343,233.179 -10.25305,-3.27037 -14.14214,-3.62393"
           id="path4318-2-4-1"
           d="m 310.77343,233.179 c -3.39021,-1.17389 -6.80927,-2.26445 -10.25305,-3.27037 -4.67203,-1.36469 -9.38957,-2.57356 -14.14214,-3.62393"
           inkscape:connector-curvature="0"
           sodipodi:nodetypes="ccc" />
        <path
           style="fill:none;fill-rule:evenodd;stroke:#000000;stroke-width:1px;stroke-linecap:butt;stroke-linejoin:miter;stroke-opacity:1"
           inkscape:path-effect="#path-effect4332-4-0-5"
           inkscape:original-d="m 315.36962,228.5828 -16.88217,-6.27557 -8.13172,-8.57367"
           id="path4330-2-0-3"
           d="m 315.36962,228.5828 -16.88217,-6.27557 -8.13172,-8.57367"
           inkscape:connector-curvature="0"
           sodipodi:nodetypes="ccc" />
        <path
           style="fill:none;fill-rule:evenodd;stroke:#000000;stroke-width:1px;stroke-linecap:butt;stroke-linejoin:miter;stroke-opacity:1"
           inkscape:path-effect="#path-effect4344-1-9-3"
           inkscape:original-d="m 299.45972,245.90692 -11.84404,-2.47487 -6.80589,-7.6898"
           id="path4342-0-9-1"
           d="m 299.45972,245.90692 -11.84404,-2.47487 -6.80589,-7.6898"
           inkscape:connector-curvature="0"
           sodipodi:nodetypes="ccc" />
        <path
           style="fill:none;fill-rule:evenodd;stroke:#000000;stroke-width:1px;stroke-linecap:butt;stroke-linejoin:miter;stroke-opacity:1"
           inkscape:path-effect="#path-effect4356-3-1-7"
           inkscape:original-d="m 305.11658,239.54296 -13.08147,-3.88909 -6.44691,-0.15366"
           id="path4354-7-1-1"
           d="m 305.11658,239.54296 -13.08147,-3.88909 -6.44691,-0.15366"
           inkscape:connector-curvature="0"
           sodipodi:nodetypes="ccc" />
        <path
           style="fill:none;fill-rule:evenodd;stroke:#000000;stroke-width:1px;stroke-linecap:butt;stroke-linejoin:miter;stroke-opacity:1"
           inkscape:path-effect="#path-effect4368-5-8-9"
           inkscape:original-d="m 294.86353,253.33154 -13.87697,-3.44714 -2.56327,-7.68979"
           id="path4366-6-7-9"
           d="m 294.86353,253.33154 -13.87697,-3.44714 -2.56327,-7.68979"
           inkscape:connector-curvature="0"
           sodipodi:nodetypes="ccc" />
        <path
           style="fill:none;fill-rule:evenodd;stroke:#000000;stroke-width:1px;stroke-linecap:butt;stroke-linejoin:miter;stroke-opacity:1"
           inkscape:path-effect="#path-effect4384-7-4-0"
           inkscape:original-d="m 290.26733,257.92774 -13.96535,-3.44715 -9.28078,1.14904"
           id="path4382-8-8-9"
           d="m 290.26733,257.92774 -13.96535,-3.44715 -9.28078,1.14904"
           inkscape:connector-curvature="0"
           sodipodi:nodetypes="ccc" />
        <path
           style="fill:none;fill-rule:evenodd;stroke:#000000;stroke-width:1px;stroke-linecap:butt;stroke-linejoin:miter;stroke-opacity:1"
           inkscape:path-effect="#path-effect4388-4-8-7"
           inkscape:original-d="m 287.43891,265.35236 -14.84924,-1.94455 -9.45756,-7.77817"
           id="path4386-8-3-7"
           d="m 287.43891,265.35236 -14.84924,-1.94455 -9.45756,-7.77817"
           inkscape:connector-curvature="0"
           sodipodi:nodetypes="ccc" />
        <path
           style="fill:none;fill-rule:evenodd;stroke:#000000;stroke-width:1px;stroke-linecap:butt;stroke-linejoin:miter;stroke-opacity:1"
           inkscape:path-effect="#path-effect4392-5-2-9"
           inkscape:original-d="m 283.54982,271.00921 -14.05375,0.0884 -7.77817,-5.83363"
           id="path4390-5-0-9"
           d="m 283.54982,271.00921 -14.05375,0.0884 -7.77817,-5.83363"
           inkscape:connector-curvature="0"
           sodipodi:nodetypes="ccc" />
        <path
           style="fill:none;fill-rule:evenodd;stroke:#000000;stroke-width:1px;stroke-linecap:butt;stroke-linejoin:miter;stroke-opacity:1"
           inkscape:path-effect="#path-effect4396-3-5-1"
           inkscape:original-d="m 282.13561,277.72672 -16.26346,0.35355 -7.6014,2.56327"
           id="path4394-2-0-8"
           d="m 282.13561,277.72672 -16.26346,0.35355 -7.6014,2.56327"
           inkscape:connector-curvature="0"
           sodipodi:nodetypes="ccc" />
        <path
           style="fill:none;fill-rule:evenodd;stroke:#000000;stroke-width:1px;stroke-linecap:butt;stroke-linejoin:miter;stroke-opacity:1"
           inkscape:path-effect="#path-effect4400-0-1-8"
           inkscape:original-d="m 277.89297,285.5049 -14.31892,-1.14905 -8.75045,1.85616"
           id="path4398-3-3-9"
           d="m 277.89297,285.5049 -14.31892,-1.14905 -8.75045,1.85616"
           inkscape:connector-curvature="0"
           sodipodi:nodetypes="ccc" />
        <path
           style="fill:none;fill-rule:evenodd;stroke:#000000;stroke-width:1px;stroke-linecap:butt;stroke-linejoin:miter;stroke-opacity:1"
           inkscape:path-effect="#path-effect4404-5-7-7"
           inkscape:original-d="m 275.77165,291.16175 -13.25826,1.50261 -12.72792,-4.41942"
           id="path4402-1-8-9"
           d="m 275.77165,291.16175 -13.25826,1.50261 -12.72792,-4.41942"
           inkscape:connector-curvature="0"
           sodipodi:nodetypes="ccc" />
      </g>
      <g
         id="g4459-77"
         style="display:inline"
         transform="matrix(0.49930851,-0.0478712,0.0478712,0.49930851,1133.8163,550.15378)">
        <path
           style="fill:none;fill-rule:evenodd;stroke:#000000;stroke-width:1px;stroke-linecap:butt;stroke-linejoin:miter;stroke-opacity:1"
           inkscape:path-effect="#path-effect4316-7"
           inkscape:original-d="m 323.1478,223.2795 -13.34665,-12.28598 -13.87696,-4.5962"
           id="path4314-5"
           d="m 323.1478,223.2795 -13.34665,-12.28598 -13.87696,-4.5962"
           inkscape:connector-curvature="0"
           sodipodi:nodetypes="ccc" />
        <path
           style="fill:none;fill-rule:evenodd;stroke:#000000;stroke-width:1px;stroke-linecap:butt;stroke-linejoin:miter;stroke-opacity:1"
           inkscape:path-effect="#path-effect4320-4"
           inkscape:original-d="m 310.77343,233.179 -10.25305,-3.27037 -14.14214,-3.62393"
           id="path4318-8"
           d="m 310.77343,233.179 c -3.39021,-1.17389 -6.80927,-2.26445 -10.25305,-3.27037 -4.67203,-1.36469 -9.38957,-2.57356 -14.14214,-3.62393"
           inkscape:connector-curvature="0"
           sodipodi:nodetypes="ccc" />
        <path
           style="fill:none;fill-rule:evenodd;stroke:#000000;stroke-width:1px;stroke-linecap:butt;stroke-linejoin:miter;stroke-opacity:1"
           inkscape:path-effect="#path-effect4332-1"
           inkscape:original-d="m 315.36962,228.5828 -16.88217,-6.27557 -8.13172,-8.57367"
           id="path4330-5"
           d="m 315.36962,228.5828 -16.88217,-6.27557 -8.13172,-8.57367"
           inkscape:connector-curvature="0"
           sodipodi:nodetypes="ccc" />
        <path
           style="fill:none;fill-rule:evenodd;stroke:#000000;stroke-width:1px;stroke-linecap:butt;stroke-linejoin:miter;stroke-opacity:1"
           inkscape:path-effect="#path-effect4344-7"
           inkscape:original-d="m 299.45972,245.90692 -11.84404,-2.47487 -6.80589,-7.6898"
           id="path4342-1"
           d="m 299.45972,245.90692 -11.84404,-2.47487 -6.80589,-7.6898"
           inkscape:connector-curvature="0"
           sodipodi:nodetypes="ccc" />
        <path
           style="fill:none;fill-rule:evenodd;stroke:#000000;stroke-width:1px;stroke-linecap:butt;stroke-linejoin:miter;stroke-opacity:1"
           inkscape:path-effect="#path-effect4356-7"
           inkscape:original-d="m 305.11658,239.54296 -13.08147,-3.88909 -6.44691,-0.15366"
           id="path4354-8"
           d="m 305.11658,239.54296 -13.08147,-3.88909 -6.44691,-0.15366"
           inkscape:connector-curvature="0"
           sodipodi:nodetypes="ccc" />
        <path
           style="fill:none;fill-rule:evenodd;stroke:#000000;stroke-width:1px;stroke-linecap:butt;stroke-linejoin:miter;stroke-opacity:1"
           inkscape:path-effect="#path-effect4368-1"
           inkscape:original-d="m 294.86353,253.33154 -13.87697,-3.44714 -2.56327,-7.68979"
           id="path4366-8"
           d="m 294.86353,253.33154 -13.87697,-3.44714 -2.56327,-7.68979"
           inkscape:connector-curvature="0"
           sodipodi:nodetypes="ccc" />
        <path
           style="fill:none;fill-rule:evenodd;stroke:#000000;stroke-width:1px;stroke-linecap:butt;stroke-linejoin:miter;stroke-opacity:1"
           inkscape:path-effect="#path-effect4384-8"
           inkscape:original-d="m 290.26733,257.92774 -13.96535,-3.44715 -9.28078,1.14904"
           id="path4382-6"
           d="m 290.26733,257.92774 -13.96535,-3.44715 -9.28078,1.14904"
           inkscape:connector-curvature="0"
           sodipodi:nodetypes="ccc" />
        <path
           style="fill:none;fill-rule:evenodd;stroke:#000000;stroke-width:1px;stroke-linecap:butt;stroke-linejoin:miter;stroke-opacity:1"
           inkscape:path-effect="#path-effect4388-1"
           inkscape:original-d="m 287.43891,265.35236 -14.84924,-1.94455 -9.45756,-7.77817"
           id="path4386-0"
           d="m 287.43891,265.35236 -14.84924,-1.94455 -9.45756,-7.77817"
           inkscape:connector-curvature="0"
           sodipodi:nodetypes="ccc" />
        <path
           style="fill:none;fill-rule:evenodd;stroke:#000000;stroke-width:1px;stroke-linecap:butt;stroke-linejoin:miter;stroke-opacity:1"
           inkscape:path-effect="#path-effect4392-7"
           inkscape:original-d="m 283.54982,271.00921 -14.05375,0.0884 -7.77817,-5.83363"
           id="path4390-9"
           d="m 283.54982,271.00921 -14.05375,0.0884 -7.77817,-5.83363"
           inkscape:connector-curvature="0"
           sodipodi:nodetypes="ccc" />
        <path
           style="fill:none;fill-rule:evenodd;stroke:#000000;stroke-width:1px;stroke-linecap:butt;stroke-linejoin:miter;stroke-opacity:1"
           inkscape:path-effect="#path-effect4396-2"
           inkscape:original-d="m 282.13561,277.72672 -16.26346,0.35355 -7.6014,2.56327"
           id="path4394-5"
           d="m 282.13561,277.72672 -16.26346,0.35355 -7.6014,2.56327"
           inkscape:connector-curvature="0"
           sodipodi:nodetypes="ccc" />
        <path
           style="fill:none;fill-rule:evenodd;stroke:#000000;stroke-width:1px;stroke-linecap:butt;stroke-linejoin:miter;stroke-opacity:1"
           inkscape:path-effect="#path-effect4400-06"
           inkscape:original-d="m 277.89297,285.5049 -14.31892,-1.14905 -8.75045,1.85616"
           id="path4398-9"
           d="m 277.89297,285.5049 -14.31892,-1.14905 -8.75045,1.85616"
           inkscape:connector-curvature="0"
           sodipodi:nodetypes="ccc" />
        <path
           style="fill:none;fill-rule:evenodd;stroke:#000000;stroke-width:1px;stroke-linecap:butt;stroke-linejoin:miter;stroke-opacity:1"
           inkscape:path-effect="#path-effect4404-4"
           inkscape:original-d="m 275.77165,291.16175 -13.25826,1.50261 -12.72792,-4.41942"
           id="path4402-9"
           d="m 275.77165,291.16175 -13.25826,1.50261 -12.72792,-4.41942"
           inkscape:connector-curvature="0"
           sodipodi:nodetypes="ccc" />
      </g>
      <g
         id="g4459-7-9"
         style="display:inline"
         transform="matrix(0.40560876,0.29509688,-0.29509688,0.40560876,1277.6597,441.99425)">
        <path
           style="fill:none;fill-rule:evenodd;stroke:#000000;stroke-width:1px;stroke-linecap:butt;stroke-linejoin:miter;stroke-opacity:1"
           inkscape:path-effect="#path-effect4316-4-7"
           inkscape:original-d="m 323.1478,223.2795 -13.34665,-12.28598 -13.87696,-4.5962"
           id="path4314-7-8"
           d="m 323.1478,223.2795 -13.34665,-12.28598 -13.87696,-4.5962"
           inkscape:connector-curvature="0"
           sodipodi:nodetypes="ccc" />
        <path
           style="fill:none;fill-rule:evenodd;stroke:#000000;stroke-width:1px;stroke-linecap:butt;stroke-linejoin:miter;stroke-opacity:1"
           inkscape:path-effect="#path-effect4320-5-9"
           inkscape:original-d="m 310.77343,233.179 -10.25305,-3.27037 -14.14214,-3.62393"
           id="path4318-2-7"
           d="m 310.77343,233.179 c -3.39021,-1.17389 -6.80927,-2.26445 -10.25305,-3.27037 -4.67203,-1.36469 -9.38957,-2.57356 -14.14214,-3.62393"
           inkscape:connector-curvature="0"
           sodipodi:nodetypes="ccc" />
        <path
           style="fill:none;fill-rule:evenodd;stroke:#000000;stroke-width:1px;stroke-linecap:butt;stroke-linejoin:miter;stroke-opacity:1"
           inkscape:path-effect="#path-effect4332-4-8"
           inkscape:original-d="m 315.36962,228.5828 -16.88217,-6.27557 -8.13172,-8.57367"
           id="path4330-2-5"
           d="m 315.36962,228.5828 -16.88217,-6.27557 -8.13172,-8.57367"
           inkscape:connector-curvature="0"
           sodipodi:nodetypes="ccc" />
        <path
           style="fill:none;fill-rule:evenodd;stroke:#000000;stroke-width:1px;stroke-linecap:butt;stroke-linejoin:miter;stroke-opacity:1"
           inkscape:path-effect="#path-effect4344-1-6"
           inkscape:original-d="m 299.45972,245.90692 -11.84404,-2.47487 -6.80589,-7.6898"
           id="path4342-0-2"
           d="m 299.45972,245.90692 -11.84404,-2.47487 -6.80589,-7.6898"
           inkscape:connector-curvature="0"
           sodipodi:nodetypes="ccc" />
        <path
           style="fill:none;fill-rule:evenodd;stroke:#000000;stroke-width:1px;stroke-linecap:butt;stroke-linejoin:miter;stroke-opacity:1"
           inkscape:path-effect="#path-effect4356-3-8"
           inkscape:original-d="m 305.11658,239.54296 -13.08147,-3.88909 -6.44691,-0.15366"
           id="path4354-7-6"
           d="m 305.11658,239.54296 -13.08147,-3.88909 -6.44691,-0.15366"
           inkscape:connector-curvature="0"
           sodipodi:nodetypes="ccc" />
        <path
           style="fill:none;fill-rule:evenodd;stroke:#000000;stroke-width:1px;stroke-linecap:butt;stroke-linejoin:miter;stroke-opacity:1"
           inkscape:path-effect="#path-effect4368-5-4"
           inkscape:original-d="m 294.86353,253.33154 -13.87697,-3.44714 -2.56327,-7.68979"
           id="path4366-6-5"
           d="m 294.86353,253.33154 -13.87697,-3.44714 -2.56327,-7.68979"
           inkscape:connector-curvature="0"
           sodipodi:nodetypes="ccc" />
        <path
           style="fill:none;fill-rule:evenodd;stroke:#000000;stroke-width:1px;stroke-linecap:butt;stroke-linejoin:miter;stroke-opacity:1"
           inkscape:path-effect="#path-effect4384-7-9"
           inkscape:original-d="m 290.26733,257.92774 -13.96535,-3.44715 -9.28078,1.14904"
           id="path4382-8-86"
           d="m 290.26733,257.92774 -13.96535,-3.44715 -9.28078,1.14904"
           inkscape:connector-curvature="0"
           sodipodi:nodetypes="ccc" />
        <path
           style="fill:none;fill-rule:evenodd;stroke:#000000;stroke-width:1px;stroke-linecap:butt;stroke-linejoin:miter;stroke-opacity:1"
           inkscape:path-effect="#path-effect4388-4-6"
           inkscape:original-d="m 287.43891,265.35236 -14.84924,-1.94455 -9.45756,-7.77817"
           id="path4386-8-2"
           d="m 287.43891,265.35236 -14.84924,-1.94455 -9.45756,-7.77817"
           inkscape:connector-curvature="0"
           sodipodi:nodetypes="ccc" />
        <path
           style="fill:none;fill-rule:evenodd;stroke:#000000;stroke-width:1px;stroke-linecap:butt;stroke-linejoin:miter;stroke-opacity:1"
           inkscape:path-effect="#path-effect4392-5-4"
           inkscape:original-d="m 283.54982,271.00921 -14.05375,0.0884 -7.77817,-5.83363"
           id="path4390-5-1"
           d="m 283.54982,271.00921 -14.05375,0.0884 -7.77817,-5.83363"
           inkscape:connector-curvature="0"
           sodipodi:nodetypes="ccc" />
        <path
           style="fill:none;fill-rule:evenodd;stroke:#000000;stroke-width:1px;stroke-linecap:butt;stroke-linejoin:miter;stroke-opacity:1"
           inkscape:path-effect="#path-effect4396-3-0"
           inkscape:original-d="m 282.13561,277.72672 -16.26346,0.35355 -7.6014,2.56327"
           id="path4394-2-5"
           d="m 282.13561,277.72672 -16.26346,0.35355 -7.6014,2.56327"
           inkscape:connector-curvature="0"
           sodipodi:nodetypes="ccc" />
        <path
           style="fill:none;fill-rule:evenodd;stroke:#000000;stroke-width:1px;stroke-linecap:butt;stroke-linejoin:miter;stroke-opacity:1"
           inkscape:path-effect="#path-effect4400-0-4"
           inkscape:original-d="m 277.89297,285.5049 -14.31892,-1.14905 -8.75045,1.85616"
           id="path4398-3-0"
           d="m 277.89297,285.5049 -14.31892,-1.14905 -8.75045,1.85616"
           inkscape:connector-curvature="0"
           sodipodi:nodetypes="ccc" />
        <path
           style="fill:none;fill-rule:evenodd;stroke:#000000;stroke-width:1px;stroke-linecap:butt;stroke-linejoin:miter;stroke-opacity:1"
           inkscape:path-effect="#path-effect4404-5-5"
           inkscape:original-d="m 275.77165,291.16175 -13.25826,1.50261 -12.72792,-4.41942"
           id="path4402-1-9"
           d="m 275.77165,291.16175 -13.25826,1.50261 -12.72792,-4.41942"
           inkscape:connector-curvature="0"
           sodipodi:nodetypes="ccc" />
      </g>
      <g
         id="g4459-7-4-2"
         style="display:inline"
         transform="matrix(0.1541061,0.4773384,-0.4773384,0.1541061,1441.1454,448.94669)">
        <path
           style="fill:none;fill-rule:evenodd;stroke:#000000;stroke-width:1px;stroke-linecap:butt;stroke-linejoin:miter;stroke-opacity:1"
           inkscape:path-effect="#path-effect4316-4-6-5"
           inkscape:original-d="m 323.1478,223.2795 -13.34665,-12.28598 -13.87696,-4.5962"
           id="path4314-7-7-9"
           d="m 323.1478,223.2795 -13.34665,-12.28598 -13.87696,-4.5962"
           inkscape:connector-curvature="0"
           sodipodi:nodetypes="ccc" />
        <path
           style="fill:none;fill-rule:evenodd;stroke:#000000;stroke-width:1px;stroke-linecap:butt;stroke-linejoin:miter;stroke-opacity:1"
           inkscape:path-effect="#path-effect4320-5-8-2"
           inkscape:original-d="m 310.77343,233.179 -10.25305,-3.27037 -14.14214,-3.62393"
           id="path4318-2-4-3"
           d="m 310.77343,233.179 c -3.39021,-1.17389 -6.80927,-2.26445 -10.25305,-3.27037 -4.67203,-1.36469 -9.38957,-2.57356 -14.14214,-3.62393"
           inkscape:connector-curvature="0"
           sodipodi:nodetypes="ccc" />
        <path
           style="fill:none;fill-rule:evenodd;stroke:#000000;stroke-width:1px;stroke-linecap:butt;stroke-linejoin:miter;stroke-opacity:1"
           inkscape:path-effect="#path-effect4332-4-0-4"
           inkscape:original-d="m 315.36962,228.5828 -16.88217,-6.27557 -8.13172,-8.57367"
           id="path4330-2-0-8"
           d="m 315.36962,228.5828 -16.88217,-6.27557 -8.13172,-8.57367"
           inkscape:connector-curvature="0"
           sodipodi:nodetypes="ccc" />
        <path
           style="fill:none;fill-rule:evenodd;stroke:#000000;stroke-width:1px;stroke-linecap:butt;stroke-linejoin:miter;stroke-opacity:1"
           inkscape:path-effect="#path-effect4344-1-9-6"
           inkscape:original-d="m 299.45972,245.90692 -11.84404,-2.47487 -6.80589,-7.6898"
           id="path4342-0-9-6"
           d="m 299.45972,245.90692 -11.84404,-2.47487 -6.80589,-7.6898"
           inkscape:connector-curvature="0"
           sodipodi:nodetypes="ccc" />
        <path
           style="fill:none;fill-rule:evenodd;stroke:#000000;stroke-width:1px;stroke-linecap:butt;stroke-linejoin:miter;stroke-opacity:1"
           inkscape:path-effect="#path-effect4356-3-1-1"
           inkscape:original-d="m 305.11658,239.54296 -13.08147,-3.88909 -6.44691,-0.15366"
           id="path4354-7-1-2"
           d="m 305.11658,239.54296 -13.08147,-3.88909 -6.44691,-0.15366"
           inkscape:connector-curvature="0"
           sodipodi:nodetypes="ccc" />
        <path
           style="fill:none;fill-rule:evenodd;stroke:#000000;stroke-width:1px;stroke-linecap:butt;stroke-linejoin:miter;stroke-opacity:1"
           inkscape:path-effect="#path-effect4368-5-8-3"
           inkscape:original-d="m 294.86353,253.33154 -13.87697,-3.44714 -2.56327,-7.68979"
           id="path4366-6-7-7"
           d="m 294.86353,253.33154 -13.87697,-3.44714 -2.56327,-7.68979"
           inkscape:connector-curvature="0"
           sodipodi:nodetypes="ccc" />
        <path
           style="fill:none;fill-rule:evenodd;stroke:#000000;stroke-width:1px;stroke-linecap:butt;stroke-linejoin:miter;stroke-opacity:1"
           inkscape:path-effect="#path-effect4384-7-4-5"
           inkscape:original-d="m 290.26733,257.92774 -13.96535,-3.44715 -9.28078,1.14904"
           id="path4382-8-8-5"
           d="m 290.26733,257.92774 -13.96535,-3.44715 -9.28078,1.14904"
           inkscape:connector-curvature="0"
           sodipodi:nodetypes="ccc" />
        <path
           style="fill:none;fill-rule:evenodd;stroke:#000000;stroke-width:1px;stroke-linecap:butt;stroke-linejoin:miter;stroke-opacity:1"
           inkscape:path-effect="#path-effect4388-4-8-1"
           inkscape:original-d="m 287.43891,265.35236 -14.84924,-1.94455 -9.45756,-7.77817"
           id="path4386-8-3-0"
           d="m 287.43891,265.35236 -14.84924,-1.94455 -9.45756,-7.77817"
           inkscape:connector-curvature="0"
           sodipodi:nodetypes="ccc" />
        <path
           style="fill:none;fill-rule:evenodd;stroke:#000000;stroke-width:1px;stroke-linecap:butt;stroke-linejoin:miter;stroke-opacity:1"
           inkscape:path-effect="#path-effect4392-5-2-1"
           inkscape:original-d="m 283.54982,271.00921 -14.05375,0.0884 -7.77817,-5.83363"
           id="path4390-5-0-92"
           d="m 283.54982,271.00921 -14.05375,0.0884 -7.77817,-5.83363"
           inkscape:connector-curvature="0"
           sodipodi:nodetypes="ccc" />
        <path
           style="fill:none;fill-rule:evenodd;stroke:#000000;stroke-width:1px;stroke-linecap:butt;stroke-linejoin:miter;stroke-opacity:1"
           inkscape:path-effect="#path-effect4396-3-5-4"
           inkscape:original-d="m 282.13561,277.72672 -16.26346,0.35355 -7.6014,2.56327"
           id="path4394-2-0-5"
           d="m 282.13561,277.72672 -16.26346,0.35355 -7.6014,2.56327"
           inkscape:connector-curvature="0"
           sodipodi:nodetypes="ccc" />
        <path
           style="fill:none;fill-rule:evenodd;stroke:#000000;stroke-width:1px;stroke-linecap:butt;stroke-linejoin:miter;stroke-opacity:1"
           inkscape:path-effect="#path-effect4400-0-1-5"
           inkscape:original-d="m 277.89297,285.5049 -14.31892,-1.14905 -8.75045,1.85616"
           id="path4398-3-3-90"
           d="m 277.89297,285.5049 -14.31892,-1.14905 -8.75045,1.85616"
           inkscape:connector-curvature="0"
           sodipodi:nodetypes="ccc" />
        <path
           style="fill:none;fill-rule:evenodd;stroke:#000000;stroke-width:1px;stroke-linecap:butt;stroke-linejoin:miter;stroke-opacity:1"
           inkscape:path-effect="#path-effect4404-5-7-0"
           inkscape:original-d="m 275.77165,291.16175 -13.25826,1.50261 -12.72792,-4.41942"
           id="path4402-1-8-7"
           d="m 275.77165,291.16175 -13.25826,1.50261 -12.72792,-4.41942"
           inkscape:connector-curvature="0"
           sodipodi:nodetypes="ccc" />
      </g>
      <g
         id="g4459-7-4-52"
         style="display:inline"
         transform="matrix(-0.10956743,0.48948505,-0.48948505,-0.10956743,1547.455,526.70944)">
        <path
           style="fill:none;fill-rule:evenodd;stroke:#000000;stroke-width:1px;stroke-linecap:butt;stroke-linejoin:miter;stroke-opacity:1"
           inkscape:path-effect="#path-effect4316-4-6-2"
           inkscape:original-d="m 323.1478,223.2795 -13.34665,-12.28598 -13.87696,-4.5962"
           id="path4314-7-7-2"
           d="m 323.1478,223.2795 -13.34665,-12.28598 -13.87696,-4.5962"
           inkscape:connector-curvature="0"
           sodipodi:nodetypes="ccc" />
        <path
           style="fill:none;fill-rule:evenodd;stroke:#000000;stroke-width:1px;stroke-linecap:butt;stroke-linejoin:miter;stroke-opacity:1"
           inkscape:path-effect="#path-effect4320-5-8-5"
           inkscape:original-d="m 310.77343,233.179 -10.25305,-3.27037 -14.14214,-3.62393"
           id="path4318-2-4-8"
           d="m 310.77343,233.179 c -3.39021,-1.17389 -6.80927,-2.26445 -10.25305,-3.27037 -4.67203,-1.36469 -9.38957,-2.57356 -14.14214,-3.62393"
           inkscape:connector-curvature="0"
           sodipodi:nodetypes="ccc" />
        <path
           style="fill:none;fill-rule:evenodd;stroke:#000000;stroke-width:1px;stroke-linecap:butt;stroke-linejoin:miter;stroke-opacity:1"
           inkscape:path-effect="#path-effect4332-4-0-7"
           inkscape:original-d="m 315.36962,228.5828 -16.88217,-6.27557 -8.13172,-8.57367"
           id="path4330-2-0-0"
           d="m 315.36962,228.5828 -16.88217,-6.27557 -8.13172,-8.57367"
           inkscape:connector-curvature="0"
           sodipodi:nodetypes="ccc" />
        <path
           style="fill:none;fill-rule:evenodd;stroke:#000000;stroke-width:1px;stroke-linecap:butt;stroke-linejoin:miter;stroke-opacity:1"
           inkscape:path-effect="#path-effect4344-1-9-1"
           inkscape:original-d="m 299.45972,245.90692 -11.84404,-2.47487 -6.80589,-7.6898"
           id="path4342-0-9-11"
           d="m 299.45972,245.90692 -11.84404,-2.47487 -6.80589,-7.6898"
           inkscape:connector-curvature="0"
           sodipodi:nodetypes="ccc" />
        <path
           style="fill:none;fill-rule:evenodd;stroke:#000000;stroke-width:1px;stroke-linecap:butt;stroke-linejoin:miter;stroke-opacity:1"
           inkscape:path-effect="#path-effect4356-3-1-0"
           inkscape:original-d="m 305.11658,239.54296 -13.08147,-3.88909 -6.44691,-0.15366"
           id="path4354-7-1-9"
           d="m 305.11658,239.54296 -13.08147,-3.88909 -6.44691,-0.15366"
           inkscape:connector-curvature="0"
           sodipodi:nodetypes="ccc" />
        <path
           style="fill:none;fill-rule:evenodd;stroke:#000000;stroke-width:1px;stroke-linecap:butt;stroke-linejoin:miter;stroke-opacity:1"
           inkscape:path-effect="#path-effect4368-5-8-1"
           inkscape:original-d="m 294.86353,253.33154 -13.87697,-3.44714 -2.56327,-7.68979"
           id="path4366-6-7-6"
           d="m 294.86353,253.33154 -13.87697,-3.44714 -2.56327,-7.68979"
           inkscape:connector-curvature="0"
           sodipodi:nodetypes="ccc" />
        <path
           style="fill:none;fill-rule:evenodd;stroke:#000000;stroke-width:1px;stroke-linecap:butt;stroke-linejoin:miter;stroke-opacity:1"
           inkscape:path-effect="#path-effect4384-7-4-8"
           inkscape:original-d="m 290.26733,257.92774 -13.96535,-3.44715 -9.28078,1.14904"
           id="path4382-8-8-1"
           d="m 290.26733,257.92774 -13.96535,-3.44715 -9.28078,1.14904"
           inkscape:connector-curvature="0"
           sodipodi:nodetypes="ccc" />
        <path
           style="fill:none;fill-rule:evenodd;stroke:#000000;stroke-width:1px;stroke-linecap:butt;stroke-linejoin:miter;stroke-opacity:1"
           inkscape:path-effect="#path-effect4388-4-8-8"
           inkscape:original-d="m 287.43891,265.35236 -14.84924,-1.94455 -9.45756,-7.77817"
           id="path4386-8-3-1"
           d="m 287.43891,265.35236 -14.84924,-1.94455 -9.45756,-7.77817"
           inkscape:connector-curvature="0"
           sodipodi:nodetypes="ccc" />
        <path
           style="fill:none;fill-rule:evenodd;stroke:#000000;stroke-width:1px;stroke-linecap:butt;stroke-linejoin:miter;stroke-opacity:1"
           inkscape:path-effect="#path-effect4392-5-2-2"
           inkscape:original-d="m 283.54982,271.00921 -14.05375,0.0884 -7.77817,-5.83363"
           id="path4390-5-0-0"
           d="m 283.54982,271.00921 -14.05375,0.0884 -7.77817,-5.83363"
           inkscape:connector-curvature="0"
           sodipodi:nodetypes="ccc" />
        <path
           style="fill:none;fill-rule:evenodd;stroke:#000000;stroke-width:1px;stroke-linecap:butt;stroke-linejoin:miter;stroke-opacity:1"
           inkscape:path-effect="#path-effect4396-3-5-14"
           inkscape:original-d="m 282.13561,277.72672 -16.26346,0.35355 -7.6014,2.56327"
           id="path4394-2-0-80"
           d="m 282.13561,277.72672 -16.26346,0.35355 -7.6014,2.56327"
           inkscape:connector-curvature="0"
           sodipodi:nodetypes="ccc" />
        <path
           style="fill:none;fill-rule:evenodd;stroke:#000000;stroke-width:1px;stroke-linecap:butt;stroke-linejoin:miter;stroke-opacity:1"
           inkscape:path-effect="#path-effect4400-0-1-53"
           inkscape:original-d="m 277.89297,285.5049 -14.31892,-1.14905 -8.75045,1.85616"
           id="path4398-3-3-1"
           d="m 277.89297,285.5049 -14.31892,-1.14905 -8.75045,1.85616"
           inkscape:connector-curvature="0"
           sodipodi:nodetypes="ccc" />
        <path
           style="fill:none;fill-rule:evenodd;stroke:#000000;stroke-width:1px;stroke-linecap:butt;stroke-linejoin:miter;stroke-opacity:1"
           inkscape:path-effect="#path-effect4404-5-7-03"
           inkscape:original-d="m 275.77165,291.16175 -13.25826,1.50261 -12.72792,-4.41942"
           id="path4402-1-8-5"
           d="m 275.77165,291.16175 -13.25826,1.50261 -12.72792,-4.41942"
           inkscape:connector-curvature="0"
           sodipodi:nodetypes="ccc" />
      </g>
      <g
         id="g4459-7-4-5-1"
         style="display:inline"
         transform="matrix(-0.27735072,0.41794403,-0.41794403,-0.27735072,1593.0677,612.56399)">
        <path
           style="fill:none;fill-rule:evenodd;stroke:#000000;stroke-width:1px;stroke-linecap:butt;stroke-linejoin:miter;stroke-opacity:1"
           inkscape:path-effect="#path-effect4316-4-6-9-3"
           inkscape:original-d="m 323.1478,223.2795 -13.34665,-12.28598 -13.87696,-4.5962"
           id="path4314-7-7-8-5"
           d="m 323.1478,223.2795 -13.34665,-12.28598 -13.87696,-4.5962"
           inkscape:connector-curvature="0"
           sodipodi:nodetypes="ccc" />
        <path
           style="fill:none;fill-rule:evenodd;stroke:#000000;stroke-width:1px;stroke-linecap:butt;stroke-linejoin:miter;stroke-opacity:1"
           inkscape:path-effect="#path-effect4320-5-8-3-8"
           inkscape:original-d="m 310.77343,233.179 -10.25305,-3.27037 -14.14214,-3.62393"
           id="path4318-2-4-1-1"
           d="m 310.77343,233.179 c -3.39021,-1.17389 -6.80927,-2.26445 -10.25305,-3.27037 -4.67203,-1.36469 -9.38957,-2.57356 -14.14214,-3.62393"
           inkscape:connector-curvature="0"
           sodipodi:nodetypes="ccc" />
        <path
           style="fill:none;fill-rule:evenodd;stroke:#000000;stroke-width:1px;stroke-linecap:butt;stroke-linejoin:miter;stroke-opacity:1"
           inkscape:path-effect="#path-effect4332-4-0-5-4"
           inkscape:original-d="m 315.36962,228.5828 -16.88217,-6.27557 -8.13172,-8.57367"
           id="path4330-2-0-3-6"
           d="m 315.36962,228.5828 -16.88217,-6.27557 -8.13172,-8.57367"
           inkscape:connector-curvature="0"
           sodipodi:nodetypes="ccc" />
        <path
           style="fill:none;fill-rule:evenodd;stroke:#000000;stroke-width:1px;stroke-linecap:butt;stroke-linejoin:miter;stroke-opacity:1"
           inkscape:path-effect="#path-effect4344-1-9-3-6"
           inkscape:original-d="m 299.45972,245.90692 -11.84404,-2.47487 -6.80589,-7.6898"
           id="path4342-0-9-1-7"
           d="m 299.45972,245.90692 -11.84404,-2.47487 -6.80589,-7.6898"
           inkscape:connector-curvature="0"
           sodipodi:nodetypes="ccc" />
        <path
           style="fill:none;fill-rule:evenodd;stroke:#000000;stroke-width:1px;stroke-linecap:butt;stroke-linejoin:miter;stroke-opacity:1"
           inkscape:path-effect="#path-effect4356-3-1-7-1"
           inkscape:original-d="m 305.11658,239.54296 -13.08147,-3.88909 -6.44691,-0.15366"
           id="path4354-7-1-1-5"
           d="m 305.11658,239.54296 -13.08147,-3.88909 -6.44691,-0.15366"
           inkscape:connector-curvature="0"
           sodipodi:nodetypes="ccc" />
        <path
           style="fill:none;fill-rule:evenodd;stroke:#000000;stroke-width:1px;stroke-linecap:butt;stroke-linejoin:miter;stroke-opacity:1"
           inkscape:path-effect="#path-effect4368-5-8-9-6"
           inkscape:original-d="m 294.86353,253.33154 -13.87697,-3.44714 -2.56327,-7.68979"
           id="path4366-6-7-9-7"
           d="m 294.86353,253.33154 -13.87697,-3.44714 -2.56327,-7.68979"
           inkscape:connector-curvature="0"
           sodipodi:nodetypes="ccc" />
        <path
           style="fill:none;fill-rule:evenodd;stroke:#000000;stroke-width:1px;stroke-linecap:butt;stroke-linejoin:miter;stroke-opacity:1"
           inkscape:path-effect="#path-effect4384-7-4-0-4"
           inkscape:original-d="m 290.26733,257.92774 -13.96535,-3.44715 -9.28078,1.14904"
           id="path4382-8-8-9-0"
           d="m 290.26733,257.92774 -13.96535,-3.44715 -9.28078,1.14904"
           inkscape:connector-curvature="0"
           sodipodi:nodetypes="ccc" />
        <path
           style="fill:none;fill-rule:evenodd;stroke:#000000;stroke-width:1px;stroke-linecap:butt;stroke-linejoin:miter;stroke-opacity:1"
           inkscape:path-effect="#path-effect4388-4-8-7-9"
           inkscape:original-d="m 287.43891,265.35236 -14.84924,-1.94455 -9.45756,-7.77817"
           id="path4386-8-3-7-6"
           d="m 287.43891,265.35236 -14.84924,-1.94455 -9.45756,-7.77817"
           inkscape:connector-curvature="0"
           sodipodi:nodetypes="ccc" />
        <path
           style="fill:none;fill-rule:evenodd;stroke:#000000;stroke-width:1px;stroke-linecap:butt;stroke-linejoin:miter;stroke-opacity:1"
           inkscape:path-effect="#path-effect4392-5-2-9-0"
           inkscape:original-d="m 283.54982,271.00921 -14.05375,0.0884 -7.77817,-5.83363"
           id="path4390-5-0-9-8"
           d="m 283.54982,271.00921 -14.05375,0.0884 -7.77817,-5.83363"
           inkscape:connector-curvature="0"
           sodipodi:nodetypes="ccc" />
        <path
           style="fill:none;fill-rule:evenodd;stroke:#000000;stroke-width:1px;stroke-linecap:butt;stroke-linejoin:miter;stroke-opacity:1"
           inkscape:path-effect="#path-effect4396-3-5-1-6"
           inkscape:original-d="m 282.13561,277.72672 -16.26346,0.35355 -7.6014,2.56327"
           id="path4394-2-0-8-9"
           d="m 282.13561,277.72672 -16.26346,0.35355 -7.6014,2.56327"
           inkscape:connector-curvature="0"
           sodipodi:nodetypes="ccc" />
        <path
           style="fill:none;fill-rule:evenodd;stroke:#000000;stroke-width:1px;stroke-linecap:butt;stroke-linejoin:miter;stroke-opacity:1"
           inkscape:path-effect="#path-effect4400-0-1-8-3"
           inkscape:original-d="m 277.89297,285.5049 -14.31892,-1.14905 -8.75045,1.85616"
           id="path4398-3-3-9-5"
           d="m 277.89297,285.5049 -14.31892,-1.14905 -8.75045,1.85616"
           inkscape:connector-curvature="0"
           sodipodi:nodetypes="ccc" />
        <path
           style="fill:none;fill-rule:evenodd;stroke:#000000;stroke-width:1px;stroke-linecap:butt;stroke-linejoin:miter;stroke-opacity:1"
           inkscape:path-effect="#path-effect4404-5-7-7-8"
           inkscape:original-d="m 275.77165,291.16175 -13.25826,1.50261 -12.72792,-4.41942"
           id="path4402-1-8-9-1"
           d="m 275.77165,291.16175 -13.25826,1.50261 -12.72792,-4.41942"
           inkscape:connector-curvature="0"
           sodipodi:nodetypes="ccc" />
      </g>
      <g
         id="g4459-77-1"
         style="display:inline"
         transform="matrix(0.49606145,-0.07432144,0.07432144,0.49606145,1128.2146,555.66624)">
        <path
           style="fill:none;fill-rule:evenodd;stroke:#000000;stroke-width:1px;stroke-linecap:butt;stroke-linejoin:miter;stroke-opacity:1"
           inkscape:path-effect="#path-effect4316-7-0"
           inkscape:original-d="m 323.1478,223.2795 -13.34665,-12.28598 -13.87696,-4.5962"
           id="path4314-5-7"
           d="m 323.1478,223.2795 -13.34665,-12.28598 -13.87696,-4.5962"
           inkscape:connector-curvature="0"
           sodipodi:nodetypes="ccc" />
        <path
           style="fill:none;fill-rule:evenodd;stroke:#000000;stroke-width:1px;stroke-linecap:butt;stroke-linejoin:miter;stroke-opacity:1"
           inkscape:path-effect="#path-effect4320-4-7"
           inkscape:original-d="m 310.77343,233.179 -10.25305,-3.27037 -14.14214,-3.62393"
           id="path4318-8-1"
           d="m 310.77343,233.179 c -3.39021,-1.17389 -6.80927,-2.26445 -10.25305,-3.27037 -4.67203,-1.36469 -9.38957,-2.57356 -14.14214,-3.62393"
           inkscape:connector-curvature="0"
           sodipodi:nodetypes="ccc" />
        <path
           style="fill:none;fill-rule:evenodd;stroke:#000000;stroke-width:1px;stroke-linecap:butt;stroke-linejoin:miter;stroke-opacity:1"
           inkscape:path-effect="#path-effect4332-1-1"
           inkscape:original-d="m 315.36962,228.5828 -16.88217,-6.27557 -8.13172,-8.57367"
           id="path4330-5-9"
           d="m 315.36962,228.5828 -16.88217,-6.27557 -8.13172,-8.57367"
           inkscape:connector-curvature="0"
           sodipodi:nodetypes="ccc" />
        <path
           style="fill:none;fill-rule:evenodd;stroke:#000000;stroke-width:1px;stroke-linecap:butt;stroke-linejoin:miter;stroke-opacity:1"
           inkscape:path-effect="#path-effect4344-7-3"
           inkscape:original-d="m 299.45972,245.90692 -11.84404,-2.47487 -6.80589,-7.6898"
           id="path4342-1-3"
           d="m 299.45972,245.90692 -11.84404,-2.47487 -6.80589,-7.6898"
           inkscape:connector-curvature="0"
           sodipodi:nodetypes="ccc" />
        <path
           style="fill:none;fill-rule:evenodd;stroke:#000000;stroke-width:1px;stroke-linecap:butt;stroke-linejoin:miter;stroke-opacity:1"
           inkscape:path-effect="#path-effect4356-7-8"
           inkscape:original-d="m 305.11658,239.54296 -13.08147,-3.88909 -6.44691,-0.15366"
           id="path4354-8-1"
           d="m 305.11658,239.54296 -13.08147,-3.88909 -6.44691,-0.15366"
           inkscape:connector-curvature="0"
           sodipodi:nodetypes="ccc" />
        <path
           style="fill:none;fill-rule:evenodd;stroke:#000000;stroke-width:1px;stroke-linecap:butt;stroke-linejoin:miter;stroke-opacity:1"
           inkscape:path-effect="#path-effect4368-1-6"
           inkscape:original-d="m 294.86353,253.33154 -13.87697,-3.44714 -2.56327,-7.68979"
           id="path4366-8-0"
           d="m 294.86353,253.33154 -13.87697,-3.44714 -2.56327,-7.68979"
           inkscape:connector-curvature="0"
           sodipodi:nodetypes="ccc" />
        <path
           style="fill:none;fill-rule:evenodd;stroke:#000000;stroke-width:1px;stroke-linecap:butt;stroke-linejoin:miter;stroke-opacity:1"
           inkscape:path-effect="#path-effect4384-8-8"
           inkscape:original-d="m 290.26733,257.92774 -13.96535,-3.44715 -9.28078,1.14904"
           id="path4382-6-8"
           d="m 290.26733,257.92774 -13.96535,-3.44715 -9.28078,1.14904"
           inkscape:connector-curvature="0"
           sodipodi:nodetypes="ccc" />
        <path
           style="fill:none;fill-rule:evenodd;stroke:#000000;stroke-width:1px;stroke-linecap:butt;stroke-linejoin:miter;stroke-opacity:1"
           inkscape:path-effect="#path-effect4388-1-7"
           inkscape:original-d="m 287.43891,265.35236 -14.84924,-1.94455 -9.45756,-7.77817"
           id="path4386-0-2"
           d="m 287.43891,265.35236 -14.84924,-1.94455 -9.45756,-7.77817"
           inkscape:connector-curvature="0"
           sodipodi:nodetypes="ccc" />
        <path
           style="fill:none;fill-rule:evenodd;stroke:#000000;stroke-width:1px;stroke-linecap:butt;stroke-linejoin:miter;stroke-opacity:1"
           inkscape:path-effect="#path-effect4392-7-2"
           inkscape:original-d="m 283.54982,271.00921 -14.05375,0.0884 -7.77817,-5.83363"
           id="path4390-9-8"
           d="m 283.54982,271.00921 -14.05375,0.0884 -7.77817,-5.83363"
           inkscape:connector-curvature="0"
           sodipodi:nodetypes="ccc" />
        <path
           style="fill:none;fill-rule:evenodd;stroke:#000000;stroke-width:1px;stroke-linecap:butt;stroke-linejoin:miter;stroke-opacity:1"
           inkscape:path-effect="#path-effect4396-2-4"
           inkscape:original-d="m 282.13561,277.72672 -16.26346,0.35355 -7.6014,2.56327"
           id="path4394-5-8"
           d="m 282.13561,277.72672 -16.26346,0.35355 -7.6014,2.56327"
           inkscape:connector-curvature="0"
           sodipodi:nodetypes="ccc" />
        <path
           style="fill:none;fill-rule:evenodd;stroke:#000000;stroke-width:1px;stroke-linecap:butt;stroke-linejoin:miter;stroke-opacity:1"
           inkscape:path-effect="#path-effect4400-06-8"
           inkscape:original-d="m 277.89297,285.5049 -14.31892,-1.14905 -8.75045,1.85616"
           id="path4398-9-7"
           d="m 277.89297,285.5049 -14.31892,-1.14905 -8.75045,1.85616"
           inkscape:connector-curvature="0"
           sodipodi:nodetypes="ccc" />
        <path
           style="fill:none;fill-rule:evenodd;stroke:#000000;stroke-width:1px;stroke-linecap:butt;stroke-linejoin:miter;stroke-opacity:1"
           inkscape:path-effect="#path-effect4404-4-0"
           inkscape:original-d="m 275.77165,291.16175 -13.25826,1.50261 -12.72792,-4.41942"
           id="path4402-9-5"
           d="m 275.77165,291.16175 -13.25826,1.50261 -12.72792,-4.41942"
           inkscape:connector-curvature="0"
           sodipodi:nodetypes="ccc" />
      </g>
    </g>
  </g>
</svg>
