<?xml version="1.0" encoding="UTF-8" standalone="no"?>
<!-- Created with Inkscape (http://www.inkscape.org/) -->

<svg
   xmlns:dc="http://purl.org/dc/elements/1.1/"
   xmlns:cc="http://creativecommons.org/ns#"
   xmlns:rdf="http://www.w3.org/1999/02/22-rdf-syntax-ns#"
   xmlns:svg="http://www.w3.org/2000/svg"
   xmlns="http://www.w3.org/2000/svg"
   xmlns:sodipodi="http://sodipodi.sourceforge.net/DTD/sodipodi-0.dtd"
   xmlns:inkscape="http://www.inkscape.org/namespaces/inkscape"
   width="1920"
   height="1080"
   viewBox="0 0 1920 1080"
   id="svg2"
   version="1.1"
   inkscape:version="0.91 r13725"
   sodipodi:docname="4b_cic_guy_cat.svg">
  <defs
     id="defs4">
    <inkscape:path-effect
       effect="spiro"
       id="path-effect4585"
       is_visible="true" />
    <inkscape:path-effect
       effect="spiro"
       id="path-effect9802"
       is_visible="true" />
    <inkscape:path-effect
       effect="spiro"
       id="path-effect4644"
       is_visible="true" />
    <inkscape:path-effect
       effect="spiro"
       id="path-effect4652"
       is_visible="true" />
    <inkscape:path-effect
       effect="spiro"
       id="path-effect4324"
       is_visible="true" />
    <inkscape:path-effect
       effect="spiro"
       id="path-effect4324-0"
       is_visible="true" />
    <inkscape:path-effect
       effect="spiro"
       id="path-effect4324-0-5"
       is_visible="true" />
    <inkscape:path-effect
       effect="spiro"
       id="path-effect4324-8"
       is_visible="true" />
    <inkscape:path-effect
       effect="spiro"
       id="path-effect4324-0-6"
       is_visible="true" />
    <inkscape:path-effect
       effect="spiro"
       id="path-effect4324-0-5-6"
       is_visible="true" />
    <inkscape:path-effect
       effect="spiro"
       id="path-effect4324-1"
       is_visible="true" />
    <inkscape:path-effect
       effect="spiro"
       id="path-effect4324-0-7"
       is_visible="true" />
    <inkscape:path-effect
       effect="spiro"
       id="path-effect4324-0-5-0"
       is_visible="true" />
    <inkscape:path-effect
       effect="spiro"
       id="path-effect4324-8-2"
       is_visible="true" />
    <inkscape:path-effect
       effect="spiro"
       id="path-effect4324-0-6-0"
       is_visible="true" />
    <inkscape:path-effect
       effect="spiro"
       id="path-effect4324-0-5-6-0"
       is_visible="true" />
    <inkscape:path-effect
       effect="spiro"
       id="path-effect4324-04"
       is_visible="true" />
    <inkscape:path-effect
       effect="spiro"
       id="path-effect4324-0-66"
       is_visible="true" />
    <inkscape:path-effect
       effect="spiro"
       id="path-effect4324-0-5-1"
       is_visible="true" />
    <inkscape:path-effect
       effect="spiro"
       id="path-effect4324-8-6"
       is_visible="true" />
    <inkscape:path-effect
       effect="spiro"
       id="path-effect4324-0-6-1"
       is_visible="true" />
    <inkscape:path-effect
       effect="spiro"
       id="path-effect4324-0-5-6-1"
       is_visible="true" />
    <inkscape:path-effect
       effect="spiro"
       id="path-effect4324-1-4"
       is_visible="true" />
    <inkscape:path-effect
       effect="spiro"
       id="path-effect4324-0-7-0"
       is_visible="true" />
    <inkscape:path-effect
       effect="spiro"
       id="path-effect4324-0-5-0-0"
       is_visible="true" />
    <inkscape:path-effect
       effect="spiro"
       id="path-effect4324-8-2-0"
       is_visible="true" />
    <inkscape:path-effect
       effect="spiro"
       id="path-effect4324-0-6-0-8"
       is_visible="true" />
    <inkscape:path-effect
       effect="spiro"
       id="path-effect4324-0-5-6-0-7"
       is_visible="true" />
    <inkscape:path-effect
       effect="spiro"
       id="path-effect4324-04-3"
       is_visible="true" />
    <inkscape:path-effect
       effect="spiro"
       id="path-effect4324-0-66-2"
       is_visible="true" />
    <inkscape:path-effect
       effect="spiro"
       id="path-effect4324-0-5-1-0"
       is_visible="true" />
    <inkscape:path-effect
       effect="spiro"
       id="path-effect4324-8-6-0"
       is_visible="true" />
    <inkscape:path-effect
       effect="spiro"
       id="path-effect4324-0-6-1-2"
       is_visible="true" />
    <inkscape:path-effect
       effect="spiro"
       id="path-effect4324-0-5-6-1-0"
       is_visible="true" />
    <inkscape:path-effect
       effect="spiro"
       id="path-effect4324-1-4-2"
       is_visible="true" />
    <inkscape:path-effect
       effect="spiro"
       id="path-effect4324-0-7-0-4"
       is_visible="true" />
    <inkscape:path-effect
       effect="spiro"
       id="path-effect4324-0-5-0-0-0"
       is_visible="true" />
    <inkscape:path-effect
       effect="spiro"
       id="path-effect4324-8-2-0-6"
       is_visible="true" />
    <inkscape:path-effect
       effect="spiro"
       id="path-effect4324-0-6-0-8-6"
       is_visible="true" />
    <inkscape:path-effect
       effect="spiro"
       id="path-effect4324-0-5-6-0-7-1"
       is_visible="true" />
    <inkscape:path-effect
       effect="spiro"
       id="path-effect4324-04-3-7"
       is_visible="true" />
    <inkscape:path-effect
       effect="spiro"
       id="path-effect4324-0-66-2-0"
       is_visible="true" />
    <inkscape:path-effect
       effect="spiro"
       id="path-effect4324-0-5-1-0-8"
       is_visible="true" />
    <inkscape:path-effect
       effect="spiro"
       id="path-effect4324-8-6-0-4"
       is_visible="true" />
    <inkscape:path-effect
       effect="spiro"
       id="path-effect4324-0-6-1-2-3"
       is_visible="true" />
    <inkscape:path-effect
       effect="spiro"
       id="path-effect4324-0-5-6-1-0-5"
       is_visible="true" />
    <inkscape:path-effect
       effect="spiro"
       id="path-effect4324-1-4-2-1"
       is_visible="true" />
    <inkscape:path-effect
       effect="spiro"
       id="path-effect4324-0-7-0-4-7"
       is_visible="true" />
    <inkscape:path-effect
       effect="spiro"
       id="path-effect4324-0-5-0-0-0-7"
       is_visible="true" />
    <inkscape:path-effect
       effect="spiro"
       id="path-effect4324-8-2-0-6-2"
       is_visible="true" />
    <inkscape:path-effect
       effect="spiro"
       id="path-effect4324-0-6-0-8-6-7"
       is_visible="true" />
    <inkscape:path-effect
       effect="spiro"
       id="path-effect4324-0-5-6-0-7-1-1"
       is_visible="true" />
    <inkscape:path-effect
       effect="spiro"
       id="path-effect9802-8"
       is_visible="true" />
    <inkscape:path-effect
       effect="spiro"
       id="path-effect4644-8"
       is_visible="true" />
    <inkscape:path-effect
       effect="spiro"
       id="path-effect4652-2"
       is_visible="true" />
    <inkscape:path-effect
       effect="spiro"
       id="path-effect9802-82"
       is_visible="true" />
    <inkscape:path-effect
       effect="spiro"
       id="path-effect4644-3"
       is_visible="true" />
    <inkscape:path-effect
       effect="spiro"
       id="path-effect4652-1"
       is_visible="true" />
    <inkscape:path-effect
       effect="spiro"
       id="path-effect4316"
       is_visible="true" />
    <inkscape:path-effect
       effect="spiro"
       id="path-effect4320"
       is_visible="true" />
    <inkscape:path-effect
       effect="spiro"
       id="path-effect4332"
       is_visible="true" />
    <inkscape:path-effect
       effect="spiro"
       id="path-effect4344"
       is_visible="true" />
    <inkscape:path-effect
       effect="spiro"
       id="path-effect4356"
       is_visible="true" />
    <inkscape:path-effect
       effect="spiro"
       id="path-effect4368"
       is_visible="true" />
    <inkscape:path-effect
       effect="spiro"
       id="path-effect4384"
       is_visible="true" />
    <inkscape:path-effect
       effect="spiro"
       id="path-effect4388"
       is_visible="true" />
    <inkscape:path-effect
       effect="spiro"
       id="path-effect4392"
       is_visible="true" />
    <inkscape:path-effect
       effect="spiro"
       id="path-effect4396"
       is_visible="true" />
    <inkscape:path-effect
       effect="spiro"
       id="path-effect4400"
       is_visible="true" />
    <inkscape:path-effect
       effect="spiro"
       id="path-effect4404"
       is_visible="true" />
    <inkscape:path-effect
       effect="spiro"
       id="path-effect4316-4"
       is_visible="true" />
    <inkscape:path-effect
       effect="spiro"
       id="path-effect4320-5"
       is_visible="true" />
    <inkscape:path-effect
       effect="spiro"
       id="path-effect4332-4"
       is_visible="true" />
    <inkscape:path-effect
       effect="spiro"
       id="path-effect4344-1"
       is_visible="true" />
    <inkscape:path-effect
       effect="spiro"
       id="path-effect4356-3"
       is_visible="true" />
    <inkscape:path-effect
       effect="spiro"
       id="path-effect4368-5"
       is_visible="true" />
    <inkscape:path-effect
       effect="spiro"
       id="path-effect4384-7"
       is_visible="true" />
    <inkscape:path-effect
       effect="spiro"
       id="path-effect4388-4"
       is_visible="true" />
    <inkscape:path-effect
       effect="spiro"
       id="path-effect4392-5"
       is_visible="true" />
    <inkscape:path-effect
       effect="spiro"
       id="path-effect4396-3"
       is_visible="true" />
    <inkscape:path-effect
       effect="spiro"
       id="path-effect4400-0"
       is_visible="true" />
    <inkscape:path-effect
       effect="spiro"
       id="path-effect4404-5"
       is_visible="true" />
    <inkscape:path-effect
       effect="spiro"
       id="path-effect4316-4-6"
       is_visible="true" />
    <inkscape:path-effect
       effect="spiro"
       id="path-effect4320-5-8"
       is_visible="true" />
    <inkscape:path-effect
       effect="spiro"
       id="path-effect4332-4-0"
       is_visible="true" />
    <inkscape:path-effect
       effect="spiro"
       id="path-effect4344-1-9"
       is_visible="true" />
    <inkscape:path-effect
       effect="spiro"
       id="path-effect4356-3-1"
       is_visible="true" />
    <inkscape:path-effect
       effect="spiro"
       id="path-effect4368-5-8"
       is_visible="true" />
    <inkscape:path-effect
       effect="spiro"
       id="path-effect4384-7-4"
       is_visible="true" />
    <inkscape:path-effect
       effect="spiro"
       id="path-effect4388-4-8"
       is_visible="true" />
    <inkscape:path-effect
       effect="spiro"
       id="path-effect4392-5-2"
       is_visible="true" />
    <inkscape:path-effect
       effect="spiro"
       id="path-effect4396-3-5"
       is_visible="true" />
    <inkscape:path-effect
       effect="spiro"
       id="path-effect4400-0-1"
       is_visible="true" />
    <inkscape:path-effect
       effect="spiro"
       id="path-effect4404-5-7"
       is_visible="true" />
    <inkscape:path-effect
       effect="spiro"
       id="path-effect4316-4-6-9"
       is_visible="true" />
    <inkscape:path-effect
       effect="spiro"
       id="path-effect4320-5-8-3"
       is_visible="true" />
    <inkscape:path-effect
       effect="spiro"
       id="path-effect4332-4-0-5"
       is_visible="true" />
    <inkscape:path-effect
       effect="spiro"
       id="path-effect4344-1-9-3"
       is_visible="true" />
    <inkscape:path-effect
       effect="spiro"
       id="path-effect4356-3-1-7"
       is_visible="true" />
    <inkscape:path-effect
       effect="spiro"
       id="path-effect4368-5-8-9"
       is_visible="true" />
    <inkscape:path-effect
       effect="spiro"
       id="path-effect4384-7-4-0"
       is_visible="true" />
    <inkscape:path-effect
       effect="spiro"
       id="path-effect4388-4-8-7"
       is_visible="true" />
    <inkscape:path-effect
       effect="spiro"
       id="path-effect4392-5-2-9"
       is_visible="true" />
    <inkscape:path-effect
       effect="spiro"
       id="path-effect4396-3-5-1"
       is_visible="true" />
    <inkscape:path-effect
       effect="spiro"
       id="path-effect4400-0-1-8"
       is_visible="true" />
    <inkscape:path-effect
       effect="spiro"
       id="path-effect4404-5-7-7"
       is_visible="true" />
    <inkscape:path-effect
       effect="spiro"
       id="path-effect4316-7"
       is_visible="true" />
    <inkscape:path-effect
       effect="spiro"
       id="path-effect4320-4"
       is_visible="true" />
    <inkscape:path-effect
       effect="spiro"
       id="path-effect4332-1"
       is_visible="true" />
    <inkscape:path-effect
       effect="spiro"
       id="path-effect4344-7"
       is_visible="true" />
    <inkscape:path-effect
       effect="spiro"
       id="path-effect4356-7"
       is_visible="true" />
    <inkscape:path-effect
       effect="spiro"
       id="path-effect4368-1"
       is_visible="true" />
    <inkscape:path-effect
       effect="spiro"
       id="path-effect4384-8"
       is_visible="true" />
    <inkscape:path-effect
       effect="spiro"
       id="path-effect4388-1"
       is_visible="true" />
    <inkscape:path-effect
       effect="spiro"
       id="path-effect4392-7"
       is_visible="true" />
    <inkscape:path-effect
       effect="spiro"
       id="path-effect4396-2"
       is_visible="true" />
    <inkscape:path-effect
       effect="spiro"
       id="path-effect4400-06"
       is_visible="true" />
    <inkscape:path-effect
       effect="spiro"
       id="path-effect4404-4"
       is_visible="true" />
    <inkscape:path-effect
       effect="spiro"
       id="path-effect4316-4-7"
       is_visible="true" />
    <inkscape:path-effect
       effect="spiro"
       id="path-effect4320-5-9"
       is_visible="true" />
    <inkscape:path-effect
       effect="spiro"
       id="path-effect4332-4-8"
       is_visible="true" />
    <inkscape:path-effect
       effect="spiro"
       id="path-effect4344-1-6"
       is_visible="true" />
    <inkscape:path-effect
       effect="spiro"
       id="path-effect4356-3-8"
       is_visible="true" />
    <inkscape:path-effect
       effect="spiro"
       id="path-effect4368-5-4"
       is_visible="true" />
    <inkscape:path-effect
       effect="spiro"
       id="path-effect4384-7-9"
       is_visible="true" />
    <inkscape:path-effect
       effect="spiro"
       id="path-effect4388-4-6"
       is_visible="true" />
    <inkscape:path-effect
       effect="spiro"
       id="path-effect4392-5-4"
       is_visible="true" />
    <inkscape:path-effect
       effect="spiro"
       id="path-effect4396-3-0"
       is_visible="true" />
    <inkscape:path-effect
       effect="spiro"
       id="path-effect4400-0-4"
       is_visible="true" />
    <inkscape:path-effect
       effect="spiro"
       id="path-effect4404-5-5"
       is_visible="true" />
    <inkscape:path-effect
       effect="spiro"
       id="path-effect4316-4-6-5"
       is_visible="true" />
    <inkscape:path-effect
       effect="spiro"
       id="path-effect4320-5-8-2"
       is_visible="true" />
    <inkscape:path-effect
       effect="spiro"
       id="path-effect4332-4-0-4"
       is_visible="true" />
    <inkscape:path-effect
       effect="spiro"
       id="path-effect4344-1-9-6"
       is_visible="true" />
    <inkscape:path-effect
       effect="spiro"
       id="path-effect4356-3-1-1"
       is_visible="true" />
    <inkscape:path-effect
       effect="spiro"
       id="path-effect4368-5-8-3"
       is_visible="true" />
    <inkscape:path-effect
       effect="spiro"
       id="path-effect4384-7-4-5"
       is_visible="true" />
    <inkscape:path-effect
       effect="spiro"
       id="path-effect4388-4-8-1"
       is_visible="true" />
    <inkscape:path-effect
       effect="spiro"
       id="path-effect4392-5-2-1"
       is_visible="true" />
    <inkscape:path-effect
       effect="spiro"
       id="path-effect4396-3-5-4"
       is_visible="true" />
    <inkscape:path-effect
       effect="spiro"
       id="path-effect4400-0-1-5"
       is_visible="true" />
    <inkscape:path-effect
       effect="spiro"
       id="path-effect4404-5-7-0"
       is_visible="true" />
    <inkscape:path-effect
       effect="spiro"
       id="path-effect4316-4-6-2"
       is_visible="true" />
    <inkscape:path-effect
       effect="spiro"
       id="path-effect4320-5-8-5"
       is_visible="true" />
    <inkscape:path-effect
       effect="spiro"
       id="path-effect4332-4-0-7"
       is_visible="true" />
    <inkscape:path-effect
       effect="spiro"
       id="path-effect4344-1-9-1"
       is_visible="true" />
    <inkscape:path-effect
       effect="spiro"
       id="path-effect4356-3-1-0"
       is_visible="true" />
    <inkscape:path-effect
       effect="spiro"
       id="path-effect4368-5-8-1"
       is_visible="true" />
    <inkscape:path-effect
       effect="spiro"
       id="path-effect4384-7-4-8"
       is_visible="true" />
    <inkscape:path-effect
       effect="spiro"
       id="path-effect4388-4-8-8"
       is_visible="true" />
    <inkscape:path-effect
       effect="spiro"
       id="path-effect4392-5-2-2"
       is_visible="true" />
    <inkscape:path-effect
       effect="spiro"
       id="path-effect4396-3-5-14"
       is_visible="true" />
    <inkscape:path-effect
       effect="spiro"
       id="path-effect4400-0-1-53"
       is_visible="true" />
    <inkscape:path-effect
       effect="spiro"
       id="path-effect4404-5-7-03"
       is_visible="true" />
    <inkscape:path-effect
       effect="spiro"
       id="path-effect4316-4-6-9-3"
       is_visible="true" />
    <inkscape:path-effect
       effect="spiro"
       id="path-effect4320-5-8-3-8"
       is_visible="true" />
    <inkscape:path-effect
       effect="spiro"
       id="path-effect4332-4-0-5-4"
       is_visible="true" />
    <inkscape:path-effect
       effect="spiro"
       id="path-effect4344-1-9-3-6"
       is_visible="true" />
    <inkscape:path-effect
       effect="spiro"
       id="path-effect4356-3-1-7-1"
       is_visible="true" />
    <inkscape:path-effect
       effect="spiro"
       id="path-effect4368-5-8-9-6"
       is_visible="true" />
    <inkscape:path-effect
       effect="spiro"
       id="path-effect4384-7-4-0-4"
       is_visible="true" />
    <inkscape:path-effect
       effect="spiro"
       id="path-effect4388-4-8-7-9"
       is_visible="true" />
    <inkscape:path-effect
       effect="spiro"
       id="path-effect4392-5-2-9-0"
       is_visible="true" />
    <inkscape:path-effect
       effect="spiro"
       id="path-effect4396-3-5-1-6"
       is_visible="true" />
    <inkscape:path-effect
       effect="spiro"
       id="path-effect4400-0-1-8-3"
       is_visible="true" />
    <inkscape:path-effect
       effect="spiro"
       id="path-effect4404-5-7-7-8"
       is_visible="true" />
    <inkscape:path-effect
       effect="spiro"
       id="path-effect4316-7-0"
       is_visible="true" />
    <inkscape:path-effect
       effect="spiro"
       id="path-effect4320-4-7"
       is_visible="true" />
    <inkscape:path-effect
       effect="spiro"
       id="path-effect4332-1-1"
       is_visible="true" />
    <inkscape:path-effect
       effect="spiro"
       id="path-effect4344-7-3"
       is_visible="true" />
    <inkscape:path-effect
       effect="spiro"
       id="path-effect4356-7-8"
       is_visible="true" />
    <inkscape:path-effect
       effect="spiro"
       id="path-effect4368-1-6"
       is_visible="true" />
    <inkscape:path-effect
       effect="spiro"
       id="path-effect4384-8-8"
       is_visible="true" />
    <inkscape:path-effect
       effect="spiro"
       id="path-effect4388-1-7"
       is_visible="true" />
    <inkscape:path-effect
       effect="spiro"
       id="path-effect4392-7-2"
       is_visible="true" />
    <inkscape:path-effect
       effect="spiro"
       id="path-effect4396-2-4"
       is_visible="true" />
    <inkscape:path-effect
       effect="spiro"
       id="path-effect4400-06-8"
       is_visible="true" />
    <inkscape:path-effect
       effect="spiro"
       id="path-effect4404-4-0"
       is_visible="true" />
    <inkscape:path-effect
       effect="spiro"
       id="path-effect4585-2"
       is_visible="true" />
  </defs>
  <sodipodi:namedview
     id="base"
     pagecolor="#ffffff"
     bordercolor="#666666"
     borderopacity="1.0"
     inkscape:pageopacity="0.0"
     inkscape:pageshadow="2"
     inkscape:zoom="0.35355339"
     inkscape:cx="512.14858"
     inkscape:cy="447.82671"
     inkscape:document-units="px"
     inkscape:current-layer="layer1"
     showgrid="false"
     units="px"
     inkscape:window-width="1920"
     inkscape:window-height="1016"
     inkscape:window-x="1920"
     inkscape:window-y="27"
     inkscape:window-maximized="1" />
  <metadata
     id="metadata7">
    <rdf:RDF>
      <cc:Work
         rdf:about="">
        <dc:format>image/svg+xml</dc:format>
        <dc:type
           rdf:resource="http://purl.org/dc/dcmitype/StillImage" />
        <dc:title></dc:title>
      </cc:Work>
    </rdf:RDF>
  </metadata>
  <g
     inkscape:label="Layer 1"
     inkscape:groupmode="layer"
     id="layer1"
     transform="translate(0,27.637839)">
    <g
       id="g4744">
      <path
         sodipodi:nodetypes="cc"
         inkscape:connector-curvature="0"
         inkscape:original-d="m 940.1272,433.83115 c -262.13459,413.15239 -131.06729,206.57619 0,0 z"
         inkscape:path-effect="#path-effect9802-8"
         id="path9800-2"
         d="m 940.1272,433.83115 0,0 z"
         style="fill:none;fill-rule:evenodd;stroke:#000000;stroke-width:1px;stroke-linecap:butt;stroke-linejoin:miter;stroke-opacity:1" />
      <rect
         inkscape:transform-center-y="142.68405"
         inkscape:transform-center-x="45.204326"
         transform="matrix(0.96184119,0.27360834,-0.29587192,0.95522762,0,0)"
         ry="8.4366779"
         rx="8.7429991"
         y="462.71899"
         x="1116.2123"
         height="316.37543"
         width="17.485998"
         id="rect8093-6"
         style="fill:#000000;fill-opacity:1;stroke-width:15;stroke-miterlimit:4;stroke-dasharray:none;stroke-dashoffset:0" />
      <rect
         inkscape:transform-center-y="141.42857"
         inkscape:transform-center-x="-45"
         transform="matrix(-0.96291845,0.26979262,0.29998851,0.95394281,0,0)"
         ry="8.4198685"
         rx="8.8370838"
         y="977.72772"
         x="-683.01428"
         height="315.74506"
         width="17.674168"
         id="rect8093-7-29"
         style="fill:#000000;fill-opacity:1;stroke-width:15;stroke-miterlimit:4;stroke-dasharray:none;stroke-dashoffset:0" />
      <rect
         transform="matrix(-0.9999996,-8.9412964e-4,-7.7483979e-4,0.9999997,0,0)"
         ry="8.4686632"
         rx="7.8835268"
         y="441.71585"
         x="-952.03149"
         height="317.57486"
         width="15.767054"
         id="rect8093-7-2-5"
         style="fill:#000000;fill-opacity:1;stroke-width:15;stroke-miterlimit:4;stroke-dasharray:none;stroke-dashoffset:0" />
      <rect
         inkscape:transform-center-y="-45.960038"
         inkscape:transform-center-x="-142.14287"
         transform="matrix(0.27618591,0.96110423,0.95606836,-0.29314382,0,0)"
         ry="8.4292593"
         rx="8.6614027"
         y="757.25012"
         x="753.28876"
         height="316.09723"
         width="17.322805"
         id="rect8093-2-2-5"
         style="fill:#000000;fill-opacity:1;stroke-width:15;stroke-miterlimit:4;stroke-dasharray:none;stroke-dashoffset:0" />
      <rect
         inkscape:transform-center-y="-42.568801"
         inkscape:transform-center-x="142.50004"
         transform="matrix(-0.27532156,0.96135219,-0.95578881,-0.29405399,0,0)"
         ry="8.4317245"
         rx="8.6885948"
         y="-1054.2219"
         x="203.01704"
         height="316.18967"
         width="17.37719"
         id="rect8093-2-7"
         style="fill:#000000;fill-opacity:1;stroke-width:15;stroke-miterlimit:4;stroke-dasharray:none;stroke-dashoffset:0" />
      <ellipse
         ry="116.70027"
         rx="116.70026"
         cy="324.17395"
         cx="943.18561"
         id="path8125-4"
         style="opacity:1;fill:#ffffff;fill-opacity:1;fill-rule:evenodd;stroke:#000000;stroke-width:16.59946251;stroke-miterlimit:4;stroke-dasharray:none;stroke-dashoffset:0;stroke-opacity:1" />
      <circle
         r="14.495741"
         cy="294.5426"
         cx="886.16766"
         id="path9777-96"
         style="opacity:1;fill:#000000;fill-opacity:1;fill-rule:evenodd;stroke:#000000;stroke-width:11.00851727;stroke-miterlimit:4;stroke-dasharray:none;stroke-dashoffset:0;stroke-opacity:1" />
      <circle
         r="14.495741"
         cy="294.5426"
         cx="1001.1677"
         id="path9777-9-9"
         style="opacity:1;fill:#000000;fill-opacity:1;fill-rule:evenodd;stroke:#000000;stroke-width:11.00851727;stroke-miterlimit:4;stroke-dasharray:none;stroke-dashoffset:0;stroke-opacity:1" />
      <path
         sodipodi:nodetypes="cscc"
         inkscape:connector-curvature="0"
         id="path9814"
         d="m 890.71678,364.18612 c 0,0 19.99609,31.17049 53.22901,30.9512 38.13419,-0.25163 52.96418,-30.9512 52.96418,-30.9512 z"
         style="fill:none;fill-rule:evenodd;stroke:#000000;stroke-width:5.11099482;stroke-linecap:butt;stroke-linejoin:round;stroke-miterlimit:4;stroke-dasharray:none;stroke-dashoffset:0;stroke-opacity:1" />
      <path
         sodipodi:nodetypes="ccccccccccc"
         inkscape:connector-curvature="0"
         inkscape:original-d="m 839.54189,1007.2312 207.01651,-0.495 -5.4655,-291.43398 13.132,-229.30463 -12.8794,-26.01143 -79.58015,30.44771 -39.39595,0 -80.27649,-29.18502 -11.8916,33.80115 19.64721,225.75113 z"
         inkscape:path-effect="#path-effect4644-8"
         id="path4642-1"
         d="m 839.54189,1007.2312 207.01651,-0.495 -5.4655,-291.43398 13.132,-229.30463 -12.8794,-26.01143 -79.58015,30.44771 -39.39595,0 -80.27649,-29.18502 -11.8916,33.80115 19.64721,225.75113 -10.30663,286.43007 z"
         style="fill:#ffffff;fill-opacity:1;fill-rule:evenodd;stroke:#000000;stroke-width:1px;stroke-linecap:butt;stroke-linejoin:miter;stroke-opacity:1" />
      <path
         sodipodi:nodetypes="cc"
         inkscape:connector-curvature="0"
         inkscape:original-d="M 968.8702,487.74846 840.62841,615.34772"
         inkscape:path-effect="#path-effect4652-2"
         id="path4650-1"
         d="M 968.8702,487.74846 840.62841,615.34772"
         style="fill:none;fill-rule:evenodd;stroke:#000000;stroke-width:0.99356294px;stroke-linecap:butt;stroke-linejoin:miter;stroke-opacity:1" />
      <g
         id="g4590">
        <path
           id="path4658-4-5-0"
           style="fill:#6e00ad;fill-opacity:1;fill-rule:evenodd;stroke:#6e00ad;stroke-width:1;stroke-linecap:butt;stroke-linejoin:miter;stroke-miterlimit:4;stroke-dasharray:none;stroke-opacity:1"
           d="m 1046.948,596.70488 c 0,0 -7.7118,61.22032 -54.7373,122.23769 -47.02553,61.01737 -142.37047,28.68352 -142.37047,28.68352 l 0.45931,-12.09263 c 0,0 96.11437,32.78817 143.1399,-28.2292 47.02546,-61.01737 54.09956,-122.0066 54.09956,-122.0066 z"
           inkscape:connector-curvature="0"
           sodipodi:nodetypes="csccscc" />
        <path
           style="fill:#6e00ad;fill-opacity:1;fill-rule:evenodd;stroke:#000000;stroke-width:0;stroke-linecap:butt;stroke-linejoin:miter;stroke-miterlimit:4;stroke-dasharray:none;stroke-opacity:1"
           d="m 1047.0357,585.26013 1.121,-1.95095 -0.1188,2.09583 -1.0022,-0.14488 z"
           id="path4583"
           inkscape:original-d="m 1047.0357,585.26013 1.121,-1.95095 -0.1188,2.09583 z"
           inkscape:connector-curvature="0"
           sodipodi:nodetypes="cccc"
           inkscape:path-effect="#path-effect4585" />
      </g>
    </g>
    <g
       id="g4679">
      <path
         sodipodi:nodetypes="cc"
         inkscape:connector-curvature="0"
         inkscape:original-d="m 297.27006,433.83115 c -262.134592,413.15239 -131.06729,206.57619 0,0 z"
         inkscape:path-effect="#path-effect9802"
         id="path9800"
         d="m 297.27006,433.83115 0,0 z"
         style="fill:none;fill-rule:evenodd;stroke:#000000;stroke-width:1px;stroke-linecap:butt;stroke-linejoin:miter;stroke-opacity:1" />
      <rect
         inkscape:transform-center-y="142.68405"
         inkscape:transform-center-x="45.204326"
         transform="matrix(0.96184119,0.27360834,-0.29587192,0.95522762,0,0)"
         ry="8.4366779"
         rx="8.7429991"
         y="638.65753"
         x="501.97171"
         height="316.37543"
         width="17.485998"
         id="rect8093"
         style="fill:#000000;fill-opacity:1;stroke-width:15;stroke-miterlimit:4;stroke-dasharray:none;stroke-dashoffset:0" />
      <rect
         inkscape:transform-center-y="141.42857"
         inkscape:transform-center-x="-45"
         transform="matrix(-0.96291845,0.26979262,0.29998851,0.95394281,0,0)"
         ry="8.4198685"
         rx="8.8370838"
         y="804.20349"
         x="-69.460899"
         height="315.74506"
         width="17.674168"
         id="rect8093-7"
         style="fill:#000000;fill-opacity:1;stroke-width:15;stroke-miterlimit:4;stroke-dasharray:none;stroke-dashoffset:0" />
      <rect
         transform="matrix(-0.9999996,-8.9412964e-4,-7.7483979e-4,0.9999997,0,0)"
         ry="8.4686632"
         rx="7.8835268"
         y="442.29065"
         x="-309.17453"
         height="317.57486"
         width="15.767054"
         id="rect8093-7-2"
         style="fill:#000000;fill-opacity:1;stroke-width:15;stroke-miterlimit:4;stroke-dasharray:none;stroke-dashoffset:0" />
      <rect
         inkscape:transform-center-y="-45.960038"
         inkscape:transform-center-x="-142.14287"
         transform="matrix(0.27618591,0.96110423,0.95606836,-0.29314382,0,0)"
         ry="8.4292593"
         rx="8.6614027"
         y="139.30069"
         x="564.80963"
         height="316.09723"
         width="17.322805"
         id="rect8093-2-2"
         style="fill:#000000;fill-opacity:1;stroke-width:15;stroke-miterlimit:4;stroke-dasharray:none;stroke-dashoffset:0" />
      <rect
         inkscape:transform-center-y="-42.568801"
         inkscape:transform-center-x="142.50004"
         transform="matrix(-0.27532156,0.96135219,-0.95578881,-0.29405399,0,0)"
         ry="8.4317245"
         rx="8.6885948"
         y="-436.09174"
         x="392.08783"
         height="316.18967"
         width="17.37719"
         id="rect8093-2"
         style="fill:#000000;fill-opacity:1;stroke-width:15;stroke-miterlimit:4;stroke-dasharray:none;stroke-dashoffset:0" />
      <ellipse
         ry="116.70027"
         rx="116.70026"
         cy="324.17395"
         cx="300.32849"
         id="path8125"
         style="opacity:1;fill:#ffffff;fill-opacity:1;fill-rule:evenodd;stroke:#000000;stroke-width:16.59946251;stroke-miterlimit:4;stroke-dasharray:none;stroke-dashoffset:0;stroke-opacity:1" />
      <circle
         r="14.495741"
         cy="294.5426"
         cx="243.31055"
         id="path9777"
         style="opacity:1;fill:#000000;fill-opacity:1;fill-rule:evenodd;stroke:#000000;stroke-width:11.00851727;stroke-miterlimit:4;stroke-dasharray:none;stroke-dashoffset:0;stroke-opacity:1" />
      <circle
         r="14.495741"
         cy="294.5426"
         cx="358.31055"
         id="path9777-9"
         style="opacity:1;fill:#000000;fill-opacity:1;fill-rule:evenodd;stroke:#000000;stroke-width:11.00851727;stroke-miterlimit:4;stroke-dasharray:none;stroke-dashoffset:0;stroke-opacity:1" />
      <path
         sodipodi:nodetypes="ccccccccccc"
         inkscape:connector-curvature="0"
         inkscape:original-d="m 196.68475,1007.2312 207.01652,-0.495 -5.46549,-291.43398 13.132,-229.30463 -12.87942,-26.01143 -79.58015,30.44771 -39.39595,0 -80.27649,-29.18502 -11.8916,33.80115 19.64721,225.75113 z"
         inkscape:path-effect="#path-effect4644"
         id="path4642"
         d="m 196.68475,1007.2312 207.01652,-0.495 -5.46549,-291.43398 13.132,-229.30463 -12.87942,-26.01143 -79.58015,30.44771 -39.39595,0 -80.27649,-29.18502 -11.8916,33.80115 19.64721,225.75113 -10.30663,286.43007 z"
         style="fill:#ffffff;fill-opacity:1;fill-rule:evenodd;stroke:#000000;stroke-width:1px;stroke-linecap:butt;stroke-linejoin:miter;stroke-opacity:1" />
      <path
         sodipodi:nodetypes="cc"
         inkscape:connector-curvature="0"
         inkscape:original-d="M 326.01306,487.74846 197.77127,615.34772"
         inkscape:path-effect="#path-effect4652"
         id="path4650"
         d="M 326.01306,487.74846 197.77127,615.34772"
         style="fill:none;fill-rule:evenodd;stroke:#000000;stroke-width:0.99356294px;stroke-linecap:butt;stroke-linejoin:miter;stroke-opacity:1" />
      <path
         inkscape:connector-curvature="0"
         d="m 296.60589,203.28657 0,-7.76968 -37.83496,5.06718 -37.71944,21.18373 -30.51861,32.86621 -18.24186,44.92902"
         id="path4322"
         inkscape:original-d="m 296.60589,203.28657 c 0,-2.58989 0,-5.17979 0,-7.76968 -12.61165,1.68906 -25.22331,3.37812 -37.83496,5.06718 -12.55206,7.08808 -25.27226,13.96214 -37.71944,21.18373 -10.17287,10.95541 -20.34574,21.91081 -30.51861,32.86621 -6.08062,14.97634 -12.16124,29.95268 -18.24186,44.92902"
         inkscape:path-effect="#path-effect4324"
         style="fill:none;fill-rule:evenodd;stroke:#000000;stroke-width:1px;stroke-linecap:butt;stroke-linejoin:miter;stroke-opacity:1" />
      <path
         inkscape:connector-curvature="0"
         d="m 301.77524,206.82393 0.32891,-7.76271 -38.01555,3.46094 -38.58241,19.56794 -31.8826,31.54479 -20.12751,44.1165"
         id="path4322-0"
         inkscape:original-d="m 301.77524,206.82393 c 0.10963,-2.58757 0.21927,-5.17515 0.32891,-7.76271 -12.67184,1.15364 -25.3437,2.30729 -38.01555,3.46094 -12.84087,6.55035 -25.84067,12.87976 -38.58241,19.56794 -10.62753,10.51494 -21.25506,21.02986 -31.8826,31.54479 -6.70917,14.7055 -13.41834,29.411 -20.12751,44.1165"
         inkscape:path-effect="#path-effect4324-0"
         style="display:inline;fill:none;fill-rule:evenodd;stroke:#000000;stroke-width:1px;stroke-linecap:butt;stroke-linejoin:miter;stroke-opacity:1" />
      <path
         inkscape:connector-curvature="0"
         d="m 291.4555,204.62319 -0.41133,-7.75878 -37.51365,7.06303 -36.54509,23.15088 -28.73589,34.43577 -15.83776,45.83173"
         id="path4322-0-0"
         inkscape:original-d="m 291.4555,204.62319 c -0.13712,-2.58626 -0.27423,-5.17253 -0.41133,-7.75878 -12.50454,2.35433 -25.0091,4.70868 -37.51365,7.06303 -12.15922,7.74264 -24.49767,15.28047 -36.54509,23.15088 -9.57863,11.4786 -19.15726,22.95718 -28.73589,34.43577 -5.27926,15.27724 -10.55851,30.55449 -15.83776,45.83173"
         inkscape:path-effect="#path-effect4324-0-5"
         style="display:inline;fill:none;fill-rule:evenodd;stroke:#000000;stroke-width:1px;stroke-linecap:butt;stroke-linejoin:miter;stroke-opacity:1" />
      <path
         inkscape:connector-curvature="0"
         d="m 304.08712,202.39119 0,-7.76968 37.83496,5.06718 37.71944,21.18373 30.51861,32.86621 18.24186,44.92902"
         id="path4322-07"
         inkscape:original-d="m 304.08712,202.39119 c 0,-2.58989 0,-5.17979 0,-7.76968 12.61165,1.68906 25.22331,3.37812 37.83496,5.06718 12.55206,7.08808 25.27226,13.96214 37.71944,21.18373 10.17287,10.95541 20.34574,21.91081 30.51861,32.86621 6.08062,14.97634 12.16124,29.95268 18.24186,44.92902"
         inkscape:path-effect="#path-effect4324-8"
         style="display:inline;fill:none;fill-rule:evenodd;stroke:#000000;stroke-width:1px;stroke-linecap:butt;stroke-linejoin:miter;stroke-opacity:1" />
      <path
         inkscape:connector-curvature="0"
         d="m 298.91777,205.92855 -0.32891,-7.76271 38.01555,3.46094 38.58241,19.56794 31.8826,31.54479 20.12751,44.1165"
         id="path4322-0-4"
         inkscape:original-d="m 298.91777,205.92855 c -0.10963,-2.58757 -0.21927,-5.17515 -0.32891,-7.76271 12.67184,1.15364 25.3437,2.30729 38.01555,3.46094 12.84087,6.55035 25.84067,12.87976 38.58241,19.56794 10.62753,10.51494 21.25506,21.02986 31.8826,31.54479 6.70917,14.7055 13.41834,29.411 20.12751,44.1165"
         inkscape:path-effect="#path-effect4324-0-6"
         style="display:inline;fill:none;fill-rule:evenodd;stroke:#000000;stroke-width:1px;stroke-linecap:butt;stroke-linejoin:miter;stroke-opacity:1" />
      <path
         inkscape:connector-curvature="0"
         d="m 309.23751,203.72781 0.41133,-7.75878 37.51365,7.06303 36.54509,23.15088 28.73589,34.43577 15.83776,45.83173"
         id="path4322-0-0-3"
         inkscape:original-d="m 309.23751,203.72781 c 0.13712,-2.58626 0.27423,-5.17253 0.41133,-7.75878 12.50454,2.35433 25.0091,4.70868 37.51365,7.06303 12.15922,7.74264 24.49767,15.28047 36.54509,23.15088 9.57863,11.4786 19.15726,22.95718 28.73589,34.43577 5.27926,15.27724 10.55851,30.55449 15.83776,45.83173"
         inkscape:path-effect="#path-effect4324-0-5-6"
         style="display:inline;fill:none;fill-rule:evenodd;stroke:#000000;stroke-width:1px;stroke-linecap:butt;stroke-linejoin:miter;stroke-opacity:1" />
      <path
         inkscape:connector-curvature="0"
         d="m 306.4625,202.18226 0,-7.76968 -37.83496,5.06718 -37.71944,21.18373 -30.51861,32.86621 -18.24186,44.92902"
         id="path4322-1"
         inkscape:original-d="m 306.4625,202.18226 c 0,-2.58989 0,-5.17979 0,-7.76968 -12.61165,1.68906 -25.22331,3.37812 -37.83496,5.06718 -12.55206,7.08808 -25.27226,13.96214 -37.71944,21.18373 -10.17287,10.95541 -20.34574,21.91081 -30.51861,32.86621 -6.08062,14.97634 -12.16124,29.95268 -18.24186,44.92902"
         inkscape:path-effect="#path-effect4324-1"
         style="display:inline;fill:none;fill-rule:evenodd;stroke:#000000;stroke-width:1px;stroke-linecap:butt;stroke-linejoin:miter;stroke-opacity:1" />
      <path
         inkscape:connector-curvature="0"
         d="m 311.63185,205.71962 0.32891,-7.76271 -38.01555,3.46094 -38.58241,19.56794 -31.8826,31.54479 -20.12751,44.1165"
         id="path4322-0-1"
         inkscape:original-d="m 311.63185,205.71962 c 0.10963,-2.58757 0.21927,-5.17515 0.32891,-7.76271 -12.67184,1.15364 -25.3437,2.30729 -38.01555,3.46094 -12.84087,6.55035 -25.84067,12.87976 -38.58241,19.56794 -10.62753,10.51494 -21.25506,21.02986 -31.8826,31.54479 -6.70917,14.7055 -13.41834,29.411 -20.12751,44.1165"
         inkscape:path-effect="#path-effect4324-0-7"
         style="display:inline;fill:none;fill-rule:evenodd;stroke:#000000;stroke-width:1px;stroke-linecap:butt;stroke-linejoin:miter;stroke-opacity:1" />
      <path
         inkscape:connector-curvature="0"
         d="m 301.31211,203.51888 -0.41133,-7.75878 -37.51365,7.06303 -36.54509,23.15088 -28.73589,34.43577 -15.83776,45.83173"
         id="path4322-0-0-2"
         inkscape:original-d="m 301.31211,203.51888 c -0.13712,-2.58626 -0.27423,-5.17253 -0.41133,-7.75878 -12.50454,2.35433 -25.0091,4.70868 -37.51365,7.06303 -12.15922,7.74264 -24.49767,15.28047 -36.54509,23.15088 -9.57863,11.4786 -19.15726,22.95718 -28.73589,34.43577 -5.27926,15.27724 -10.55851,30.55449 -15.83776,45.83173"
         inkscape:path-effect="#path-effect4324-0-5-0"
         style="display:inline;fill:none;fill-rule:evenodd;stroke:#000000;stroke-width:1px;stroke-linecap:butt;stroke-linejoin:miter;stroke-opacity:1" />
      <path
         inkscape:connector-curvature="0"
         d="m 296.82015,202.96531 0,-7.76968 37.83496,5.06718 37.71944,21.18373 30.51861,32.86621 18.24186,44.92902"
         id="path4322-07-7"
         inkscape:original-d="m 296.82015,202.96531 c 0,-2.58989 0,-5.17979 0,-7.76968 12.61165,1.68906 25.22331,3.37812 37.83496,5.06718 12.55206,7.08808 25.27226,13.96214 37.71944,21.18373 10.17287,10.95541 20.34574,21.91081 30.51861,32.86621 6.08062,14.97634 12.16124,29.95268 18.24186,44.92902"
         inkscape:path-effect="#path-effect4324-8-2"
         style="display:inline;fill:none;fill-rule:evenodd;stroke:#000000;stroke-width:1px;stroke-linecap:butt;stroke-linejoin:miter;stroke-opacity:1" />
      <path
         inkscape:connector-curvature="0"
         d="m 291.81971,204.6447 -0.32891,-7.76271 38.01555,3.46094 38.58241,19.56794 31.8826,31.54479 20.12751,44.1165"
         id="path4322-0-4-3"
         inkscape:original-d="m 291.81971,204.6447 c -0.10963,-2.58757 -0.21927,-5.17515 -0.32891,-7.76271 12.67184,1.15364 25.3437,2.30729 38.01555,3.46094 12.84087,6.55035 25.84067,12.87976 38.58241,19.56794 10.62753,10.51494 21.25506,21.02986 31.8826,31.54479 6.70917,14.7055 13.41834,29.411 20.12751,44.1165"
         inkscape:path-effect="#path-effect4324-0-6-0"
         style="display:inline;fill:none;fill-rule:evenodd;stroke:#000000;stroke-width:1px;stroke-linecap:butt;stroke-linejoin:miter;stroke-opacity:1" />
      <path
         inkscape:connector-curvature="0"
         d="m 302.13945,202.44396 0.41133,-7.75878 37.51365,7.06303 36.54509,23.15088 28.73589,34.43577 15.83776,45.83173"
         id="path4322-0-0-3-6"
         inkscape:original-d="m 302.13945,202.44396 c 0.13712,-2.58626 0.27423,-5.17253 0.41133,-7.75878 12.50454,2.35433 25.0091,4.70868 37.51365,7.06303 12.15922,7.74264 24.49767,15.28047 36.54509,23.15088 9.57863,11.4786 19.15726,22.95718 28.73589,34.43577 5.27926,15.27724 10.55851,30.55449 15.83776,45.83173"
         inkscape:path-effect="#path-effect4324-0-5-6-0"
         style="display:inline;fill:none;fill-rule:evenodd;stroke:#000000;stroke-width:1px;stroke-linecap:butt;stroke-linejoin:miter;stroke-opacity:1" />
      <path
         inkscape:connector-curvature="0"
         d="m 296.50291,207.79241 0,-8.49173 -41.35102,5.53808 -41.22478,23.15237 -33.35475,35.92052 -19.93711,49.10435"
         id="path4322-7"
         inkscape:original-d="m 296.50291,207.79241 c 0,-2.83057 0,-5.66116 0,-8.49173 -13.78367,1.84603 -27.56735,3.69205 -41.35102,5.53808 -13.71855,7.74679 -27.62086,15.25967 -41.22478,23.15237 -11.11825,11.97351 -22.2365,23.94702 -33.35475,35.92052 -6.6457,16.36812 -13.29141,32.73623 -19.93711,49.10435"
         inkscape:path-effect="#path-effect4324-04"
         style="display:inline;fill:none;fill-rule:evenodd;stroke:#000000;stroke-width:1.09293163px;stroke-linecap:butt;stroke-linejoin:miter;stroke-opacity:1" />
      <path
         inkscape:connector-curvature="0"
         d="m 302.15266,211.6585 0.35947,-8.48411 -41.54839,3.78257 -42.16794,21.38642 -34.84551,34.4763 -21.99799,48.21632"
         id="path4322-0-2"
         inkscape:original-d="m 302.15266,211.6585 c 0.11982,-2.82804 0.23964,-5.65608 0.35947,-8.48411 -13.84945,1.26085 -27.69893,2.52171 -41.54839,3.78257 -14.0342,7.15909 -28.24209,14.0767 -42.16794,21.38642 -11.61517,11.49211 -23.23033,22.9842 -34.84551,34.4763 -7.33266,16.07211 -14.66532,32.14422 -21.99799,48.21632"
         inkscape:path-effect="#path-effect4324-0-66"
         style="display:inline;fill:none;fill-rule:evenodd;stroke:#000000;stroke-width:1.09293163px;stroke-linecap:butt;stroke-linejoin:miter;stroke-opacity:1" />
      <path
         inkscape:connector-curvature="0"
         d="m 290.87389,209.25324 -0.44956,-8.47981 -40.99985,7.71941 -39.94129,25.30233 -31.40637,37.63594 -17.30959,50.09095"
         id="path4322-0-0-21"
         inkscape:original-d="m 290.87389,209.25324 c -0.14987,-2.8266 -0.29972,-5.65322 -0.44956,-8.47981 -13.66661,2.57312 -27.33324,5.14626 -40.99985,7.71941 -13.2892,8.46217 -26.77428,16.70051 -39.94129,25.30233 -10.46879,12.54532 -20.93758,25.09062 -31.40637,37.63594 -5.76987,16.69698 -11.53973,33.39397 -17.30959,50.09095"
         inkscape:path-effect="#path-effect4324-0-5-1"
         style="display:inline;fill:none;fill-rule:evenodd;stroke:#000000;stroke-width:1.09293163px;stroke-linecap:butt;stroke-linejoin:miter;stroke-opacity:1" />
      <path
         inkscape:connector-curvature="0"
         d="m 304.67938,206.81382 0,-8.49173 41.35103,5.53808 41.22477,23.15237 33.35476,35.92052 19.9371,49.10435"
         id="path4322-07-5"
         inkscape:original-d="m 304.67938,206.81382 c 0,-2.83057 0,-5.66116 0,-8.49173 13.78368,1.84603 27.56736,3.69205 41.35103,5.53808 13.71854,7.74679 27.62085,15.25967 41.22477,23.15237 11.11825,11.97352 22.2365,23.94702 33.35476,35.92052 6.6457,16.36812 13.2914,32.73624 19.9371,49.10435"
         inkscape:path-effect="#path-effect4324-8-6"
         style="display:inline;fill:none;fill-rule:evenodd;stroke:#000000;stroke-width:1.09293163px;stroke-linecap:butt;stroke-linejoin:miter;stroke-opacity:1" />
      <path
         inkscape:connector-curvature="0"
         d="m 299.02964,210.67991 -0.35948,-8.48411 41.5484,3.78257 42.16794,21.38642 34.8455,34.4763 21.998,48.21632"
         id="path4322-0-4-9"
         inkscape:original-d="m 299.02964,210.67991 c -0.11982,-2.82804 -0.23965,-5.65608 -0.35948,-8.48411 13.84946,1.26085 27.69893,2.52171 41.5484,3.78257 14.03419,7.15909 28.24209,14.0767 42.16794,21.38642 11.61516,11.49211 23.23033,22.9842 34.8455,34.4763 7.33267,16.07211 14.66533,32.14422 21.998,48.21632"
         inkscape:path-effect="#path-effect4324-0-6-1"
         style="display:inline;fill:none;fill-rule:evenodd;stroke:#000000;stroke-width:1.09293163px;stroke-linecap:butt;stroke-linejoin:miter;stroke-opacity:1" />
      <path
         inkscape:connector-curvature="0"
         d="m 310.30841,208.27465 0.44955,-8.47981 40.99986,7.71941 39.94129,25.30233 31.40636,37.63594 17.30959,50.09095"
         id="path4322-0-0-3-3"
         inkscape:original-d="m 310.30841,208.27465 c 0.14986,-2.8266 0.29971,-5.65322 0.44955,-8.47981 13.66661,2.57312 27.33324,5.14626 40.99986,7.71941 13.2892,8.46217 26.77428,16.70051 39.94129,25.30233 10.46879,12.54532 20.93757,25.09063 31.40636,37.63594 5.76987,16.69698 11.53973,33.39397 17.30959,50.09095"
         inkscape:path-effect="#path-effect4324-0-5-6-1"
         style="display:inline;fill:none;fill-rule:evenodd;stroke:#000000;stroke-width:1.09293163px;stroke-linecap:butt;stroke-linejoin:miter;stroke-opacity:1" />
      <path
         inkscape:connector-curvature="0"
         d="m 307.27551,206.58547 0,-8.49173 -41.35102,5.53809 -41.22477,23.15236 -33.35476,35.92053 -19.93711,49.10435"
         id="path4322-1-9"
         inkscape:original-d="m 307.27551,206.58547 c 0,-2.83057 0,-5.66115 0,-8.49173 -13.78367,1.84603 -27.56735,3.69206 -41.35102,5.53809 -13.71855,7.74678 -27.62086,15.25966 -41.22477,23.15236 -11.11826,11.97352 -22.23651,23.94702 -33.35476,35.92053 -6.6457,16.36811 -13.2914,32.73623 -19.93711,49.10435"
         inkscape:path-effect="#path-effect4324-1-4"
         style="display:inline;fill:none;fill-rule:evenodd;stroke:#000000;stroke-width:1.09293163px;stroke-linecap:butt;stroke-linejoin:miter;stroke-opacity:1" />
      <path
         inkscape:connector-curvature="0"
         d="m 312.92526,210.45157 0.35948,-8.48412 -41.5484,3.78258 -42.16794,21.38642 -34.8455,34.4763 -21.998,48.21632"
         id="path4322-0-1-0"
         inkscape:original-d="m 312.92526,210.45157 c 0.11982,-2.82804 0.23965,-5.65609 0.35948,-8.48412 -13.84946,1.26085 -27.69894,2.52171 -41.5484,3.78258 -14.0342,7.15908 -28.24209,14.07669 -42.16794,21.38642 -11.61517,11.49211 -23.23033,22.9842 -34.8455,34.4763 -7.33267,16.0721 -14.66533,32.14421 -21.998,48.21632"
         inkscape:path-effect="#path-effect4324-0-7-0"
         style="display:inline;fill:none;fill-rule:evenodd;stroke:#000000;stroke-width:1.09293163px;stroke-linecap:butt;stroke-linejoin:miter;stroke-opacity:1" />
      <path
         inkscape:connector-curvature="0"
         d="m 301.64649,208.04631 -0.44956,-8.47982 -40.99985,7.71941 -39.94129,25.30233 -31.40636,37.63594 -17.30959,50.09095"
         id="path4322-0-0-2-7"
         inkscape:original-d="m 301.64649,208.04631 c -0.14986,-2.82661 -0.29972,-5.65322 -0.44956,-8.47982 -13.66661,2.57312 -27.33323,5.14627 -40.99985,7.71941 -13.2892,8.46218 -26.77428,16.70051 -39.94129,25.30233 -10.46879,12.54533 -20.93758,25.09063 -31.40636,37.63594 -5.76987,16.69698 -11.53973,33.39397 -17.30959,50.09095"
         inkscape:path-effect="#path-effect4324-0-5-0-0"
         style="display:inline;fill:none;fill-rule:evenodd;stroke:#000000;stroke-width:1.09293163px;stroke-linecap:butt;stroke-linejoin:miter;stroke-opacity:1" />
      <path
         inkscape:connector-curvature="0"
         d="m 296.73708,207.44129 0,-8.49173 41.35103,5.53809 41.22477,23.15236 33.35476,35.92053 19.9371,49.10435"
         id="path4322-07-7-1"
         inkscape:original-d="m 296.73708,207.44129 c 0,-2.83057 0,-5.66115 0,-8.49173 13.78367,1.84603 27.56736,3.69206 41.35103,5.53809 13.71854,7.74678 27.62085,15.25966 41.22477,23.15236 11.11825,11.97352 22.2365,23.94702 33.35476,35.92053 6.6457,16.36811 13.2914,32.73623 19.9371,49.10435"
         inkscape:path-effect="#path-effect4324-8-2-0"
         style="display:inline;fill:none;fill-rule:evenodd;stroke:#000000;stroke-width:1.09293163px;stroke-linecap:butt;stroke-linejoin:miter;stroke-opacity:1" />
      <path
         inkscape:connector-curvature="0"
         d="m 291.27194,209.27675 -0.35947,-8.48411 41.5484,3.78257 42.16793,21.38642 34.84551,34.4763 21.99799,48.21632"
         id="path4322-0-4-3-5"
         inkscape:original-d="m 291.27194,209.27675 c -0.11981,-2.82804 -0.23964,-5.65608 -0.35947,-8.48411 13.84945,1.26085 27.69893,2.52171 41.5484,3.78257 14.03419,7.15909 28.24208,14.0767 42.16793,21.38642 11.61517,11.49211 23.23033,22.9842 34.84551,34.4763 7.33266,16.07211 14.66533,32.14422 21.99799,48.21632"
         inkscape:path-effect="#path-effect4324-0-6-0-8"
         style="display:inline;fill:none;fill-rule:evenodd;stroke:#000000;stroke-width:1.09293163px;stroke-linecap:butt;stroke-linejoin:miter;stroke-opacity:1" />
      <path
         inkscape:connector-curvature="0"
         d="m 302.55071,206.87149 0.44956,-8.47981 40.99986,7.71941 39.94128,25.30233 31.40637,37.63594 17.30959,50.09095"
         id="path4322-0-0-3-6-7"
         inkscape:original-d="m 302.55071,206.87149 c 0.14987,-2.8266 0.29972,-5.65322 0.44956,-8.47981 13.66661,2.57312 27.33324,5.14626 40.99986,7.71941 13.28919,8.46217 26.77428,16.70051 39.94128,25.30233 10.46879,12.54532 20.93758,25.09063 31.40637,37.63594 5.76987,16.69698 11.53973,33.39397 17.30959,50.09095"
         inkscape:path-effect="#path-effect4324-0-5-6-0-7"
         style="display:inline;fill:none;fill-rule:evenodd;stroke:#000000;stroke-width:1.09293163px;stroke-linecap:butt;stroke-linejoin:miter;stroke-opacity:1" />
      <path
         inkscape:connector-curvature="0"
         d="m 294.12146,218.16243 0,-6.8263 -33.24112,4.45193 -33.13964,18.61165 -26.8131,28.87567 -16.02698,39.47384"
         id="path4322-7-5"
         inkscape:original-d="m 294.12146,218.16243 c 0,-2.27543 0,-4.55088 0,-6.8263 -11.08037,1.48398 -22.16075,2.96795 -33.24112,4.45193 -11.02802,6.22746 -22.20377,12.26689 -33.13964,18.61165 -8.9377,9.62522 -17.8754,19.25045 -26.8131,28.87567 -5.34233,13.15795 -10.68466,26.31589 -16.02698,39.47384"
         inkscape:path-effect="#path-effect4324-04-3"
         style="display:inline;fill:none;fill-rule:evenodd;stroke:#000000;stroke-width:0.87858224px;stroke-linecap:butt;stroke-linejoin:miter;stroke-opacity:1" />
      <path
         sodipodi:nodetypes="cccccc"
         inkscape:connector-curvature="0"
         d="m 299.1409,212.07382 -0.18877,2.37629 -33.39978,3.04072 -33.89782,17.19204 -28.0115,27.7147 -17.68367,38.75997"
         id="path4322-0-2-9"
         inkscape:original-d="m 299.1409,212.07382 c 0.0963,-2.2734 -0.2851,4.64968 -0.18877,2.37629 l -33.39978,3.04072 c -11.28177,5.75503 -22.70316,11.31593 -33.89782,17.19204 -9.33717,9.23824 -18.67432,18.47647 -28.0115,27.7147 -5.89455,12.91999 -11.7891,25.83999 -17.68367,38.75997"
         inkscape:path-effect="#path-effect4324-0-66-2"
         style="display:inline;fill:none;fill-rule:evenodd;stroke:#000000;stroke-width:0.87858224px;stroke-linecap:butt;stroke-linejoin:miter;stroke-opacity:1" />
      <path
         inkscape:connector-curvature="0"
         d="m 289.59642,219.33676 -0.36139,-6.81673 -32.95882,6.20546 -32.10787,20.33995 -25.24685,30.25465 -13.91478,40.26695"
         id="path4322-0-0-21-9"
         inkscape:original-d="m 289.59642,219.33676 c -0.12048,-2.27224 -0.24094,-4.5445 -0.36139,-6.81673 -10.98627,2.06848 -21.97255,4.13696 -32.95882,6.20546 -10.68288,6.80254 -21.52322,13.42515 -32.10787,20.33995 -8.41562,10.08489 -16.83123,20.16976 -25.24685,30.25465 -4.63826,13.42232 -9.27652,26.84464 -13.91478,40.26695"
         inkscape:path-effect="#path-effect4324-0-5-1-0"
         style="display:inline;fill:none;fill-rule:evenodd;stroke:#000000;stroke-width:0.87858224px;stroke-linecap:butt;stroke-linejoin:miter;stroke-opacity:1" />
      <path
         inkscape:connector-curvature="0"
         d="m 300.69433,217.37576 0,-6.8263 33.24113,4.45193 33.13963,18.61165 26.81311,28.87567 16.02697,39.47384"
         id="path4322-07-5-1"
         inkscape:original-d="m 300.69433,217.37576 c 0,-2.27543 0,-4.55087 0,-6.8263 11.08038,1.48398 22.16076,2.96795 33.24113,4.45193 11.02801,6.22747 22.20376,12.2669 33.13963,18.61165 8.9377,9.62524 17.8754,19.25045 26.81311,28.87567 5.34233,13.15795 10.68465,26.3159 16.02697,39.47384"
         inkscape:path-effect="#path-effect4324-8-6-0"
         style="display:inline;fill:none;fill-rule:evenodd;stroke:#000000;stroke-width:0.87858224px;stroke-linecap:butt;stroke-linejoin:miter;stroke-opacity:1" />
      <path
         inkscape:connector-curvature="0"
         d="m 296.15264,220.48362 -0.28898,-6.82018 33.39979,3.04072 33.89782,17.19205 28.01149,27.71469 17.68367,38.75998"
         id="path4322-0-4-9-1"
         inkscape:original-d="m 296.15264,220.48362 c -0.0963,-2.27339 -0.19265,-4.54679 -0.28898,-6.82018 11.13326,1.01357 22.26652,2.02715 33.39979,3.04072 11.28176,5.75503 22.70316,11.31594 33.89782,17.19205 9.33716,9.23824 18.67432,18.47646 28.01149,27.71469 5.89456,12.92 11.78911,25.83999 17.68367,38.75998"
         inkscape:path-effect="#path-effect4324-0-6-1-2"
         style="display:inline;fill:none;fill-rule:evenodd;stroke:#000000;stroke-width:0.87858224px;stroke-linecap:butt;stroke-linejoin:miter;stroke-opacity:1" />
      <path
         inkscape:connector-curvature="0"
         d="m 305.21938,218.55009 0.36138,-6.81672 32.95883,6.20545 32.10787,20.33996 25.24684,30.25465 13.91478,40.26694"
         id="path4322-0-0-3-3-4"
         inkscape:original-d="m 305.21938,218.55009 c 0.12047,-2.27224 0.24093,-4.54449 0.36138,-6.81672 10.98627,2.06847 21.97255,4.13696 32.95883,6.20545 10.68288,6.80254 21.52322,13.42515 32.10787,20.33996 8.41562,10.08489 16.83123,20.16977 25.24684,30.25465 4.63827,13.42231 9.27652,26.84463 13.91478,40.26694"
         inkscape:path-effect="#path-effect4324-0-5-6-1-0"
         style="display:inline;fill:none;fill-rule:evenodd;stroke:#000000;stroke-width:0.87858224px;stroke-linecap:butt;stroke-linejoin:miter;stroke-opacity:1" />
      <path
         inkscape:connector-curvature="0"
         d="m 302.7813,217.1922 0,-6.82631 -33.24112,4.45195 -33.13963,18.61164 -26.81311,28.87567 -16.02698,39.47384"
         id="path4322-1-9-8"
         inkscape:original-d="m 302.7813,217.1922 c 0,-2.27543 0,-4.55087 0,-6.82631 -11.08037,1.48399 -22.16075,2.96797 -33.24112,4.45195 -11.02802,6.22745 -22.20376,12.26688 -33.13963,18.61164 -8.93771,9.62523 -17.87541,19.25045 -26.81311,28.87567 -5.34233,13.15794 -10.68465,26.31589 -16.02698,39.47384"
         inkscape:path-effect="#path-effect4324-1-4-2"
         style="display:inline;fill:none;fill-rule:evenodd;stroke:#000000;stroke-width:0.87858224px;stroke-linecap:butt;stroke-linejoin:miter;stroke-opacity:1" />
      <path
         inkscape:connector-curvature="0"
         d="m 307.323,220.30007 0.28898,-6.82019 -33.39979,3.04073 -33.89782,17.19204 -28.01149,27.71469 -17.68367,38.75998"
         id="path4322-0-1-0-4"
         inkscape:original-d="m 307.323,220.30007 c 0.0963,-2.2734 0.19265,-4.5468 0.28898,-6.82019 -11.13326,1.01357 -22.26653,2.02714 -33.39979,3.04073 -11.28176,5.75501 -22.70316,11.31592 -33.89782,17.19204 -9.33717,9.23824 -18.67432,18.47646 -28.01149,27.71469 -5.89456,12.91999 -11.78911,25.83998 -17.68367,38.75998"
         inkscape:path-effect="#path-effect4324-0-7-0-4"
         style="display:inline;fill:none;fill-rule:evenodd;stroke:#000000;stroke-width:0.87858224px;stroke-linecap:butt;stroke-linejoin:miter;stroke-opacity:1" />
      <path
         inkscape:connector-curvature="0"
         d="m 298.25626,218.36653 -0.36139,-6.81673 -32.95882,6.20546 -32.10787,20.33995 -25.24684,30.25465 -13.91478,40.26695"
         id="path4322-0-0-2-7-6"
         inkscape:original-d="m 298.25626,218.36653 c -0.12047,-2.27224 -0.24094,-4.54449 -0.36139,-6.81673 -10.98627,2.06848 -21.97254,4.13697 -32.95882,6.20546 -10.68288,6.80255 -21.52322,13.42515 -32.10787,20.33995 -8.41562,10.0849 -16.83123,20.16977 -25.24684,30.25465 -4.63826,13.42232 -9.27652,26.84464 -13.91478,40.26695"
         inkscape:path-effect="#path-effect4324-0-5-0-0-0"
         style="display:inline;fill:none;fill-rule:evenodd;stroke:#000000;stroke-width:0.87858224px;stroke-linecap:butt;stroke-linejoin:miter;stroke-opacity:1" />
      <path
         inkscape:connector-curvature="0"
         d="m 294.3097,217.88017 0,-6.8263 33.24113,4.45194 33.13963,18.61164 26.81311,28.87568 16.02697,39.47384"
         id="path4322-07-7-1-1"
         inkscape:original-d="m 294.3097,217.88017 c 0,-2.27543 0,-4.55086 0,-6.8263 11.08037,1.48398 22.16076,2.96796 33.24113,4.45194 11.02801,6.22746 22.20376,12.26688 33.13963,18.61164 8.9377,9.62523 17.8754,19.25045 26.81311,28.87568 5.34233,13.15794 10.68465,26.31589 16.02697,39.47384"
         inkscape:path-effect="#path-effect4324-8-2-0-6"
         style="display:inline;fill:none;fill-rule:evenodd;stroke:#000000;stroke-width:0.87858224px;stroke-linecap:butt;stroke-linejoin:miter;stroke-opacity:1" />
      <path
         inkscape:connector-curvature="0"
         d="m 289.9164,219.35566 -0.28897,-6.82018 33.39979,3.04072 33.89782,17.19204 28.01149,27.71469 17.68367,38.75998"
         id="path4322-0-4-3-5-1"
         inkscape:original-d="m 289.9164,219.35566 c -0.0963,-2.2734 -0.19264,-4.5468 -0.28897,-6.82018 11.13325,1.01357 22.26653,2.02714 33.39979,3.04072 11.28176,5.75502 22.70315,11.31593 33.89782,17.19204 9.33716,9.23824 18.67432,18.47646 28.01149,27.71469 5.89455,12.92 11.78912,25.83999 17.68367,38.75998"
         inkscape:path-effect="#path-effect4324-0-6-0-8-6"
         style="display:inline;fill:none;fill-rule:evenodd;stroke:#000000;stroke-width:0.87858224px;stroke-linecap:butt;stroke-linejoin:miter;stroke-opacity:1" />
      <path
         inkscape:connector-curvature="0"
         d="m 298.98314,217.42212 0.36139,-6.81672 32.95884,6.20546 32.10786,20.33995 25.24685,30.25465 13.91477,40.26695"
         id="path4322-0-0-3-6-7-7"
         inkscape:original-d="m 298.98314,217.42212 c 0.12048,-2.27223 0.24094,-4.54449 0.36139,-6.81672 10.98627,2.06847 21.97256,4.13696 32.95884,6.20546 10.68286,6.80254 21.52321,13.42515 32.10786,20.33995 8.41561,10.08489 16.83123,20.16977 25.24685,30.25465 4.63826,13.42231 9.27652,26.84463 13.91477,40.26695"
         inkscape:path-effect="#path-effect4324-0-5-6-0-7-1"
         style="display:inline;fill:none;fill-rule:evenodd;stroke:#000000;stroke-width:0.87858224px;stroke-linecap:butt;stroke-linejoin:miter;stroke-opacity:1" />
      <path
         sodipodi:nodetypes="cccccc"
         inkscape:connector-curvature="0"
         d="m 296.26663,211.59489 0.47774,5.15072 -31.3329,4.19637 -31.23726,17.54324 -25.27389,27.21805 -15.10695,37.20784"
         id="path4322-7-5-2"
         inkscape:original-d="m 296.26663,211.59489 0.47774,5.15072 -31.3329,4.19637 c -10.39496,5.86996 -20.92916,11.5627 -31.23726,17.54324 l -25.27389,27.21805 -15.10695,37.20784"
         inkscape:path-effect="#path-effect4324-04-3-7"
         style="display:inline;fill:none;fill-rule:evenodd;stroke:#000000;stroke-width:0.82814705px;stroke-linecap:butt;stroke-linejoin:miter;stroke-opacity:1" />
      <path
         sodipodi:nodetypes="cccccc"
         inkscape:connector-curvature="0"
         d="m 302.21971,212.85225 -0.92197,6.82858 -31.48246,2.86617 -31.95191,16.20512 -26.4035,26.12373 -16.66853,36.53495"
         id="path4322-0-2-9-9"
         inkscape:original-d="m 302.21971,212.85225 -0.92197,6.82858 -31.48246,2.86617 c -10.63414,5.42465 -21.39988,10.66633 -31.95191,16.20512 -8.80117,8.70792 -17.60232,17.41583 -26.4035,26.12373 -5.55617,12.17832 -11.11234,24.35664 -16.66853,36.53495"
         inkscape:path-effect="#path-effect4324-0-66-2-0"
         style="display:inline;fill:none;fill-rule:evenodd;stroke:#000000;stroke-width:0.82814705px;stroke-linecap:butt;stroke-linejoin:miter;stroke-opacity:1" />
      <path
         sodipodi:nodetypes="cccccc"
         inkscape:connector-curvature="0"
         d="m 292.8374,213.29898 -0.69895,4.56257 -31.06681,5.84924 -30.26472,19.17232 -23.79755,28.51787 -13.116,37.95542"
         id="path4322-0-0-21-9-6"
         inkscape:original-d="m 292.8374,213.29898 c -0.11357,-2.14181 -0.58541,6.70436 -0.69895,4.56257 -10.3556,1.94974 -20.71121,3.89948 -31.06681,5.84924 -10.06963,6.41203 -20.28768,12.65446 -30.26472,19.17232 l -23.79755,28.51787 -13.116,37.95542"
         inkscape:path-effect="#path-effect4324-0-5-1-0-8"
         style="display:inline;fill:none;fill-rule:evenodd;stroke:#000000;stroke-width:0.82814705px;stroke-linecap:butt;stroke-linejoin:miter;stroke-opacity:1" />
      <path
         sodipodi:nodetypes="cccccc"
         inkscape:connector-curvature="0"
         d="m 303.05936,210.49508 -0.11943,5.50902 31.33292,4.19637 31.23724,17.54323 25.2739,27.21806 15.10694,37.20784"
         id="path4322-07-5-1-5"
         inkscape:original-d="m 303.05936,210.49508 -0.11943,5.50902 31.33292,4.19637 c 10.39494,5.86997 20.92915,11.56271 31.23724,17.54323 8.42463,9.07271 16.84926,18.14538 25.2739,27.21806 l 15.10694,37.20784"
         inkscape:path-effect="#path-effect4324-8-6-0-4"
         style="display:inline;fill:none;fill-rule:evenodd;stroke:#000000;stroke-width:0.82814705px;stroke-linecap:butt;stroke-linejoin:miter;stroke-opacity:1" />
      <path
         sodipodi:nodetypes="cccccc"
         inkscape:connector-curvature="0"
         d="m 298.65895,212.70791 -0.27239,6.23141 31.48247,2.86617 31.95191,16.20513 26.40349,26.12372 16.66853,36.53496"
         id="path4322-0-4-9-1-7"
         inkscape:original-d="m 298.65895,212.70791 -0.27239,6.23141 31.48247,2.86617 c 10.63413,5.42465 21.39988,10.66634 31.95191,16.20513 8.80116,8.70792 17.60232,17.41581 26.40349,26.12372 l 16.66853,36.53496"
         inkscape:path-effect="#path-effect4324-0-6-1-2-3"
         style="display:inline;fill:none;fill-rule:evenodd;stroke:#000000;stroke-width:0.82814705px;stroke-linecap:butt;stroke-linejoin:miter;stroke-opacity:1" />
      <path
         sodipodi:nodetypes="cccccc"
         inkscape:connector-curvature="0"
         d="m 308.519,210.64651 -0.97315,6.47354 31.06682,5.84922 30.26472,19.17234 23.79754,28.51787 13.116,37.95541"
         id="path4322-0-0-3-3-4-2"
         inkscape:original-d="m 308.519,210.64651 c 0.11355,-2.1418 -1.08668,8.61533 -0.97315,6.47354 l 31.06682,5.84922 c 10.06963,6.41203 20.28768,12.65447 30.26472,19.17234 l 23.79754,28.51787 c 4.37201,12.6518 8.744,25.30361 13.116,37.95541"
         inkscape:path-effect="#path-effect4324-0-5-6-1-0-5"
         style="display:inline;fill:none;fill-rule:evenodd;stroke:#000000;stroke-width:0.82814705px;stroke-linecap:butt;stroke-linejoin:miter;stroke-opacity:1" />
      <path
         sodipodi:nodetypes="cccccc"
         inkscape:connector-curvature="0"
         d="m 305.98201,210.68035 -1.07491,5.15072 -31.33291,4.19638 -31.23725,17.54323 -25.2739,27.21806 -15.10694,37.20784"
         id="path4322-1-9-8-8"
         inkscape:original-d="m 305.98201,210.68035 -1.07491,5.15072 -31.33291,4.19638 c -10.39496,5.86996 -20.92915,11.56269 -31.23725,17.54323 l -25.2739,27.21806 -15.10694,37.20784"
         inkscape:path-effect="#path-effect4324-1-4-2-1"
         style="display:inline;fill:none;fill-rule:evenodd;stroke:#000000;stroke-width:0.82814705px;stroke-linecap:butt;stroke-linejoin:miter;stroke-opacity:1" />
      <path
         sodipodi:nodetypes="cccccc"
         inkscape:connector-curvature="0"
         d="m 310.74073,213.96811 -1.28026,4.79819 -31.48247,2.86618 -31.95191,16.20512 -26.40349,26.12372 -16.66853,36.53496"
         id="path4322-0-1-0-4-4"
         inkscape:original-d="m 310.74073,213.96811 -1.28026,4.79819 c -10.49415,0.95539 -20.98832,1.91077 -31.48247,2.86618 -10.63413,5.42463 -21.39988,10.66632 -31.95191,16.20512 l -26.40349,26.12372 -16.66853,36.53496"
         inkscape:path-effect="#path-effect4324-0-7-0-4-7"
         style="display:inline;fill:none;fill-rule:evenodd;stroke:#000000;stroke-width:0.82814705px;stroke-linecap:butt;stroke-linejoin:miter;stroke-opacity:1" />
      <path
         sodipodi:nodetypes="cccccc"
         inkscape:connector-curvature="0"
         d="m 300.64182,211.30953 -0.34065,5.63749 -31.06681,5.84923 -30.26471,19.17232 -23.79755,28.51788 -13.116,37.95542"
         id="path4322-0-0-2-7-6-3"
         inkscape:original-d="m 300.64182,211.30953 c -0.11356,-2.1418 -0.22711,7.77929 -0.34065,5.63749 l -31.06681,5.84923 c -10.06963,6.41204 -20.28768,12.65447 -30.26471,19.17232 -7.93252,9.50598 -15.86504,19.01193 -23.79755,28.51788 l -13.116,37.95542"
         inkscape:path-effect="#path-effect4324-0-5-0-0-0-7"
         style="display:inline;fill:none;fill-rule:evenodd;stroke:#000000;stroke-width:0.82814705px;stroke-linecap:butt;stroke-linejoin:miter;stroke-opacity:1" />
      <path
         sodipodi:nodetypes="cccccc"
         inkscape:connector-curvature="0"
         d="m 298.23559,211.926 -1.31378,4.55356 31.33292,4.19637 31.23724,17.54323 25.2739,27.21807 15.10694,37.20783"
         id="path4322-07-7-1-1-0"
         inkscape:original-d="m 298.23559,211.926 -1.31378,4.55356 31.33292,4.19637 c 10.39494,5.86996 20.92915,11.56269 31.23724,17.54323 l 25.2739,27.21807 15.10694,37.20783"
         inkscape:path-effect="#path-effect4324-8-2-0-6-2"
         style="display:inline;fill:none;fill-rule:evenodd;stroke:#000000;stroke-width:0.82814705px;stroke-linecap:butt;stroke-linejoin:miter;stroke-opacity:1" />
      <path
         sodipodi:nodetypes="cccccc"
         inkscape:connector-curvature="0"
         d="m 292.66128,211.88358 -0.15295,5.99253 31.48246,2.86617 31.95191,16.20512 26.40349,26.12372 16.66854,36.53496"
         id="path4322-0-4-3-5-1-6"
         inkscape:original-d="m 292.66128,211.88358 -0.15295,5.99253 31.48246,2.86617 c 10.63413,5.42464 21.39988,10.66633 31.95191,16.20512 8.80116,8.70792 17.60232,17.41582 26.40349,26.12372 5.55617,12.17833 11.11236,24.35664 16.66854,36.53496"
         inkscape:path-effect="#path-effect4324-0-6-0-8-6-7"
         style="display:inline;fill:none;fill-rule:evenodd;stroke:#000000;stroke-width:0.82814705px;stroke-linecap:butt;stroke-linejoin:miter;stroke-opacity:1" />
      <path
         sodipodi:nodetypes="cccccc"
         inkscape:connector-curvature="0"
         d="m 302.16301,212.6886 -0.4954,3.36823 31.06684,5.84924 30.2647,19.17232 23.79755,28.51787 13.11599,37.95542"
         id="path4322-0-0-3-6-7-7-5"
         inkscape:original-d="m 302.16301,212.6886 c 0.11356,-2.1418 -0.60893,5.51002 -0.4954,3.36823 10.3556,1.94973 20.71123,3.89948 31.06684,5.84924 10.0696,6.41202 20.28766,12.65446 30.2647,19.17232 l 23.79755,28.51787 13.11599,37.95542"
         inkscape:path-effect="#path-effect4324-0-5-6-0-7-1-1"
         style="display:inline;fill:none;fill-rule:evenodd;stroke:#000000;stroke-width:0.82814705px;stroke-linecap:butt;stroke-linejoin:miter;stroke-opacity:1" />
      <path
         sodipodi:nodetypes="ccc"
         inkscape:connector-curvature="0"
         id="path9814-0"
         d="m 246.54961,376.58419 106.19319,0 z"
         style="display:inline;fill:none;fill-rule:evenodd;stroke:#000000;stroke-width:8;stroke-linecap:butt;stroke-linejoin:round;stroke-miterlimit:4;stroke-dasharray:none;stroke-dashoffset:0;stroke-opacity:1" />
      <g
         id="g4590-5"
         transform="translate(-642.97854,3.5428975)">
        <path
           id="path4658-4-5-0-9"
           style="fill:#6e00ad;fill-opacity:1;fill-rule:evenodd;stroke:#6e00ad;stroke-width:1;stroke-linecap:butt;stroke-linejoin:miter;stroke-miterlimit:4;stroke-dasharray:none;stroke-opacity:1"
           d="m 1046.948,596.70488 c 0,0 -7.7118,61.22032 -54.7373,122.23769 -47.02553,61.01737 -142.37047,28.68352 -142.37047,28.68352 l 0.45931,-12.09263 c 0,0 96.11437,32.78817 143.1399,-28.2292 47.02546,-61.01737 54.09956,-122.0066 54.09956,-122.0066 z"
           inkscape:connector-curvature="0"
           sodipodi:nodetypes="csccscc" />
        <path
           style="fill:#6e00ad;fill-opacity:1;fill-rule:evenodd;stroke:#6e00ad;stroke-width:0;stroke-linecap:butt;stroke-linejoin:miter;stroke-miterlimit:4;stroke-dasharray:none;stroke-opacity:1"
           d="m 1047.0357,585.26013 1.121,-1.95095 -0.1188,2.09583 -1.0022,-0.14488 z"
           id="path4583-3"
           inkscape:original-d="m 1047.0357,585.26013 1.121,-1.95095 -0.1188,2.09583 z"
           inkscape:connector-curvature="0"
           sodipodi:nodetypes="cccc"
           inkscape:path-effect="#path-effect4585-2" />
      </g>
    </g>
    <text
       xml:space="preserve"
       style="font-style:normal;font-weight:normal;font-size:90px;line-height:125%;font-family:Sans;letter-spacing:0px;word-spacing:0px;fill:#000000;fill-opacity:1;stroke:none;stroke-width:1px;stroke-linecap:butt;stroke-linejoin:miter;stroke-opacity:1"
       x="160"
       y="164.36217"
       id="text4536"
       sodipodi:linespacing="125%"><tspan
         sodipodi:role="line"
         id="tspan4538"
         x="160"
         y="164.36217">Cicero</tspan></text>
    <text
       xml:space="preserve"
       style="font-style:normal;font-weight:normal;font-size:90px;line-height:125%;font-family:Sans;letter-spacing:0px;word-spacing:0px;fill:#000000;fill-opacity:1;stroke:none;stroke-width:1px;stroke-linecap:butt;stroke-linejoin:miter;stroke-opacity:1"
       x="757.84802"
       y="172.33246"
       id="text4536-9"
       sodipodi:linespacing="125%"><tspan
         sodipodi:role="line"
         id="tspan4538-5"
         x="757.84802"
         y="172.33246">Hybrida</tspan></text>
  </g>
</svg>
