<?xml version="1.0" encoding="UTF-8" standalone="no"?>
<!-- Created with Inkscape (http://www.inkscape.org/) -->

<svg
   xmlns:dc="http://purl.org/dc/elements/1.1/"
   xmlns:cc="http://creativecommons.org/ns#"
   xmlns:rdf="http://www.w3.org/1999/02/22-rdf-syntax-ns#"
   xmlns:svg="http://www.w3.org/2000/svg"
   xmlns="http://www.w3.org/2000/svg"
   xmlns:sodipodi="http://sodipodi.sourceforge.net/DTD/sodipodi-0.dtd"
   xmlns:inkscape="http://www.inkscape.org/namespaces/inkscape"
   width="1920"
   height="1080"
   viewBox="0 0 1920 1080"
   id="svg2"
   version="1.1"
   inkscape:version="0.91 r13725"
   sodipodi:docname="6a_vote_for_catiline.svg">
  <defs
     id="defs4">
    <inkscape:path-effect
       effect="spiro"
       id="path-effect9802"
       is_visible="true" />
    <inkscape:path-effect
       effect="spiro"
       id="path-effect4644"
       is_visible="true" />
    <inkscape:path-effect
       effect="spiro"
       id="path-effect4652"
       is_visible="true" />
    <inkscape:path-effect
       effect="spiro"
       id="path-effect4316"
       is_visible="true" />
    <inkscape:path-effect
       effect="spiro"
       id="path-effect4320"
       is_visible="true" />
    <inkscape:path-effect
       effect="spiro"
       id="path-effect4332"
       is_visible="true" />
    <inkscape:path-effect
       effect="spiro"
       id="path-effect4344"
       is_visible="true" />
    <inkscape:path-effect
       effect="spiro"
       id="path-effect4356"
       is_visible="true" />
    <inkscape:path-effect
       effect="spiro"
       id="path-effect4368"
       is_visible="true" />
    <inkscape:path-effect
       effect="spiro"
       id="path-effect4384"
       is_visible="true" />
    <inkscape:path-effect
       effect="spiro"
       id="path-effect4388"
       is_visible="true" />
    <inkscape:path-effect
       effect="spiro"
       id="path-effect4392"
       is_visible="true" />
    <inkscape:path-effect
       effect="spiro"
       id="path-effect4396"
       is_visible="true" />
    <inkscape:path-effect
       effect="spiro"
       id="path-effect4400"
       is_visible="true" />
    <inkscape:path-effect
       effect="spiro"
       id="path-effect4404"
       is_visible="true" />
    <inkscape:path-effect
       effect="spiro"
       id="path-effect4316-4"
       is_visible="true" />
    <inkscape:path-effect
       effect="spiro"
       id="path-effect4320-5"
       is_visible="true" />
    <inkscape:path-effect
       effect="spiro"
       id="path-effect4332-4"
       is_visible="true" />
    <inkscape:path-effect
       effect="spiro"
       id="path-effect4344-1"
       is_visible="true" />
    <inkscape:path-effect
       effect="spiro"
       id="path-effect4356-3"
       is_visible="true" />
    <inkscape:path-effect
       effect="spiro"
       id="path-effect4368-5"
       is_visible="true" />
    <inkscape:path-effect
       effect="spiro"
       id="path-effect4384-7"
       is_visible="true" />
    <inkscape:path-effect
       effect="spiro"
       id="path-effect4388-4"
       is_visible="true" />
    <inkscape:path-effect
       effect="spiro"
       id="path-effect4392-5"
       is_visible="true" />
    <inkscape:path-effect
       effect="spiro"
       id="path-effect4396-3"
       is_visible="true" />
    <inkscape:path-effect
       effect="spiro"
       id="path-effect4400-0"
       is_visible="true" />
    <inkscape:path-effect
       effect="spiro"
       id="path-effect4404-5"
       is_visible="true" />
    <inkscape:path-effect
       effect="spiro"
       id="path-effect4316-4-6"
       is_visible="true" />
    <inkscape:path-effect
       effect="spiro"
       id="path-effect4320-5-8"
       is_visible="true" />
    <inkscape:path-effect
       effect="spiro"
       id="path-effect4332-4-0"
       is_visible="true" />
    <inkscape:path-effect
       effect="spiro"
       id="path-effect4344-1-9"
       is_visible="true" />
    <inkscape:path-effect
       effect="spiro"
       id="path-effect4356-3-1"
       is_visible="true" />
    <inkscape:path-effect
       effect="spiro"
       id="path-effect4368-5-8"
       is_visible="true" />
    <inkscape:path-effect
       effect="spiro"
       id="path-effect4384-7-4"
       is_visible="true" />
    <inkscape:path-effect
       effect="spiro"
       id="path-effect4388-4-8"
       is_visible="true" />
    <inkscape:path-effect
       effect="spiro"
       id="path-effect4392-5-2"
       is_visible="true" />
    <inkscape:path-effect
       effect="spiro"
       id="path-effect4396-3-5"
       is_visible="true" />
    <inkscape:path-effect
       effect="spiro"
       id="path-effect4400-0-1"
       is_visible="true" />
    <inkscape:path-effect
       effect="spiro"
       id="path-effect4404-5-7"
       is_visible="true" />
    <inkscape:path-effect
       effect="spiro"
       id="path-effect4316-4-6-9"
       is_visible="true" />
    <inkscape:path-effect
       effect="spiro"
       id="path-effect4320-5-8-3"
       is_visible="true" />
    <inkscape:path-effect
       effect="spiro"
       id="path-effect4332-4-0-5"
       is_visible="true" />
    <inkscape:path-effect
       effect="spiro"
       id="path-effect4344-1-9-3"
       is_visible="true" />
    <inkscape:path-effect
       effect="spiro"
       id="path-effect4356-3-1-7"
       is_visible="true" />
    <inkscape:path-effect
       effect="spiro"
       id="path-effect4368-5-8-9"
       is_visible="true" />
    <inkscape:path-effect
       effect="spiro"
       id="path-effect4384-7-4-0"
       is_visible="true" />
    <inkscape:path-effect
       effect="spiro"
       id="path-effect4388-4-8-7"
       is_visible="true" />
    <inkscape:path-effect
       effect="spiro"
       id="path-effect4392-5-2-9"
       is_visible="true" />
    <inkscape:path-effect
       effect="spiro"
       id="path-effect4396-3-5-1"
       is_visible="true" />
    <inkscape:path-effect
       effect="spiro"
       id="path-effect4400-0-1-8"
       is_visible="true" />
    <inkscape:path-effect
       effect="spiro"
       id="path-effect4404-5-7-7"
       is_visible="true" />
    <inkscape:path-effect
       effect="spiro"
       id="path-effect4316-7"
       is_visible="true" />
    <inkscape:path-effect
       effect="spiro"
       id="path-effect4320-4"
       is_visible="true" />
    <inkscape:path-effect
       effect="spiro"
       id="path-effect4332-1"
       is_visible="true" />
    <inkscape:path-effect
       effect="spiro"
       id="path-effect4344-7"
       is_visible="true" />
    <inkscape:path-effect
       effect="spiro"
       id="path-effect4356-7"
       is_visible="true" />
    <inkscape:path-effect
       effect="spiro"
       id="path-effect4368-1"
       is_visible="true" />
    <inkscape:path-effect
       effect="spiro"
       id="path-effect4384-8"
       is_visible="true" />
    <inkscape:path-effect
       effect="spiro"
       id="path-effect4388-1"
       is_visible="true" />
    <inkscape:path-effect
       effect="spiro"
       id="path-effect4392-7"
       is_visible="true" />
    <inkscape:path-effect
       effect="spiro"
       id="path-effect4396-2"
       is_visible="true" />
    <inkscape:path-effect
       effect="spiro"
       id="path-effect4400-06"
       is_visible="true" />
    <inkscape:path-effect
       effect="spiro"
       id="path-effect4404-4"
       is_visible="true" />
    <inkscape:path-effect
       effect="spiro"
       id="path-effect4316-4-7"
       is_visible="true" />
    <inkscape:path-effect
       effect="spiro"
       id="path-effect4320-5-9"
       is_visible="true" />
    <inkscape:path-effect
       effect="spiro"
       id="path-effect4332-4-8"
       is_visible="true" />
    <inkscape:path-effect
       effect="spiro"
       id="path-effect4344-1-6"
       is_visible="true" />
    <inkscape:path-effect
       effect="spiro"
       id="path-effect4356-3-8"
       is_visible="true" />
    <inkscape:path-effect
       effect="spiro"
       id="path-effect4368-5-4"
       is_visible="true" />
    <inkscape:path-effect
       effect="spiro"
       id="path-effect4384-7-9"
       is_visible="true" />
    <inkscape:path-effect
       effect="spiro"
       id="path-effect4388-4-6"
       is_visible="true" />
    <inkscape:path-effect
       effect="spiro"
       id="path-effect4392-5-4"
       is_visible="true" />
    <inkscape:path-effect
       effect="spiro"
       id="path-effect4396-3-0"
       is_visible="true" />
    <inkscape:path-effect
       effect="spiro"
       id="path-effect4400-0-4"
       is_visible="true" />
    <inkscape:path-effect
       effect="spiro"
       id="path-effect4404-5-5"
       is_visible="true" />
    <inkscape:path-effect
       effect="spiro"
       id="path-effect4316-4-6-5"
       is_visible="true" />
    <inkscape:path-effect
       effect="spiro"
       id="path-effect4320-5-8-2"
       is_visible="true" />
    <inkscape:path-effect
       effect="spiro"
       id="path-effect4332-4-0-4"
       is_visible="true" />
    <inkscape:path-effect
       effect="spiro"
       id="path-effect4344-1-9-6"
       is_visible="true" />
    <inkscape:path-effect
       effect="spiro"
       id="path-effect4356-3-1-1"
       is_visible="true" />
    <inkscape:path-effect
       effect="spiro"
       id="path-effect4368-5-8-3"
       is_visible="true" />
    <inkscape:path-effect
       effect="spiro"
       id="path-effect4384-7-4-5"
       is_visible="true" />
    <inkscape:path-effect
       effect="spiro"
       id="path-effect4388-4-8-1"
       is_visible="true" />
    <inkscape:path-effect
       effect="spiro"
       id="path-effect4392-5-2-1"
       is_visible="true" />
    <inkscape:path-effect
       effect="spiro"
       id="path-effect4396-3-5-4"
       is_visible="true" />
    <inkscape:path-effect
       effect="spiro"
       id="path-effect4400-0-1-5"
       is_visible="true" />
    <inkscape:path-effect
       effect="spiro"
       id="path-effect4404-5-7-0"
       is_visible="true" />
    <inkscape:path-effect
       effect="spiro"
       id="path-effect4316-4-6-2"
       is_visible="true" />
    <inkscape:path-effect
       effect="spiro"
       id="path-effect4320-5-8-5"
       is_visible="true" />
    <inkscape:path-effect
       effect="spiro"
       id="path-effect4332-4-0-7"
       is_visible="true" />
    <inkscape:path-effect
       effect="spiro"
       id="path-effect4344-1-9-1"
       is_visible="true" />
    <inkscape:path-effect
       effect="spiro"
       id="path-effect4356-3-1-0"
       is_visible="true" />
    <inkscape:path-effect
       effect="spiro"
       id="path-effect4368-5-8-1"
       is_visible="true" />
    <inkscape:path-effect
       effect="spiro"
       id="path-effect4384-7-4-8"
       is_visible="true" />
    <inkscape:path-effect
       effect="spiro"
       id="path-effect4388-4-8-8"
       is_visible="true" />
    <inkscape:path-effect
       effect="spiro"
       id="path-effect4392-5-2-2"
       is_visible="true" />
    <inkscape:path-effect
       effect="spiro"
       id="path-effect4396-3-5-14"
       is_visible="true" />
    <inkscape:path-effect
       effect="spiro"
       id="path-effect4400-0-1-53"
       is_visible="true" />
    <inkscape:path-effect
       effect="spiro"
       id="path-effect4404-5-7-03"
       is_visible="true" />
    <inkscape:path-effect
       effect="spiro"
       id="path-effect4316-4-6-9-3"
       is_visible="true" />
    <inkscape:path-effect
       effect="spiro"
       id="path-effect4320-5-8-3-8"
       is_visible="true" />
    <inkscape:path-effect
       effect="spiro"
       id="path-effect4332-4-0-5-4"
       is_visible="true" />
    <inkscape:path-effect
       effect="spiro"
       id="path-effect4344-1-9-3-6"
       is_visible="true" />
    <inkscape:path-effect
       effect="spiro"
       id="path-effect4356-3-1-7-1"
       is_visible="true" />
    <inkscape:path-effect
       effect="spiro"
       id="path-effect4368-5-8-9-6"
       is_visible="true" />
    <inkscape:path-effect
       effect="spiro"
       id="path-effect4384-7-4-0-4"
       is_visible="true" />
    <inkscape:path-effect
       effect="spiro"
       id="path-effect4388-4-8-7-9"
       is_visible="true" />
    <inkscape:path-effect
       effect="spiro"
       id="path-effect4392-5-2-9-0"
       is_visible="true" />
    <inkscape:path-effect
       effect="spiro"
       id="path-effect4396-3-5-1-6"
       is_visible="true" />
    <inkscape:path-effect
       effect="spiro"
       id="path-effect4400-0-1-8-3"
       is_visible="true" />
    <inkscape:path-effect
       effect="spiro"
       id="path-effect4404-5-7-7-8"
       is_visible="true" />
    <inkscape:path-effect
       effect="spiro"
       id="path-effect4316-7-0"
       is_visible="true" />
    <inkscape:path-effect
       effect="spiro"
       id="path-effect4320-4-7"
       is_visible="true" />
    <inkscape:path-effect
       effect="spiro"
       id="path-effect4332-1-1"
       is_visible="true" />
    <inkscape:path-effect
       effect="spiro"
       id="path-effect4344-7-3"
       is_visible="true" />
    <inkscape:path-effect
       effect="spiro"
       id="path-effect4356-7-8"
       is_visible="true" />
    <inkscape:path-effect
       effect="spiro"
       id="path-effect4368-1-6"
       is_visible="true" />
    <inkscape:path-effect
       effect="spiro"
       id="path-effect4384-8-8"
       is_visible="true" />
    <inkscape:path-effect
       effect="spiro"
       id="path-effect4388-1-7"
       is_visible="true" />
    <inkscape:path-effect
       effect="spiro"
       id="path-effect4392-7-2"
       is_visible="true" />
    <inkscape:path-effect
       effect="spiro"
       id="path-effect4396-2-4"
       is_visible="true" />
    <inkscape:path-effect
       effect="spiro"
       id="path-effect4400-06-8"
       is_visible="true" />
    <inkscape:path-effect
       effect="spiro"
       id="path-effect4404-4-0"
       is_visible="true" />
    <inkscape:path-effect
       effect="spiro"
       id="path-effect7305"
       is_visible="true" />
  </defs>
  <sodipodi:namedview
     id="base"
     pagecolor="#ffffff"
     bordercolor="#666666"
     borderopacity="1.0"
     inkscape:pageopacity="0.0"
     inkscape:pageshadow="2"
     inkscape:zoom="2.8"
     inkscape:cx="43.083016"
     inkscape:cy="1036.9331"
     inkscape:document-units="px"
     inkscape:current-layer="layer1"
     showgrid="false"
     units="px"
     inkscape:window-width="1920"
     inkscape:window-height="1016"
     inkscape:window-x="1920"
     inkscape:window-y="27"
     inkscape:window-maximized="1" />
  <metadata
     id="metadata7">
    <rdf:RDF>
      <cc:Work
         rdf:about="">
        <dc:format>image/svg+xml</dc:format>
        <dc:type
           rdf:resource="http://purl.org/dc/dcmitype/StillImage" />
        <dc:title />
      </cc:Work>
    </rdf:RDF>
  </metadata>
  <g
     inkscape:label="Layer 1"
     inkscape:groupmode="layer"
     id="layer1"
     transform="translate(0,27.637839)">
    <g
       transform="matrix(0.50480544,-0.13526221,0.13526221,0.50480544,190.85387,107.87082)"
       id="g7635">
      <rect
         ry="16.8976"
         rx="17.363001"
         y="90.93364"
         x="59.999996"
         height="391.42856"
         width="630"
         id="rect7299"
         style="opacity:1;fill:#ffffff;fill-opacity:1;fill-rule:evenodd;stroke:#000000;stroke-width:8;stroke-linecap:round;stroke-linejoin:miter;stroke-miterlimit:4;stroke-dasharray:none;stroke-dashoffset:0;stroke-opacity:1" />
      <path
         inkscape:connector-curvature="0"
         inkscape:original-d="m 374.1124,483.53824 0,530.00006"
         inkscape:path-effect="#path-effect7305"
         id="path7303"
         d="m 374.1124,483.53824 0,530.00006"
         style="fill:none;fill-opacity:1;fill-rule:evenodd;stroke:#000000;stroke-width:8;stroke-linecap:round;stroke-linejoin:miter;stroke-miterlimit:4;stroke-dasharray:none;stroke-opacity:1" />
      <text
         sodipodi:linespacing="125%"
         id="text7307"
         y="213.79079"
         x="161.42859"
         style="font-style:normal;font-weight:normal;font-size:125px;line-height:125%;font-family:Sans;letter-spacing:0px;word-spacing:0px;fill:#000000;fill-opacity:1;stroke:none;stroke-width:1px;stroke-linecap:butt;stroke-linejoin:miter;stroke-opacity:1"
         xml:space="preserve"><tspan
           y="213.79079"
           x="161.42859"
           id="tspan7309"
           sodipodi:role="line">Catiline </tspan></text>
      <text
         sodipodi:linespacing="125%"
         id="text7311"
         y="256.64792"
         x="351.42859"
         style="font-style:normal;font-weight:normal;font-size:40px;line-height:125%;font-family:Sans;letter-spacing:0px;word-spacing:0px;fill:#000000;fill-opacity:1;stroke:none;stroke-width:1px;stroke-linecap:butt;stroke-linejoin:miter;stroke-opacity:1"
         xml:space="preserve"><tspan
           y="256.64792"
           x="351.42859"
           id="tspan7313"
           sodipodi:role="line">for</tspan></text>
      <text
         sodipodi:linespacing="125%"
         id="text7315"
         y="331.64792"
         x="232.14285"
         style="font-style:normal;font-weight:normal;font-size:80px;line-height:125%;font-family:Sans;letter-spacing:0px;word-spacing:0px;fill:#000000;fill-opacity:1;stroke:none;stroke-width:1px;stroke-linecap:butt;stroke-linejoin:miter;stroke-opacity:1"
         xml:space="preserve"><tspan
           y="331.64792"
           x="232.14285"
           id="tspan7317"
           sodipodi:role="line">Consul</tspan></text>
      <path
         inkscape:transform-center-y="0.67013624"
         inkscape:transform-center-x="-6.1803399"
         d="m 168.57143,455.21935 -32.06247,-34.95585 -46.972499,6.59529 23.337139,-41.29517 -20.78779,-42.63545 46.48561,9.43403 34.12494,-32.94544 5.39255,47.12572 41.87816,22.27404 -43.15283,19.69127 z"
         inkscape:randomized="0"
         inkscape:rounded="0"
         inkscape:flatsided="false"
         sodipodi:arg2="1.9153207"
         sodipodi:arg1="1.2870022"
         sodipodi:r2="35.714287"
         sodipodi:r1="71.428574"
         sodipodi:cy="386.64792"
         sodipodi:cx="148.57143"
         sodipodi:sides="5"
         id="path7329"
         style="opacity:1;fill:none;fill-opacity:1;fill-rule:evenodd;stroke:#000000;stroke-width:8;stroke-linecap:round;stroke-linejoin:miter;stroke-miterlimit:4;stroke-dasharray:none;stroke-dashoffset:0;stroke-opacity:1"
         sodipodi:type="star" />
      <path
         inkscape:transform-center-y="5.2974342"
         inkscape:transform-center-x="-0.28208157"
         d="m 327.14287,429.50507 -38.21554,6.16559 -16.58591,34.97642 -17.67307,-34.43987 -38.38988,-4.96582 27.29298,-27.45061 -7.14035,-38.04546 34.54107,17.47446 33.97691,-18.54757 -5.94543,38.25042 z"
         inkscape:randomized="0"
         inkscape:rounded="0"
         inkscape:flatsided="false"
         sodipodi:arg2="0.92681746"
         sodipodi:arg1="0.29849893"
         sodipodi:r2="29.146008"
         sodipodi:r1="58.292015"
         sodipodi:cy="412.36221"
         sodipodi:cx="271.42859"
         sodipodi:sides="5"
         id="path7331"
         style="opacity:1;fill:none;fill-opacity:1;fill-rule:evenodd;stroke:#000000;stroke-width:8;stroke-linecap:round;stroke-linejoin:miter;stroke-miterlimit:4;stroke-dasharray:none;stroke-dashoffset:0;stroke-opacity:1"
         sodipodi:type="star" />
      <path
         inkscape:transform-center-y="-3.839514"
         inkscape:transform-center-x="2.6062693"
         d="m 434.28569,462.3622 -41.49725,-15.48878 -36.28471,25.40361 1.90735,-44.25252 -35.37287,-26.65867 42.67606,-11.86078 14.42308,-41.87958 24.4679,36.92216 44.28682,0.77566 -27.55406,34.67994 z"
         inkscape:randomized="0"
         inkscape:rounded="0"
         inkscape:flatsided="false"
         sodipodi:arg2="1.4440105"
         sodipodi:arg1="0.81569192"
         sodipodi:r2="33.350334"
         sodipodi:r1="66.700668"
         sodipodi:cy="413.79077"
         sodipodi:cx="388.57141"
         sodipodi:sides="5"
         id="path7335"
         style="opacity:1;fill:none;fill-opacity:1;fill-rule:evenodd;stroke:#000000;stroke-width:8;stroke-linecap:round;stroke-linejoin:miter;stroke-miterlimit:4;stroke-dasharray:none;stroke-dashoffset:0;stroke-opacity:1"
         sodipodi:type="star" />
      <path
         inkscape:transform-center-y="-0.96686095"
         inkscape:transform-center-x="4.3412611"
         d="m 469.99997,472.3622 -3.20465,-36.50313 -31.88717,-18.05427 33.72625,-14.32789 7.31695,-35.90558 24.04862,27.64801 36.4093,-4.1366 -18.86339,31.4153 15.18523,33.34902 -35.70683,-8.23229 z"
         inkscape:randomized="0"
         inkscape:rounded="0"
         inkscape:flatsided="false"
         sodipodi:arg2="2.5700061"
         sodipodi:arg1="1.9416876"
         sodipodi:r2="27.590298"
         sodipodi:r1="55.180595"
         sodipodi:cy="420.93362"
         sodipodi:cx="489.99997"
         sodipodi:sides="5"
         id="path7337"
         style="opacity:1;fill:none;fill-opacity:1;fill-rule:evenodd;stroke:#000000;stroke-width:8;stroke-linecap:round;stroke-linejoin:miter;stroke-miterlimit:4;stroke-dasharray:none;stroke-dashoffset:0;stroke-opacity:1"
         sodipodi:type="star" />
      <path
         inkscape:transform-center-y="3.0901699"
         inkscape:transform-center-x="-3.7454789"
         d="m 667.14282,403.7908 -44.62333,14.61757 -13.25604,45.04656 -27.69151,-37.92223 -46.93816,1.3129 27.50904,-38.0548 -15.75334,-44.23514 44.69303,14.40308 37.20207,-28.65172 0.11276,46.95638 z"
         inkscape:randomized="0"
         inkscape:rounded="0"
         inkscape:flatsided="false"
         sodipodi:arg2="0.77021559"
         sodipodi:arg1="0.14189705"
         sodipodi:r2="35.355339"
         sodipodi:r1="70.710678"
         sodipodi:cy="393.7908"
         sodipodi:cx="597.14282"
         sodipodi:sides="5"
         id="path7339"
         style="opacity:1;fill:none;fill-opacity:1;fill-rule:evenodd;stroke:#000000;stroke-width:8;stroke-linecap:round;stroke-linejoin:miter;stroke-miterlimit:4;stroke-dasharray:none;stroke-dashoffset:0;stroke-opacity:1"
         sodipodi:type="star" />
    </g>
    <g
       id="g4857"
       transform="translate(0,1.4508963)">
      <path
         sodipodi:nodetypes="cc"
         inkscape:connector-curvature="0"
         inkscape:original-d="m 300.01956,552.14745 c -211.37703,333.153 -105.68851,166.57649 0,0 z"
         inkscape:path-effect="#path-effect9802"
         id="path9800"
         d="m 300.01956,552.14745 0,0 z"
         style="fill:none;fill-rule:evenodd;stroke:#000000;stroke-width:0.80636829px;stroke-linecap:butt;stroke-linejoin:miter;stroke-opacity:1" />
      <rect
         inkscape:transform-center-y="142.68405"
         inkscape:transform-center-x="45.204326"
         transform="matrix(0.96184119,0.27360834,-0.29587192,0.95522762,0,0)"
         ry="6.8030696"
         rx="7.0500774"
         y="693.13928"
         x="522.27667"
         height="255.11511"
         width="14.100155"
         id="rect8093"
         style="fill:#000000;fill-opacity:1;stroke-width:15;stroke-miterlimit:4;stroke-dasharray:none;stroke-dashoffset:0" />
      <rect
         inkscape:transform-center-y="141.42857"
         inkscape:transform-center-x="-45"
         transform="matrix(-0.96291845,0.26979262,0.29998851,0.95394281,0,0)"
         ry="6.789515"
         rx="7.1259441"
         y="859.67773"
         x="-52.848572"
         height="254.60681"
         width="14.251888"
         id="rect8093-7"
         style="fill:#000000;fill-opacity:1;stroke-width:15;stroke-miterlimit:4;stroke-dasharray:none;stroke-dashoffset:0" />
      <rect
         transform="matrix(-0.9999996,-8.9412964e-4,-7.7483979e-4,0.9999997,0,0)"
         ry="6.8288617"
         rx="6.3570261"
         y="558.91492"
         x="-309.7757"
         height="256.08231"
         width="12.714052"
         id="rect8093-7-2"
         style="fill:#000000;fill-opacity:1;stroke-width:15;stroke-miterlimit:4;stroke-dasharray:none;stroke-dashoffset:0" />
      <rect
         inkscape:transform-center-y="-45.960038"
         inkscape:transform-center-x="-142.14287"
         transform="matrix(0.27618592,0.96110423,0.95606836,-0.29314382,0,0)"
         ry="6.7970877"
         rx="6.9842806"
         y="114.4147"
         x="666.58881"
         height="254.89079"
         width="13.968561"
         id="rect8093-2-2"
         style="fill:#000000;fill-opacity:1;stroke-width:15;stroke-miterlimit:4;stroke-dasharray:none;stroke-dashoffset:0" />
      <rect
         inkscape:transform-center-y="-42.568801"
         inkscape:transform-center-x="142.50004"
         transform="matrix(-0.27532156,0.96135219,-0.95578881,-0.29405399,0,0)"
         ry="6.7990756"
         rx="7.0062075"
         y="-465.3548"
         x="491.84119"
         height="254.96533"
         width="14.012415"
         id="rect8093-2"
         style="fill:#000000;fill-opacity:1;stroke-width:15;stroke-miterlimit:4;stroke-dasharray:none;stroke-dashoffset:0" />
      <ellipse
         ry="94.103401"
         rx="94.103386"
         cy="463.72336"
         cx="302.48578"
         id="path8125"
         style="opacity:1;fill:#ffffff;fill-opacity:1;fill-rule:evenodd;stroke:#000000;stroke-width:13.38528061;stroke-miterlimit:4;stroke-dasharray:none;stroke-dashoffset:0;stroke-opacity:1" />
      <circle
         r="11.688906"
         cy="439.82956"
         cx="256.50833"
         id="path9777"
         style="opacity:1;fill:#000000;fill-opacity:1;fill-rule:evenodd;stroke:#000000;stroke-width:8.87691975;stroke-miterlimit:4;stroke-dasharray:none;stroke-dashoffset:0;stroke-opacity:1" />
      <circle
         r="11.688906"
         cy="439.82956"
         cx="349.24066"
         id="path9777-9"
         style="opacity:1;fill:#000000;fill-opacity:1;fill-rule:evenodd;stroke:#000000;stroke-width:8.87691975;stroke-miterlimit:4;stroke-dasharray:none;stroke-dashoffset:0;stroke-opacity:1" />
      <path
         sodipodi:nodetypes="ccccccccccc"
         inkscape:connector-curvature="0"
         inkscape:original-d="m 218.91075,1014.5191 166.93156,-0.3991 -4.4072,-235.0032 10.58923,-184.90398 -10.38555,-20.9748 -64.17092,24.55207 -31.76764,0 -64.73242,-23.53387 -9.58901,27.25617 15.84289,182.03856 z"
         inkscape:path-effect="#path-effect4644"
         id="path4642"
         d="m 218.91075,1014.5191 166.93156,-0.3991 -4.4072,-235.0032 10.58923,-184.90398 -10.38555,-20.9748 -64.17092,24.55207 -31.76764,0 -64.73242,-23.53387 -9.58901,27.25617 15.84289,182.03856 -8.31094,230.96815 z"
         style="fill:#ffffff;fill-opacity:1;fill-rule:evenodd;stroke:#000000;stroke-width:0.80636829px;stroke-linecap:butt;stroke-linejoin:miter;stroke-opacity:1" />
      <path
         sodipodi:nodetypes="cc"
         inkscape:connector-curvature="0"
         inkscape:original-d="m 323.197,595.62466 -103.41011,102.892"
         inkscape:path-effect="#path-effect4652"
         id="path4650"
         d="m 323.197,595.62466 -103.41011,102.892"
         style="fill:none;fill-rule:evenodd;stroke:#000000;stroke-width:0.80117768px;stroke-linecap:butt;stroke-linejoin:miter;stroke-opacity:1" />
      <path
         sodipodi:nodetypes="csc"
         inkscape:connector-curvature="0"
         id="path4658"
         d="m 226.43897,792.65339 c 0,0 79.13711,26.83769 117.05697,-22.36478 37.91985,-49.20247 44.10243,-98.81159 44.10243,-98.81159"
         style="fill:none;fill-rule:evenodd;stroke:#000000;stroke-width:0.81055647px;stroke-linecap:butt;stroke-linejoin:miter;stroke-opacity:1" />
      <g
         transform="matrix(0.80636831,0,0,0.80636831,-17.045979,203.28541)"
         id="g4459">
        <path
           style="fill:none;fill-rule:evenodd;stroke:#000000;stroke-width:1px;stroke-linecap:butt;stroke-linejoin:miter;stroke-opacity:1"
           inkscape:path-effect="#path-effect4316"
           inkscape:original-d="m 323.1478,223.2795 -13.34665,-12.28598 -13.87696,-4.5962"
           id="path4314"
           d="m 323.1478,223.2795 -13.34665,-12.28598 -13.87696,-4.5962"
           inkscape:connector-curvature="0"
           sodipodi:nodetypes="ccc" />
        <path
           style="fill:none;fill-rule:evenodd;stroke:#000000;stroke-width:1px;stroke-linecap:butt;stroke-linejoin:miter;stroke-opacity:1"
           inkscape:path-effect="#path-effect4320"
           inkscape:original-d="m 310.77343,233.179 -10.25305,-3.27037 -14.14214,-3.62393"
           id="path4318"
           d="m 310.77343,233.179 c -3.39021,-1.17389 -6.80927,-2.26445 -10.25305,-3.27037 -4.67203,-1.36469 -9.38957,-2.57356 -14.14214,-3.62393"
           inkscape:connector-curvature="0"
           sodipodi:nodetypes="ccc" />
        <path
           style="fill:none;fill-rule:evenodd;stroke:#000000;stroke-width:1px;stroke-linecap:butt;stroke-linejoin:miter;stroke-opacity:1"
           inkscape:path-effect="#path-effect4332"
           inkscape:original-d="m 315.36962,228.5828 -16.88217,-6.27557 -8.13172,-8.57367"
           id="path4330"
           d="m 315.36962,228.5828 -16.88217,-6.27557 -8.13172,-8.57367"
           inkscape:connector-curvature="0"
           sodipodi:nodetypes="ccc" />
        <path
           style="fill:none;fill-rule:evenodd;stroke:#000000;stroke-width:1px;stroke-linecap:butt;stroke-linejoin:miter;stroke-opacity:1"
           inkscape:path-effect="#path-effect4344"
           inkscape:original-d="m 299.45972,245.90692 -11.84404,-2.47487 -6.80589,-7.6898"
           id="path4342"
           d="m 299.45972,245.90692 -11.84404,-2.47487 -6.80589,-7.6898"
           inkscape:connector-curvature="0"
           sodipodi:nodetypes="ccc" />
        <path
           style="fill:none;fill-rule:evenodd;stroke:#000000;stroke-width:1px;stroke-linecap:butt;stroke-linejoin:miter;stroke-opacity:1"
           inkscape:path-effect="#path-effect4356"
           inkscape:original-d="m 305.11658,239.54296 -13.08147,-3.88909 -6.44691,-0.15366"
           id="path4354"
           d="m 305.11658,239.54296 -13.08147,-3.88909 -6.44691,-0.15366"
           inkscape:connector-curvature="0"
           sodipodi:nodetypes="ccc" />
        <path
           style="fill:none;fill-rule:evenodd;stroke:#000000;stroke-width:1px;stroke-linecap:butt;stroke-linejoin:miter;stroke-opacity:1"
           inkscape:path-effect="#path-effect4368"
           inkscape:original-d="m 294.86353,253.33154 -13.87697,-3.44714 -2.56327,-7.68979"
           id="path4366"
           d="m 294.86353,253.33154 -13.87697,-3.44714 -2.56327,-7.68979"
           inkscape:connector-curvature="0"
           sodipodi:nodetypes="ccc" />
        <path
           style="fill:none;fill-rule:evenodd;stroke:#000000;stroke-width:1px;stroke-linecap:butt;stroke-linejoin:miter;stroke-opacity:1"
           inkscape:path-effect="#path-effect4384"
           inkscape:original-d="m 290.26733,257.92774 -13.96535,-3.44715 -9.28078,1.14904"
           id="path4382"
           d="m 290.26733,257.92774 -13.96535,-3.44715 -9.28078,1.14904"
           inkscape:connector-curvature="0"
           sodipodi:nodetypes="ccc" />
        <path
           style="fill:none;fill-rule:evenodd;stroke:#000000;stroke-width:1px;stroke-linecap:butt;stroke-linejoin:miter;stroke-opacity:1"
           inkscape:path-effect="#path-effect4388"
           inkscape:original-d="m 287.43891,265.35236 -14.84924,-1.94455 -9.45756,-7.77817"
           id="path4386"
           d="m 287.43891,265.35236 -14.84924,-1.94455 -9.45756,-7.77817"
           inkscape:connector-curvature="0"
           sodipodi:nodetypes="ccc" />
        <path
           style="fill:none;fill-rule:evenodd;stroke:#000000;stroke-width:1px;stroke-linecap:butt;stroke-linejoin:miter;stroke-opacity:1"
           inkscape:path-effect="#path-effect4392"
           inkscape:original-d="m 283.54982,271.00921 -14.05375,0.0884 -7.77817,-5.83363"
           id="path4390"
           d="m 283.54982,271.00921 -14.05375,0.0884 -7.77817,-5.83363"
           inkscape:connector-curvature="0"
           sodipodi:nodetypes="ccc" />
        <path
           style="fill:none;fill-rule:evenodd;stroke:#000000;stroke-width:1px;stroke-linecap:butt;stroke-linejoin:miter;stroke-opacity:1"
           inkscape:path-effect="#path-effect4396"
           inkscape:original-d="m 282.13561,277.72672 -16.26346,0.35355 -7.6014,2.56327"
           id="path4394"
           d="m 282.13561,277.72672 -16.26346,0.35355 -7.6014,2.56327"
           inkscape:connector-curvature="0"
           sodipodi:nodetypes="ccc" />
        <path
           style="fill:none;fill-rule:evenodd;stroke:#000000;stroke-width:1px;stroke-linecap:butt;stroke-linejoin:miter;stroke-opacity:1"
           inkscape:path-effect="#path-effect4400"
           inkscape:original-d="m 277.89297,285.5049 -14.31892,-1.14905 -8.75045,1.85616"
           id="path4398"
           d="m 277.89297,285.5049 -14.31892,-1.14905 -8.75045,1.85616"
           inkscape:connector-curvature="0"
           sodipodi:nodetypes="ccc" />
        <path
           style="fill:none;fill-rule:evenodd;stroke:#000000;stroke-width:1px;stroke-linecap:butt;stroke-linejoin:miter;stroke-opacity:1"
           inkscape:path-effect="#path-effect4404"
           inkscape:original-d="m 275.77165,291.16175 -13.25826,1.50261 -12.72792,-4.41942"
           id="path4402"
           d="m 275.77165,291.16175 -13.25826,1.50261 -12.72792,-4.41942"
           inkscape:connector-curvature="0"
           sodipodi:nodetypes="ccc" />
      </g>
      <g
         id="g4459-7"
         style="display:inline"
         transform="matrix(0.58211094,0.55801139,-0.55801139,0.58211094,249.69266,56.256526)">
        <path
           style="fill:none;fill-rule:evenodd;stroke:#000000;stroke-width:1px;stroke-linecap:butt;stroke-linejoin:miter;stroke-opacity:1"
           inkscape:path-effect="#path-effect4316-4"
           inkscape:original-d="m 323.1478,223.2795 -13.34665,-12.28598 -13.87696,-4.5962"
           id="path4314-7"
           d="m 323.1478,223.2795 -13.34665,-12.28598 -13.87696,-4.5962"
           inkscape:connector-curvature="0"
           sodipodi:nodetypes="ccc" />
        <path
           style="fill:none;fill-rule:evenodd;stroke:#000000;stroke-width:1px;stroke-linecap:butt;stroke-linejoin:miter;stroke-opacity:1"
           inkscape:path-effect="#path-effect4320-5"
           inkscape:original-d="m 310.77343,233.179 -10.25305,-3.27037 -14.14214,-3.62393"
           id="path4318-2"
           d="m 310.77343,233.179 c -3.39021,-1.17389 -6.80927,-2.26445 -10.25305,-3.27037 -4.67203,-1.36469 -9.38957,-2.57356 -14.14214,-3.62393"
           inkscape:connector-curvature="0"
           sodipodi:nodetypes="ccc" />
        <path
           style="fill:none;fill-rule:evenodd;stroke:#000000;stroke-width:1px;stroke-linecap:butt;stroke-linejoin:miter;stroke-opacity:1"
           inkscape:path-effect="#path-effect4332-4"
           inkscape:original-d="m 315.36962,228.5828 -16.88217,-6.27557 -8.13172,-8.57367"
           id="path4330-2"
           d="m 315.36962,228.5828 -16.88217,-6.27557 -8.13172,-8.57367"
           inkscape:connector-curvature="0"
           sodipodi:nodetypes="ccc" />
        <path
           style="fill:none;fill-rule:evenodd;stroke:#000000;stroke-width:1px;stroke-linecap:butt;stroke-linejoin:miter;stroke-opacity:1"
           inkscape:path-effect="#path-effect4344-1"
           inkscape:original-d="m 299.45972,245.90692 -11.84404,-2.47487 -6.80589,-7.6898"
           id="path4342-0"
           d="m 299.45972,245.90692 -11.84404,-2.47487 -6.80589,-7.6898"
           inkscape:connector-curvature="0"
           sodipodi:nodetypes="ccc" />
        <path
           style="fill:none;fill-rule:evenodd;stroke:#000000;stroke-width:1px;stroke-linecap:butt;stroke-linejoin:miter;stroke-opacity:1"
           inkscape:path-effect="#path-effect4356-3"
           inkscape:original-d="m 305.11658,239.54296 -13.08147,-3.88909 -6.44691,-0.15366"
           id="path4354-7"
           d="m 305.11658,239.54296 -13.08147,-3.88909 -6.44691,-0.15366"
           inkscape:connector-curvature="0"
           sodipodi:nodetypes="ccc" />
        <path
           style="fill:none;fill-rule:evenodd;stroke:#000000;stroke-width:1px;stroke-linecap:butt;stroke-linejoin:miter;stroke-opacity:1"
           inkscape:path-effect="#path-effect4368-5"
           inkscape:original-d="m 294.86353,253.33154 -13.87697,-3.44714 -2.56327,-7.68979"
           id="path4366-6"
           d="m 294.86353,253.33154 -13.87697,-3.44714 -2.56327,-7.68979"
           inkscape:connector-curvature="0"
           sodipodi:nodetypes="ccc" />
        <path
           style="fill:none;fill-rule:evenodd;stroke:#000000;stroke-width:1px;stroke-linecap:butt;stroke-linejoin:miter;stroke-opacity:1"
           inkscape:path-effect="#path-effect4384-7"
           inkscape:original-d="m 290.26733,257.92774 -13.96535,-3.44715 -9.28078,1.14904"
           id="path4382-8"
           d="m 290.26733,257.92774 -13.96535,-3.44715 -9.28078,1.14904"
           inkscape:connector-curvature="0"
           sodipodi:nodetypes="ccc" />
        <path
           style="fill:none;fill-rule:evenodd;stroke:#000000;stroke-width:1px;stroke-linecap:butt;stroke-linejoin:miter;stroke-opacity:1"
           inkscape:path-effect="#path-effect4388-4"
           inkscape:original-d="m 287.43891,265.35236 -14.84924,-1.94455 -9.45756,-7.77817"
           id="path4386-8"
           d="m 287.43891,265.35236 -14.84924,-1.94455 -9.45756,-7.77817"
           inkscape:connector-curvature="0"
           sodipodi:nodetypes="ccc" />
        <path
           style="fill:none;fill-rule:evenodd;stroke:#000000;stroke-width:1px;stroke-linecap:butt;stroke-linejoin:miter;stroke-opacity:1"
           inkscape:path-effect="#path-effect4392-5"
           inkscape:original-d="m 283.54982,271.00921 -14.05375,0.0884 -7.77817,-5.83363"
           id="path4390-5"
           d="m 283.54982,271.00921 -14.05375,0.0884 -7.77817,-5.83363"
           inkscape:connector-curvature="0"
           sodipodi:nodetypes="ccc" />
        <path
           style="fill:none;fill-rule:evenodd;stroke:#000000;stroke-width:1px;stroke-linecap:butt;stroke-linejoin:miter;stroke-opacity:1"
           inkscape:path-effect="#path-effect4396-3"
           inkscape:original-d="m 282.13561,277.72672 -16.26346,0.35355 -7.6014,2.56327"
           id="path4394-2"
           d="m 282.13561,277.72672 -16.26346,0.35355 -7.6014,2.56327"
           inkscape:connector-curvature="0"
           sodipodi:nodetypes="ccc" />
        <path
           style="fill:none;fill-rule:evenodd;stroke:#000000;stroke-width:1px;stroke-linecap:butt;stroke-linejoin:miter;stroke-opacity:1"
           inkscape:path-effect="#path-effect4400-0"
           inkscape:original-d="m 277.89297,285.5049 -14.31892,-1.14905 -8.75045,1.85616"
           id="path4398-3"
           d="m 277.89297,285.5049 -14.31892,-1.14905 -8.75045,1.85616"
           inkscape:connector-curvature="0"
           sodipodi:nodetypes="ccc" />
        <path
           style="fill:none;fill-rule:evenodd;stroke:#000000;stroke-width:1px;stroke-linecap:butt;stroke-linejoin:miter;stroke-opacity:1"
           inkscape:path-effect="#path-effect4404-5"
           inkscape:original-d="m 275.77165,291.16175 -13.25826,1.50261 -12.72792,-4.41942"
           id="path4402-1"
           d="m 275.77165,291.16175 -13.25826,1.50261 -12.72792,-4.41942"
           inkscape:connector-curvature="0"
           sodipodi:nodetypes="ccc" />
      </g>
      <g
         id="g4459-7-4"
         style="display:inline"
         transform="matrix(0.0896094,0.80137383,-0.80137383,0.0896094,527.21763,119.34246)">
        <path
           style="fill:none;fill-rule:evenodd;stroke:#000000;stroke-width:1px;stroke-linecap:butt;stroke-linejoin:miter;stroke-opacity:1"
           inkscape:path-effect="#path-effect4316-4-6"
           inkscape:original-d="m 323.1478,223.2795 -13.34665,-12.28598 -13.87696,-4.5962"
           id="path4314-7-7"
           d="m 323.1478,223.2795 -13.34665,-12.28598 -13.87696,-4.5962"
           inkscape:connector-curvature="0"
           sodipodi:nodetypes="ccc" />
        <path
           style="fill:none;fill-rule:evenodd;stroke:#000000;stroke-width:1px;stroke-linecap:butt;stroke-linejoin:miter;stroke-opacity:1"
           inkscape:path-effect="#path-effect4320-5-8"
           inkscape:original-d="m 310.77343,233.179 -10.25305,-3.27037 -14.14214,-3.62393"
           id="path4318-2-4"
           d="m 310.77343,233.179 c -3.39021,-1.17389 -6.80927,-2.26445 -10.25305,-3.27037 -4.67203,-1.36469 -9.38957,-2.57356 -14.14214,-3.62393"
           inkscape:connector-curvature="0"
           sodipodi:nodetypes="ccc" />
        <path
           style="fill:none;fill-rule:evenodd;stroke:#000000;stroke-width:1px;stroke-linecap:butt;stroke-linejoin:miter;stroke-opacity:1"
           inkscape:path-effect="#path-effect4332-4-0"
           inkscape:original-d="m 315.36962,228.5828 -16.88217,-6.27557 -8.13172,-8.57367"
           id="path4330-2-0"
           d="m 315.36962,228.5828 -16.88217,-6.27557 -8.13172,-8.57367"
           inkscape:connector-curvature="0"
           sodipodi:nodetypes="ccc" />
        <path
           style="fill:none;fill-rule:evenodd;stroke:#000000;stroke-width:1px;stroke-linecap:butt;stroke-linejoin:miter;stroke-opacity:1"
           inkscape:path-effect="#path-effect4344-1-9"
           inkscape:original-d="m 299.45972,245.90692 -11.84404,-2.47487 -6.80589,-7.6898"
           id="path4342-0-9"
           d="m 299.45972,245.90692 -11.84404,-2.47487 -6.80589,-7.6898"
           inkscape:connector-curvature="0"
           sodipodi:nodetypes="ccc" />
        <path
           style="fill:none;fill-rule:evenodd;stroke:#000000;stroke-width:1px;stroke-linecap:butt;stroke-linejoin:miter;stroke-opacity:1"
           inkscape:path-effect="#path-effect4356-3-1"
           inkscape:original-d="m 305.11658,239.54296 -13.08147,-3.88909 -6.44691,-0.15366"
           id="path4354-7-1"
           d="m 305.11658,239.54296 -13.08147,-3.88909 -6.44691,-0.15366"
           inkscape:connector-curvature="0"
           sodipodi:nodetypes="ccc" />
        <path
           style="fill:none;fill-rule:evenodd;stroke:#000000;stroke-width:1px;stroke-linecap:butt;stroke-linejoin:miter;stroke-opacity:1"
           inkscape:path-effect="#path-effect4368-5-8"
           inkscape:original-d="m 294.86353,253.33154 -13.87697,-3.44714 -2.56327,-7.68979"
           id="path4366-6-7"
           d="m 294.86353,253.33154 -13.87697,-3.44714 -2.56327,-7.68979"
           inkscape:connector-curvature="0"
           sodipodi:nodetypes="ccc" />
        <path
           style="fill:none;fill-rule:evenodd;stroke:#000000;stroke-width:1px;stroke-linecap:butt;stroke-linejoin:miter;stroke-opacity:1"
           inkscape:path-effect="#path-effect4384-7-4"
           inkscape:original-d="m 290.26733,257.92774 -13.96535,-3.44715 -9.28078,1.14904"
           id="path4382-8-8"
           d="m 290.26733,257.92774 -13.96535,-3.44715 -9.28078,1.14904"
           inkscape:connector-curvature="0"
           sodipodi:nodetypes="ccc" />
        <path
           style="fill:none;fill-rule:evenodd;stroke:#000000;stroke-width:1px;stroke-linecap:butt;stroke-linejoin:miter;stroke-opacity:1"
           inkscape:path-effect="#path-effect4388-4-8"
           inkscape:original-d="m 287.43891,265.35236 -14.84924,-1.94455 -9.45756,-7.77817"
           id="path4386-8-3"
           d="m 287.43891,265.35236 -14.84924,-1.94455 -9.45756,-7.77817"
           inkscape:connector-curvature="0"
           sodipodi:nodetypes="ccc" />
        <path
           style="fill:none;fill-rule:evenodd;stroke:#000000;stroke-width:1px;stroke-linecap:butt;stroke-linejoin:miter;stroke-opacity:1"
           inkscape:path-effect="#path-effect4392-5-2"
           inkscape:original-d="m 283.54982,271.00921 -14.05375,0.0884 -7.77817,-5.83363"
           id="path4390-5-0"
           d="m 283.54982,271.00921 -14.05375,0.0884 -7.77817,-5.83363"
           inkscape:connector-curvature="0"
           sodipodi:nodetypes="ccc" />
        <path
           style="fill:none;fill-rule:evenodd;stroke:#000000;stroke-width:1px;stroke-linecap:butt;stroke-linejoin:miter;stroke-opacity:1"
           inkscape:path-effect="#path-effect4396-3-5"
           inkscape:original-d="m 282.13561,277.72672 -16.26346,0.35355 -7.6014,2.56327"
           id="path4394-2-0"
           d="m 282.13561,277.72672 -16.26346,0.35355 -7.6014,2.56327"
           inkscape:connector-curvature="0"
           sodipodi:nodetypes="ccc" />
        <path
           style="fill:none;fill-rule:evenodd;stroke:#000000;stroke-width:1px;stroke-linecap:butt;stroke-linejoin:miter;stroke-opacity:1"
           inkscape:path-effect="#path-effect4400-0-1"
           inkscape:original-d="m 277.89297,285.5049 -14.31892,-1.14905 -8.75045,1.85616"
           id="path4398-3-3"
           d="m 277.89297,285.5049 -14.31892,-1.14905 -8.75045,1.85616"
           inkscape:connector-curvature="0"
           sodipodi:nodetypes="ccc" />
        <path
           style="fill:none;fill-rule:evenodd;stroke:#000000;stroke-width:1px;stroke-linecap:butt;stroke-linejoin:miter;stroke-opacity:1"
           inkscape:path-effect="#path-effect4404-5-7"
           inkscape:original-d="m 275.77165,291.16175 -13.25826,1.50261 -12.72792,-4.41942"
           id="path4402-1-8"
           d="m 275.77165,291.16175 -13.25826,1.50261 -12.72792,-4.41942"
           inkscape:connector-curvature="0"
           sodipodi:nodetypes="ccc" />
      </g>
      <g
         id="g4459-7-4-5"
         style="display:inline"
         transform="matrix(-0.50145097,0.63148775,-0.63148775,-0.50145097,702.57048,372.78026)">
        <path
           style="fill:none;fill-rule:evenodd;stroke:#000000;stroke-width:1px;stroke-linecap:butt;stroke-linejoin:miter;stroke-opacity:1"
           inkscape:path-effect="#path-effect4316-4-6-9"
           inkscape:original-d="m 323.1478,223.2795 -13.34665,-12.28598 -13.87696,-4.5962"
           id="path4314-7-7-8"
           d="m 323.1478,223.2795 -13.34665,-12.28598 -13.87696,-4.5962"
           inkscape:connector-curvature="0"
           sodipodi:nodetypes="ccc" />
        <path
           style="fill:none;fill-rule:evenodd;stroke:#000000;stroke-width:1px;stroke-linecap:butt;stroke-linejoin:miter;stroke-opacity:1"
           inkscape:path-effect="#path-effect4320-5-8-3"
           inkscape:original-d="m 310.77343,233.179 -10.25305,-3.27037 -14.14214,-3.62393"
           id="path4318-2-4-1"
           d="m 310.77343,233.179 c -3.39021,-1.17389 -6.80927,-2.26445 -10.25305,-3.27037 -4.67203,-1.36469 -9.38957,-2.57356 -14.14214,-3.62393"
           inkscape:connector-curvature="0"
           sodipodi:nodetypes="ccc" />
        <path
           style="fill:none;fill-rule:evenodd;stroke:#000000;stroke-width:1px;stroke-linecap:butt;stroke-linejoin:miter;stroke-opacity:1"
           inkscape:path-effect="#path-effect4332-4-0-5"
           inkscape:original-d="m 315.36962,228.5828 -16.88217,-6.27557 -8.13172,-8.57367"
           id="path4330-2-0-3"
           d="m 315.36962,228.5828 -16.88217,-6.27557 -8.13172,-8.57367"
           inkscape:connector-curvature="0"
           sodipodi:nodetypes="ccc" />
        <path
           style="fill:none;fill-rule:evenodd;stroke:#000000;stroke-width:1px;stroke-linecap:butt;stroke-linejoin:miter;stroke-opacity:1"
           inkscape:path-effect="#path-effect4344-1-9-3"
           inkscape:original-d="m 299.45972,245.90692 -11.84404,-2.47487 -6.80589,-7.6898"
           id="path4342-0-9-1"
           d="m 299.45972,245.90692 -11.84404,-2.47487 -6.80589,-7.6898"
           inkscape:connector-curvature="0"
           sodipodi:nodetypes="ccc" />
        <path
           style="fill:none;fill-rule:evenodd;stroke:#000000;stroke-width:1px;stroke-linecap:butt;stroke-linejoin:miter;stroke-opacity:1"
           inkscape:path-effect="#path-effect4356-3-1-7"
           inkscape:original-d="m 305.11658,239.54296 -13.08147,-3.88909 -6.44691,-0.15366"
           id="path4354-7-1-1"
           d="m 305.11658,239.54296 -13.08147,-3.88909 -6.44691,-0.15366"
           inkscape:connector-curvature="0"
           sodipodi:nodetypes="ccc" />
        <path
           style="fill:none;fill-rule:evenodd;stroke:#000000;stroke-width:1px;stroke-linecap:butt;stroke-linejoin:miter;stroke-opacity:1"
           inkscape:path-effect="#path-effect4368-5-8-9"
           inkscape:original-d="m 294.86353,253.33154 -13.87697,-3.44714 -2.56327,-7.68979"
           id="path4366-6-7-9"
           d="m 294.86353,253.33154 -13.87697,-3.44714 -2.56327,-7.68979"
           inkscape:connector-curvature="0"
           sodipodi:nodetypes="ccc" />
        <path
           style="fill:none;fill-rule:evenodd;stroke:#000000;stroke-width:1px;stroke-linecap:butt;stroke-linejoin:miter;stroke-opacity:1"
           inkscape:path-effect="#path-effect4384-7-4-0"
           inkscape:original-d="m 290.26733,257.92774 -13.96535,-3.44715 -9.28078,1.14904"
           id="path4382-8-8-9"
           d="m 290.26733,257.92774 -13.96535,-3.44715 -9.28078,1.14904"
           inkscape:connector-curvature="0"
           sodipodi:nodetypes="ccc" />
        <path
           style="fill:none;fill-rule:evenodd;stroke:#000000;stroke-width:1px;stroke-linecap:butt;stroke-linejoin:miter;stroke-opacity:1"
           inkscape:path-effect="#path-effect4388-4-8-7"
           inkscape:original-d="m 287.43891,265.35236 -14.84924,-1.94455 -9.45756,-7.77817"
           id="path4386-8-3-7"
           d="m 287.43891,265.35236 -14.84924,-1.94455 -9.45756,-7.77817"
           inkscape:connector-curvature="0"
           sodipodi:nodetypes="ccc" />
        <path
           style="fill:none;fill-rule:evenodd;stroke:#000000;stroke-width:1px;stroke-linecap:butt;stroke-linejoin:miter;stroke-opacity:1"
           inkscape:path-effect="#path-effect4392-5-2-9"
           inkscape:original-d="m 283.54982,271.00921 -14.05375,0.0884 -7.77817,-5.83363"
           id="path4390-5-0-9"
           d="m 283.54982,271.00921 -14.05375,0.0884 -7.77817,-5.83363"
           inkscape:connector-curvature="0"
           sodipodi:nodetypes="ccc" />
        <path
           style="fill:none;fill-rule:evenodd;stroke:#000000;stroke-width:1px;stroke-linecap:butt;stroke-linejoin:miter;stroke-opacity:1"
           inkscape:path-effect="#path-effect4396-3-5-1"
           inkscape:original-d="m 282.13561,277.72672 -16.26346,0.35355 -7.6014,2.56327"
           id="path4394-2-0-8"
           d="m 282.13561,277.72672 -16.26346,0.35355 -7.6014,2.56327"
           inkscape:connector-curvature="0"
           sodipodi:nodetypes="ccc" />
        <path
           style="fill:none;fill-rule:evenodd;stroke:#000000;stroke-width:1px;stroke-linecap:butt;stroke-linejoin:miter;stroke-opacity:1"
           inkscape:path-effect="#path-effect4400-0-1-8"
           inkscape:original-d="m 277.89297,285.5049 -14.31892,-1.14905 -8.75045,1.85616"
           id="path4398-3-3-9"
           d="m 277.89297,285.5049 -14.31892,-1.14905 -8.75045,1.85616"
           inkscape:connector-curvature="0"
           sodipodi:nodetypes="ccc" />
        <path
           style="fill:none;fill-rule:evenodd;stroke:#000000;stroke-width:1px;stroke-linecap:butt;stroke-linejoin:miter;stroke-opacity:1"
           inkscape:path-effect="#path-effect4404-5-7-7"
           inkscape:original-d="m 275.77165,291.16175 -13.25826,1.50261 -12.72792,-4.41942"
           id="path4402-1-8-9"
           d="m 275.77165,291.16175 -13.25826,1.50261 -12.72792,-4.41942"
           inkscape:connector-curvature="0"
           sodipodi:nodetypes="ccc" />
      </g>
      <g
         id="g4459-77"
         style="display:inline"
         transform="matrix(0.80268759,-0.07695766,0.07695766,0.80268759,-41.609664,243.56182)">
        <path
           style="fill:none;fill-rule:evenodd;stroke:#000000;stroke-width:1px;stroke-linecap:butt;stroke-linejoin:miter;stroke-opacity:1"
           inkscape:path-effect="#path-effect4316-7"
           inkscape:original-d="m 323.1478,223.2795 -13.34665,-12.28598 -13.87696,-4.5962"
           id="path4314-5"
           d="m 323.1478,223.2795 -13.34665,-12.28598 -13.87696,-4.5962"
           inkscape:connector-curvature="0"
           sodipodi:nodetypes="ccc" />
        <path
           style="fill:none;fill-rule:evenodd;stroke:#000000;stroke-width:1px;stroke-linecap:butt;stroke-linejoin:miter;stroke-opacity:1"
           inkscape:path-effect="#path-effect4320-4"
           inkscape:original-d="m 310.77343,233.179 -10.25305,-3.27037 -14.14214,-3.62393"
           id="path4318-8"
           d="m 310.77343,233.179 c -3.39021,-1.17389 -6.80927,-2.26445 -10.25305,-3.27037 -4.67203,-1.36469 -9.38957,-2.57356 -14.14214,-3.62393"
           inkscape:connector-curvature="0"
           sodipodi:nodetypes="ccc" />
        <path
           style="fill:none;fill-rule:evenodd;stroke:#000000;stroke-width:1px;stroke-linecap:butt;stroke-linejoin:miter;stroke-opacity:1"
           inkscape:path-effect="#path-effect4332-1"
           inkscape:original-d="m 315.36962,228.5828 -16.88217,-6.27557 -8.13172,-8.57367"
           id="path4330-5"
           d="m 315.36962,228.5828 -16.88217,-6.27557 -8.13172,-8.57367"
           inkscape:connector-curvature="0"
           sodipodi:nodetypes="ccc" />
        <path
           style="fill:none;fill-rule:evenodd;stroke:#000000;stroke-width:1px;stroke-linecap:butt;stroke-linejoin:miter;stroke-opacity:1"
           inkscape:path-effect="#path-effect4344-7"
           inkscape:original-d="m 299.45972,245.90692 -11.84404,-2.47487 -6.80589,-7.6898"
           id="path4342-1"
           d="m 299.45972,245.90692 -11.84404,-2.47487 -6.80589,-7.6898"
           inkscape:connector-curvature="0"
           sodipodi:nodetypes="ccc" />
        <path
           style="fill:none;fill-rule:evenodd;stroke:#000000;stroke-width:1px;stroke-linecap:butt;stroke-linejoin:miter;stroke-opacity:1"
           inkscape:path-effect="#path-effect4356-7"
           inkscape:original-d="m 305.11658,239.54296 -13.08147,-3.88909 -6.44691,-0.15366"
           id="path4354-8"
           d="m 305.11658,239.54296 -13.08147,-3.88909 -6.44691,-0.15366"
           inkscape:connector-curvature="0"
           sodipodi:nodetypes="ccc" />
        <path
           style="fill:none;fill-rule:evenodd;stroke:#000000;stroke-width:1px;stroke-linecap:butt;stroke-linejoin:miter;stroke-opacity:1"
           inkscape:path-effect="#path-effect4368-1"
           inkscape:original-d="m 294.86353,253.33154 -13.87697,-3.44714 -2.56327,-7.68979"
           id="path4366-8"
           d="m 294.86353,253.33154 -13.87697,-3.44714 -2.56327,-7.68979"
           inkscape:connector-curvature="0"
           sodipodi:nodetypes="ccc" />
        <path
           style="fill:none;fill-rule:evenodd;stroke:#000000;stroke-width:1px;stroke-linecap:butt;stroke-linejoin:miter;stroke-opacity:1"
           inkscape:path-effect="#path-effect4384-8"
           inkscape:original-d="m 290.26733,257.92774 -13.96535,-3.44715 -9.28078,1.14904"
           id="path4382-6"
           d="m 290.26733,257.92774 -13.96535,-3.44715 -9.28078,1.14904"
           inkscape:connector-curvature="0"
           sodipodi:nodetypes="ccc" />
        <path
           style="fill:none;fill-rule:evenodd;stroke:#000000;stroke-width:1px;stroke-linecap:butt;stroke-linejoin:miter;stroke-opacity:1"
           inkscape:path-effect="#path-effect4388-1"
           inkscape:original-d="m 287.43891,265.35236 -14.84924,-1.94455 -9.45756,-7.77817"
           id="path4386-0"
           d="m 287.43891,265.35236 -14.84924,-1.94455 -9.45756,-7.77817"
           inkscape:connector-curvature="0"
           sodipodi:nodetypes="ccc" />
        <path
           style="fill:none;fill-rule:evenodd;stroke:#000000;stroke-width:1px;stroke-linecap:butt;stroke-linejoin:miter;stroke-opacity:1"
           inkscape:path-effect="#path-effect4392-7"
           inkscape:original-d="m 283.54982,271.00921 -14.05375,0.0884 -7.77817,-5.83363"
           id="path4390-9"
           d="m 283.54982,271.00921 -14.05375,0.0884 -7.77817,-5.83363"
           inkscape:connector-curvature="0"
           sodipodi:nodetypes="ccc" />
        <path
           style="fill:none;fill-rule:evenodd;stroke:#000000;stroke-width:1px;stroke-linecap:butt;stroke-linejoin:miter;stroke-opacity:1"
           inkscape:path-effect="#path-effect4396-2"
           inkscape:original-d="m 282.13561,277.72672 -16.26346,0.35355 -7.6014,2.56327"
           id="path4394-5"
           d="m 282.13561,277.72672 -16.26346,0.35355 -7.6014,2.56327"
           inkscape:connector-curvature="0"
           sodipodi:nodetypes="ccc" />
        <path
           style="fill:none;fill-rule:evenodd;stroke:#000000;stroke-width:1px;stroke-linecap:butt;stroke-linejoin:miter;stroke-opacity:1"
           inkscape:path-effect="#path-effect4400-06"
           inkscape:original-d="m 277.89297,285.5049 -14.31892,-1.14905 -8.75045,1.85616"
           id="path4398-9"
           d="m 277.89297,285.5049 -14.31892,-1.14905 -8.75045,1.85616"
           inkscape:connector-curvature="0"
           sodipodi:nodetypes="ccc" />
        <path
           style="fill:none;fill-rule:evenodd;stroke:#000000;stroke-width:1px;stroke-linecap:butt;stroke-linejoin:miter;stroke-opacity:1"
           inkscape:path-effect="#path-effect4404-4"
           inkscape:original-d="m 275.77165,291.16175 -13.25826,1.50261 -12.72792,-4.41942"
           id="path4402-9"
           d="m 275.77165,291.16175 -13.25826,1.50261 -12.72792,-4.41942"
           inkscape:connector-curvature="0"
           sodipodi:nodetypes="ccc" />
      </g>
      <g
         id="g4459-7-9"
         style="display:inline"
         transform="matrix(0.65205603,0.4743973,-0.4743973,0.65205603,189.63287,69.684736)">
        <path
           style="fill:none;fill-rule:evenodd;stroke:#000000;stroke-width:1px;stroke-linecap:butt;stroke-linejoin:miter;stroke-opacity:1"
           inkscape:path-effect="#path-effect4316-4-7"
           inkscape:original-d="m 323.1478,223.2795 -13.34665,-12.28598 -13.87696,-4.5962"
           id="path4314-7-8"
           d="m 323.1478,223.2795 -13.34665,-12.28598 -13.87696,-4.5962"
           inkscape:connector-curvature="0"
           sodipodi:nodetypes="ccc" />
        <path
           style="fill:none;fill-rule:evenodd;stroke:#000000;stroke-width:1px;stroke-linecap:butt;stroke-linejoin:miter;stroke-opacity:1"
           inkscape:path-effect="#path-effect4320-5-9"
           inkscape:original-d="m 310.77343,233.179 -10.25305,-3.27037 -14.14214,-3.62393"
           id="path4318-2-7"
           d="m 310.77343,233.179 c -3.39021,-1.17389 -6.80927,-2.26445 -10.25305,-3.27037 -4.67203,-1.36469 -9.38957,-2.57356 -14.14214,-3.62393"
           inkscape:connector-curvature="0"
           sodipodi:nodetypes="ccc" />
        <path
           style="fill:none;fill-rule:evenodd;stroke:#000000;stroke-width:1px;stroke-linecap:butt;stroke-linejoin:miter;stroke-opacity:1"
           inkscape:path-effect="#path-effect4332-4-8"
           inkscape:original-d="m 315.36962,228.5828 -16.88217,-6.27557 -8.13172,-8.57367"
           id="path4330-2-5"
           d="m 315.36962,228.5828 -16.88217,-6.27557 -8.13172,-8.57367"
           inkscape:connector-curvature="0"
           sodipodi:nodetypes="ccc" />
        <path
           style="fill:none;fill-rule:evenodd;stroke:#000000;stroke-width:1px;stroke-linecap:butt;stroke-linejoin:miter;stroke-opacity:1"
           inkscape:path-effect="#path-effect4344-1-6"
           inkscape:original-d="m 299.45972,245.90692 -11.84404,-2.47487 -6.80589,-7.6898"
           id="path4342-0-2"
           d="m 299.45972,245.90692 -11.84404,-2.47487 -6.80589,-7.6898"
           inkscape:connector-curvature="0"
           sodipodi:nodetypes="ccc" />
        <path
           style="fill:none;fill-rule:evenodd;stroke:#000000;stroke-width:1px;stroke-linecap:butt;stroke-linejoin:miter;stroke-opacity:1"
           inkscape:path-effect="#path-effect4356-3-8"
           inkscape:original-d="m 305.11658,239.54296 -13.08147,-3.88909 -6.44691,-0.15366"
           id="path4354-7-6"
           d="m 305.11658,239.54296 -13.08147,-3.88909 -6.44691,-0.15366"
           inkscape:connector-curvature="0"
           sodipodi:nodetypes="ccc" />
        <path
           style="fill:none;fill-rule:evenodd;stroke:#000000;stroke-width:1px;stroke-linecap:butt;stroke-linejoin:miter;stroke-opacity:1"
           inkscape:path-effect="#path-effect4368-5-4"
           inkscape:original-d="m 294.86353,253.33154 -13.87697,-3.44714 -2.56327,-7.68979"
           id="path4366-6-5"
           d="m 294.86353,253.33154 -13.87697,-3.44714 -2.56327,-7.68979"
           inkscape:connector-curvature="0"
           sodipodi:nodetypes="ccc" />
        <path
           style="fill:none;fill-rule:evenodd;stroke:#000000;stroke-width:1px;stroke-linecap:butt;stroke-linejoin:miter;stroke-opacity:1"
           inkscape:path-effect="#path-effect4384-7-9"
           inkscape:original-d="m 290.26733,257.92774 -13.96535,-3.44715 -9.28078,1.14904"
           id="path4382-8-86"
           d="m 290.26733,257.92774 -13.96535,-3.44715 -9.28078,1.14904"
           inkscape:connector-curvature="0"
           sodipodi:nodetypes="ccc" />
        <path
           style="fill:none;fill-rule:evenodd;stroke:#000000;stroke-width:1px;stroke-linecap:butt;stroke-linejoin:miter;stroke-opacity:1"
           inkscape:path-effect="#path-effect4388-4-6"
           inkscape:original-d="m 287.43891,265.35236 -14.84924,-1.94455 -9.45756,-7.77817"
           id="path4386-8-2"
           d="m 287.43891,265.35236 -14.84924,-1.94455 -9.45756,-7.77817"
           inkscape:connector-curvature="0"
           sodipodi:nodetypes="ccc" />
        <path
           style="fill:none;fill-rule:evenodd;stroke:#000000;stroke-width:1px;stroke-linecap:butt;stroke-linejoin:miter;stroke-opacity:1"
           inkscape:path-effect="#path-effect4392-5-4"
           inkscape:original-d="m 283.54982,271.00921 -14.05375,0.0884 -7.77817,-5.83363"
           id="path4390-5-1"
           d="m 283.54982,271.00921 -14.05375,0.0884 -7.77817,-5.83363"
           inkscape:connector-curvature="0"
           sodipodi:nodetypes="ccc" />
        <path
           style="fill:none;fill-rule:evenodd;stroke:#000000;stroke-width:1px;stroke-linecap:butt;stroke-linejoin:miter;stroke-opacity:1"
           inkscape:path-effect="#path-effect4396-3-0"
           inkscape:original-d="m 282.13561,277.72672 -16.26346,0.35355 -7.6014,2.56327"
           id="path4394-2-5"
           d="m 282.13561,277.72672 -16.26346,0.35355 -7.6014,2.56327"
           inkscape:connector-curvature="0"
           sodipodi:nodetypes="ccc" />
        <path
           style="fill:none;fill-rule:evenodd;stroke:#000000;stroke-width:1px;stroke-linecap:butt;stroke-linejoin:miter;stroke-opacity:1"
           inkscape:path-effect="#path-effect4400-0-4"
           inkscape:original-d="m 277.89297,285.5049 -14.31892,-1.14905 -8.75045,1.85616"
           id="path4398-3-0"
           d="m 277.89297,285.5049 -14.31892,-1.14905 -8.75045,1.85616"
           inkscape:connector-curvature="0"
           sodipodi:nodetypes="ccc" />
        <path
           style="fill:none;fill-rule:evenodd;stroke:#000000;stroke-width:1px;stroke-linecap:butt;stroke-linejoin:miter;stroke-opacity:1"
           inkscape:path-effect="#path-effect4404-5-5"
           inkscape:original-d="m 275.77165,291.16175 -13.25826,1.50261 -12.72792,-4.41942"
           id="path4402-1-9"
           d="m 275.77165,291.16175 -13.25826,1.50261 -12.72792,-4.41942"
           inkscape:connector-curvature="0"
           sodipodi:nodetypes="ccc" />
      </g>
      <g
         id="g4459-7-4-2"
         style="display:inline"
         transform="matrix(0.24774073,0.76736848,-0.76736848,0.24774073,452.45223,80.861468)">
        <path
           style="fill:none;fill-rule:evenodd;stroke:#000000;stroke-width:1px;stroke-linecap:butt;stroke-linejoin:miter;stroke-opacity:1"
           inkscape:path-effect="#path-effect4316-4-6-5"
           inkscape:original-d="m 323.1478,223.2795 -13.34665,-12.28598 -13.87696,-4.5962"
           id="path4314-7-7-9"
           d="m 323.1478,223.2795 -13.34665,-12.28598 -13.87696,-4.5962"
           inkscape:connector-curvature="0"
           sodipodi:nodetypes="ccc" />
        <path
           style="fill:none;fill-rule:evenodd;stroke:#000000;stroke-width:1px;stroke-linecap:butt;stroke-linejoin:miter;stroke-opacity:1"
           inkscape:path-effect="#path-effect4320-5-8-2"
           inkscape:original-d="m 310.77343,233.179 -10.25305,-3.27037 -14.14214,-3.62393"
           id="path4318-2-4-3"
           d="m 310.77343,233.179 c -3.39021,-1.17389 -6.80927,-2.26445 -10.25305,-3.27037 -4.67203,-1.36469 -9.38957,-2.57356 -14.14214,-3.62393"
           inkscape:connector-curvature="0"
           sodipodi:nodetypes="ccc" />
        <path
           style="fill:none;fill-rule:evenodd;stroke:#000000;stroke-width:1px;stroke-linecap:butt;stroke-linejoin:miter;stroke-opacity:1"
           inkscape:path-effect="#path-effect4332-4-0-4"
           inkscape:original-d="m 315.36962,228.5828 -16.88217,-6.27557 -8.13172,-8.57367"
           id="path4330-2-0-8"
           d="m 315.36962,228.5828 -16.88217,-6.27557 -8.13172,-8.57367"
           inkscape:connector-curvature="0"
           sodipodi:nodetypes="ccc" />
        <path
           style="fill:none;fill-rule:evenodd;stroke:#000000;stroke-width:1px;stroke-linecap:butt;stroke-linejoin:miter;stroke-opacity:1"
           inkscape:path-effect="#path-effect4344-1-9-6"
           inkscape:original-d="m 299.45972,245.90692 -11.84404,-2.47487 -6.80589,-7.6898"
           id="path4342-0-9-6"
           d="m 299.45972,245.90692 -11.84404,-2.47487 -6.80589,-7.6898"
           inkscape:connector-curvature="0"
           sodipodi:nodetypes="ccc" />
        <path
           style="fill:none;fill-rule:evenodd;stroke:#000000;stroke-width:1px;stroke-linecap:butt;stroke-linejoin:miter;stroke-opacity:1"
           inkscape:path-effect="#path-effect4356-3-1-1"
           inkscape:original-d="m 305.11658,239.54296 -13.08147,-3.88909 -6.44691,-0.15366"
           id="path4354-7-1-2"
           d="m 305.11658,239.54296 -13.08147,-3.88909 -6.44691,-0.15366"
           inkscape:connector-curvature="0"
           sodipodi:nodetypes="ccc" />
        <path
           style="fill:none;fill-rule:evenodd;stroke:#000000;stroke-width:1px;stroke-linecap:butt;stroke-linejoin:miter;stroke-opacity:1"
           inkscape:path-effect="#path-effect4368-5-8-3"
           inkscape:original-d="m 294.86353,253.33154 -13.87697,-3.44714 -2.56327,-7.68979"
           id="path4366-6-7-7"
           d="m 294.86353,253.33154 -13.87697,-3.44714 -2.56327,-7.68979"
           inkscape:connector-curvature="0"
           sodipodi:nodetypes="ccc" />
        <path
           style="fill:none;fill-rule:evenodd;stroke:#000000;stroke-width:1px;stroke-linecap:butt;stroke-linejoin:miter;stroke-opacity:1"
           inkscape:path-effect="#path-effect4384-7-4-5"
           inkscape:original-d="m 290.26733,257.92774 -13.96535,-3.44715 -9.28078,1.14904"
           id="path4382-8-8-5"
           d="m 290.26733,257.92774 -13.96535,-3.44715 -9.28078,1.14904"
           inkscape:connector-curvature="0"
           sodipodi:nodetypes="ccc" />
        <path
           style="fill:none;fill-rule:evenodd;stroke:#000000;stroke-width:1px;stroke-linecap:butt;stroke-linejoin:miter;stroke-opacity:1"
           inkscape:path-effect="#path-effect4388-4-8-1"
           inkscape:original-d="m 287.43891,265.35236 -14.84924,-1.94455 -9.45756,-7.77817"
           id="path4386-8-3-0"
           d="m 287.43891,265.35236 -14.84924,-1.94455 -9.45756,-7.77817"
           inkscape:connector-curvature="0"
           sodipodi:nodetypes="ccc" />
        <path
           style="fill:none;fill-rule:evenodd;stroke:#000000;stroke-width:1px;stroke-linecap:butt;stroke-linejoin:miter;stroke-opacity:1"
           inkscape:path-effect="#path-effect4392-5-2-1"
           inkscape:original-d="m 283.54982,271.00921 -14.05375,0.0884 -7.77817,-5.83363"
           id="path4390-5-0-92"
           d="m 283.54982,271.00921 -14.05375,0.0884 -7.77817,-5.83363"
           inkscape:connector-curvature="0"
           sodipodi:nodetypes="ccc" />
        <path
           style="fill:none;fill-rule:evenodd;stroke:#000000;stroke-width:1px;stroke-linecap:butt;stroke-linejoin:miter;stroke-opacity:1"
           inkscape:path-effect="#path-effect4396-3-5-4"
           inkscape:original-d="m 282.13561,277.72672 -16.26346,0.35355 -7.6014,2.56327"
           id="path4394-2-0-5"
           d="m 282.13561,277.72672 -16.26346,0.35355 -7.6014,2.56327"
           inkscape:connector-curvature="0"
           sodipodi:nodetypes="ccc" />
        <path
           style="fill:none;fill-rule:evenodd;stroke:#000000;stroke-width:1px;stroke-linecap:butt;stroke-linejoin:miter;stroke-opacity:1"
           inkscape:path-effect="#path-effect4400-0-1-5"
           inkscape:original-d="m 277.89297,285.5049 -14.31892,-1.14905 -8.75045,1.85616"
           id="path4398-3-3-90"
           d="m 277.89297,285.5049 -14.31892,-1.14905 -8.75045,1.85616"
           inkscape:connector-curvature="0"
           sodipodi:nodetypes="ccc" />
        <path
           style="fill:none;fill-rule:evenodd;stroke:#000000;stroke-width:1px;stroke-linecap:butt;stroke-linejoin:miter;stroke-opacity:1"
           inkscape:path-effect="#path-effect4404-5-7-0"
           inkscape:original-d="m 275.77165,291.16175 -13.25826,1.50261 -12.72792,-4.41942"
           id="path4402-1-8-7"
           d="m 275.77165,291.16175 -13.25826,1.50261 -12.72792,-4.41942"
           inkscape:connector-curvature="0"
           sodipodi:nodetypes="ccc" />
      </g>
      <g
         id="g4459-7-4-52"
         style="display:inline"
         transform="matrix(-0.17614044,0.78689542,-0.78689542,-0.17614044,623.35537,205.87275)">
        <path
           style="fill:none;fill-rule:evenodd;stroke:#000000;stroke-width:1px;stroke-linecap:butt;stroke-linejoin:miter;stroke-opacity:1"
           inkscape:path-effect="#path-effect4316-4-6-2"
           inkscape:original-d="m 323.1478,223.2795 -13.34665,-12.28598 -13.87696,-4.5962"
           id="path4314-7-7-2"
           d="m 323.1478,223.2795 -13.34665,-12.28598 -13.87696,-4.5962"
           inkscape:connector-curvature="0"
           sodipodi:nodetypes="ccc" />
        <path
           style="fill:none;fill-rule:evenodd;stroke:#000000;stroke-width:1px;stroke-linecap:butt;stroke-linejoin:miter;stroke-opacity:1"
           inkscape:path-effect="#path-effect4320-5-8-5"
           inkscape:original-d="m 310.77343,233.179 -10.25305,-3.27037 -14.14214,-3.62393"
           id="path4318-2-4-8"
           d="m 310.77343,233.179 c -3.39021,-1.17389 -6.80927,-2.26445 -10.25305,-3.27037 -4.67203,-1.36469 -9.38957,-2.57356 -14.14214,-3.62393"
           inkscape:connector-curvature="0"
           sodipodi:nodetypes="ccc" />
        <path
           style="fill:none;fill-rule:evenodd;stroke:#000000;stroke-width:1px;stroke-linecap:butt;stroke-linejoin:miter;stroke-opacity:1"
           inkscape:path-effect="#path-effect4332-4-0-7"
           inkscape:original-d="m 315.36962,228.5828 -16.88217,-6.27557 -8.13172,-8.57367"
           id="path4330-2-0-0"
           d="m 315.36962,228.5828 -16.88217,-6.27557 -8.13172,-8.57367"
           inkscape:connector-curvature="0"
           sodipodi:nodetypes="ccc" />
        <path
           style="fill:none;fill-rule:evenodd;stroke:#000000;stroke-width:1px;stroke-linecap:butt;stroke-linejoin:miter;stroke-opacity:1"
           inkscape:path-effect="#path-effect4344-1-9-1"
           inkscape:original-d="m 299.45972,245.90692 -11.84404,-2.47487 -6.80589,-7.6898"
           id="path4342-0-9-11"
           d="m 299.45972,245.90692 -11.84404,-2.47487 -6.80589,-7.6898"
           inkscape:connector-curvature="0"
           sodipodi:nodetypes="ccc" />
        <path
           style="fill:none;fill-rule:evenodd;stroke:#000000;stroke-width:1px;stroke-linecap:butt;stroke-linejoin:miter;stroke-opacity:1"
           inkscape:path-effect="#path-effect4356-3-1-0"
           inkscape:original-d="m 305.11658,239.54296 -13.08147,-3.88909 -6.44691,-0.15366"
           id="path4354-7-1-9"
           d="m 305.11658,239.54296 -13.08147,-3.88909 -6.44691,-0.15366"
           inkscape:connector-curvature="0"
           sodipodi:nodetypes="ccc" />
        <path
           style="fill:none;fill-rule:evenodd;stroke:#000000;stroke-width:1px;stroke-linecap:butt;stroke-linejoin:miter;stroke-opacity:1"
           inkscape:path-effect="#path-effect4368-5-8-1"
           inkscape:original-d="m 294.86353,253.33154 -13.87697,-3.44714 -2.56327,-7.68979"
           id="path4366-6-7-6"
           d="m 294.86353,253.33154 -13.87697,-3.44714 -2.56327,-7.68979"
           inkscape:connector-curvature="0"
           sodipodi:nodetypes="ccc" />
        <path
           style="fill:none;fill-rule:evenodd;stroke:#000000;stroke-width:1px;stroke-linecap:butt;stroke-linejoin:miter;stroke-opacity:1"
           inkscape:path-effect="#path-effect4384-7-4-8"
           inkscape:original-d="m 290.26733,257.92774 -13.96535,-3.44715 -9.28078,1.14904"
           id="path4382-8-8-1"
           d="m 290.26733,257.92774 -13.96535,-3.44715 -9.28078,1.14904"
           inkscape:connector-curvature="0"
           sodipodi:nodetypes="ccc" />
        <path
           style="fill:none;fill-rule:evenodd;stroke:#000000;stroke-width:1px;stroke-linecap:butt;stroke-linejoin:miter;stroke-opacity:1"
           inkscape:path-effect="#path-effect4388-4-8-8"
           inkscape:original-d="m 287.43891,265.35236 -14.84924,-1.94455 -9.45756,-7.77817"
           id="path4386-8-3-1"
           d="m 287.43891,265.35236 -14.84924,-1.94455 -9.45756,-7.77817"
           inkscape:connector-curvature="0"
           sodipodi:nodetypes="ccc" />
        <path
           style="fill:none;fill-rule:evenodd;stroke:#000000;stroke-width:1px;stroke-linecap:butt;stroke-linejoin:miter;stroke-opacity:1"
           inkscape:path-effect="#path-effect4392-5-2-2"
           inkscape:original-d="m 283.54982,271.00921 -14.05375,0.0884 -7.77817,-5.83363"
           id="path4390-5-0-0"
           d="m 283.54982,271.00921 -14.05375,0.0884 -7.77817,-5.83363"
           inkscape:connector-curvature="0"
           sodipodi:nodetypes="ccc" />
        <path
           style="fill:none;fill-rule:evenodd;stroke:#000000;stroke-width:1px;stroke-linecap:butt;stroke-linejoin:miter;stroke-opacity:1"
           inkscape:path-effect="#path-effect4396-3-5-14"
           inkscape:original-d="m 282.13561,277.72672 -16.26346,0.35355 -7.6014,2.56327"
           id="path4394-2-0-80"
           d="m 282.13561,277.72672 -16.26346,0.35355 -7.6014,2.56327"
           inkscape:connector-curvature="0"
           sodipodi:nodetypes="ccc" />
        <path
           style="fill:none;fill-rule:evenodd;stroke:#000000;stroke-width:1px;stroke-linecap:butt;stroke-linejoin:miter;stroke-opacity:1"
           inkscape:path-effect="#path-effect4400-0-1-53"
           inkscape:original-d="m 277.89297,285.5049 -14.31892,-1.14905 -8.75045,1.85616"
           id="path4398-3-3-1"
           d="m 277.89297,285.5049 -14.31892,-1.14905 -8.75045,1.85616"
           inkscape:connector-curvature="0"
           sodipodi:nodetypes="ccc" />
        <path
           style="fill:none;fill-rule:evenodd;stroke:#000000;stroke-width:1px;stroke-linecap:butt;stroke-linejoin:miter;stroke-opacity:1"
           inkscape:path-effect="#path-effect4404-5-7-03"
           inkscape:original-d="m 275.77165,291.16175 -13.25826,1.50261 -12.72792,-4.41942"
           id="path4402-1-8-5"
           d="m 275.77165,291.16175 -13.25826,1.50261 -12.72792,-4.41942"
           inkscape:connector-curvature="0"
           sodipodi:nodetypes="ccc" />
      </g>
      <g
         id="g4459-7-4-5-1"
         style="display:inline"
         transform="matrix(-0.4458686,0.67188619,-0.67188619,-0.4458686,696.6823,343.89238)">
        <path
           style="fill:none;fill-rule:evenodd;stroke:#000000;stroke-width:1px;stroke-linecap:butt;stroke-linejoin:miter;stroke-opacity:1"
           inkscape:path-effect="#path-effect4316-4-6-9-3"
           inkscape:original-d="m 323.1478,223.2795 -13.34665,-12.28598 -13.87696,-4.5962"
           id="path4314-7-7-8-5"
           d="m 323.1478,223.2795 -13.34665,-12.28598 -13.87696,-4.5962"
           inkscape:connector-curvature="0"
           sodipodi:nodetypes="ccc" />
        <path
           style="fill:none;fill-rule:evenodd;stroke:#000000;stroke-width:1px;stroke-linecap:butt;stroke-linejoin:miter;stroke-opacity:1"
           inkscape:path-effect="#path-effect4320-5-8-3-8"
           inkscape:original-d="m 310.77343,233.179 -10.25305,-3.27037 -14.14214,-3.62393"
           id="path4318-2-4-1-1"
           d="m 310.77343,233.179 c -3.39021,-1.17389 -6.80927,-2.26445 -10.25305,-3.27037 -4.67203,-1.36469 -9.38957,-2.57356 -14.14214,-3.62393"
           inkscape:connector-curvature="0"
           sodipodi:nodetypes="ccc" />
        <path
           style="fill:none;fill-rule:evenodd;stroke:#000000;stroke-width:1px;stroke-linecap:butt;stroke-linejoin:miter;stroke-opacity:1"
           inkscape:path-effect="#path-effect4332-4-0-5-4"
           inkscape:original-d="m 315.36962,228.5828 -16.88217,-6.27557 -8.13172,-8.57367"
           id="path4330-2-0-3-6"
           d="m 315.36962,228.5828 -16.88217,-6.27557 -8.13172,-8.57367"
           inkscape:connector-curvature="0"
           sodipodi:nodetypes="ccc" />
        <path
           style="fill:none;fill-rule:evenodd;stroke:#000000;stroke-width:1px;stroke-linecap:butt;stroke-linejoin:miter;stroke-opacity:1"
           inkscape:path-effect="#path-effect4344-1-9-3-6"
           inkscape:original-d="m 299.45972,245.90692 -11.84404,-2.47487 -6.80589,-7.6898"
           id="path4342-0-9-1-7"
           d="m 299.45972,245.90692 -11.84404,-2.47487 -6.80589,-7.6898"
           inkscape:connector-curvature="0"
           sodipodi:nodetypes="ccc" />
        <path
           style="fill:none;fill-rule:evenodd;stroke:#000000;stroke-width:1px;stroke-linecap:butt;stroke-linejoin:miter;stroke-opacity:1"
           inkscape:path-effect="#path-effect4356-3-1-7-1"
           inkscape:original-d="m 305.11658,239.54296 -13.08147,-3.88909 -6.44691,-0.15366"
           id="path4354-7-1-1-5"
           d="m 305.11658,239.54296 -13.08147,-3.88909 -6.44691,-0.15366"
           inkscape:connector-curvature="0"
           sodipodi:nodetypes="ccc" />
        <path
           style="fill:none;fill-rule:evenodd;stroke:#000000;stroke-width:1px;stroke-linecap:butt;stroke-linejoin:miter;stroke-opacity:1"
           inkscape:path-effect="#path-effect4368-5-8-9-6"
           inkscape:original-d="m 294.86353,253.33154 -13.87697,-3.44714 -2.56327,-7.68979"
           id="path4366-6-7-9-7"
           d="m 294.86353,253.33154 -13.87697,-3.44714 -2.56327,-7.68979"
           inkscape:connector-curvature="0"
           sodipodi:nodetypes="ccc" />
        <path
           style="fill:none;fill-rule:evenodd;stroke:#000000;stroke-width:1px;stroke-linecap:butt;stroke-linejoin:miter;stroke-opacity:1"
           inkscape:path-effect="#path-effect4384-7-4-0-4"
           inkscape:original-d="m 290.26733,257.92774 -13.96535,-3.44715 -9.28078,1.14904"
           id="path4382-8-8-9-0"
           d="m 290.26733,257.92774 -13.96535,-3.44715 -9.28078,1.14904"
           inkscape:connector-curvature="0"
           sodipodi:nodetypes="ccc" />
        <path
           style="fill:none;fill-rule:evenodd;stroke:#000000;stroke-width:1px;stroke-linecap:butt;stroke-linejoin:miter;stroke-opacity:1"
           inkscape:path-effect="#path-effect4388-4-8-7-9"
           inkscape:original-d="m 287.43891,265.35236 -14.84924,-1.94455 -9.45756,-7.77817"
           id="path4386-8-3-7-6"
           d="m 287.43891,265.35236 -14.84924,-1.94455 -9.45756,-7.77817"
           inkscape:connector-curvature="0"
           sodipodi:nodetypes="ccc" />
        <path
           style="fill:none;fill-rule:evenodd;stroke:#000000;stroke-width:1px;stroke-linecap:butt;stroke-linejoin:miter;stroke-opacity:1"
           inkscape:path-effect="#path-effect4392-5-2-9-0"
           inkscape:original-d="m 283.54982,271.00921 -14.05375,0.0884 -7.77817,-5.83363"
           id="path4390-5-0-9-8"
           d="m 283.54982,271.00921 -14.05375,0.0884 -7.77817,-5.83363"
           inkscape:connector-curvature="0"
           sodipodi:nodetypes="ccc" />
        <path
           style="fill:none;fill-rule:evenodd;stroke:#000000;stroke-width:1px;stroke-linecap:butt;stroke-linejoin:miter;stroke-opacity:1"
           inkscape:path-effect="#path-effect4396-3-5-1-6"
           inkscape:original-d="m 282.13561,277.72672 -16.26346,0.35355 -7.6014,2.56327"
           id="path4394-2-0-8-9"
           d="m 282.13561,277.72672 -16.26346,0.35355 -7.6014,2.56327"
           inkscape:connector-curvature="0"
           sodipodi:nodetypes="ccc" />
        <path
           style="fill:none;fill-rule:evenodd;stroke:#000000;stroke-width:1px;stroke-linecap:butt;stroke-linejoin:miter;stroke-opacity:1"
           inkscape:path-effect="#path-effect4400-0-1-8-3"
           inkscape:original-d="m 277.89297,285.5049 -14.31892,-1.14905 -8.75045,1.85616"
           id="path4398-3-3-9-5"
           d="m 277.89297,285.5049 -14.31892,-1.14905 -8.75045,1.85616"
           inkscape:connector-curvature="0"
           sodipodi:nodetypes="ccc" />
        <path
           style="fill:none;fill-rule:evenodd;stroke:#000000;stroke-width:1px;stroke-linecap:butt;stroke-linejoin:miter;stroke-opacity:1"
           inkscape:path-effect="#path-effect4404-5-7-7-8"
           inkscape:original-d="m 275.77165,291.16175 -13.25826,1.50261 -12.72792,-4.41942"
           id="path4402-1-8-9-1"
           d="m 275.77165,291.16175 -13.25826,1.50261 -12.72792,-4.41942"
           inkscape:connector-curvature="0"
           sodipodi:nodetypes="ccc" />
      </g>
      <g
         id="g4459-77-1"
         style="display:inline"
         transform="matrix(0.79746762,-0.11947904,0.11947904,0.79746762,-50.614957,252.42365)">
        <path
           style="fill:none;fill-rule:evenodd;stroke:#000000;stroke-width:1px;stroke-linecap:butt;stroke-linejoin:miter;stroke-opacity:1"
           inkscape:path-effect="#path-effect4316-7-0"
           inkscape:original-d="m 323.1478,223.2795 -13.34665,-12.28598 -13.87696,-4.5962"
           id="path4314-5-7"
           d="m 323.1478,223.2795 -13.34665,-12.28598 -13.87696,-4.5962"
           inkscape:connector-curvature="0"
           sodipodi:nodetypes="ccc" />
        <path
           style="fill:none;fill-rule:evenodd;stroke:#000000;stroke-width:1px;stroke-linecap:butt;stroke-linejoin:miter;stroke-opacity:1"
           inkscape:path-effect="#path-effect4320-4-7"
           inkscape:original-d="m 310.77343,233.179 -10.25305,-3.27037 -14.14214,-3.62393"
           id="path4318-8-1"
           d="m 310.77343,233.179 c -3.39021,-1.17389 -6.80927,-2.26445 -10.25305,-3.27037 -4.67203,-1.36469 -9.38957,-2.57356 -14.14214,-3.62393"
           inkscape:connector-curvature="0"
           sodipodi:nodetypes="ccc" />
        <path
           style="fill:none;fill-rule:evenodd;stroke:#000000;stroke-width:1px;stroke-linecap:butt;stroke-linejoin:miter;stroke-opacity:1"
           inkscape:path-effect="#path-effect4332-1-1"
           inkscape:original-d="m 315.36962,228.5828 -16.88217,-6.27557 -8.13172,-8.57367"
           id="path4330-5-9"
           d="m 315.36962,228.5828 -16.88217,-6.27557 -8.13172,-8.57367"
           inkscape:connector-curvature="0"
           sodipodi:nodetypes="ccc" />
        <path
           style="fill:none;fill-rule:evenodd;stroke:#000000;stroke-width:1px;stroke-linecap:butt;stroke-linejoin:miter;stroke-opacity:1"
           inkscape:path-effect="#path-effect4344-7-3"
           inkscape:original-d="m 299.45972,245.90692 -11.84404,-2.47487 -6.80589,-7.6898"
           id="path4342-1-3"
           d="m 299.45972,245.90692 -11.84404,-2.47487 -6.80589,-7.6898"
           inkscape:connector-curvature="0"
           sodipodi:nodetypes="ccc" />
        <path
           style="fill:none;fill-rule:evenodd;stroke:#000000;stroke-width:1px;stroke-linecap:butt;stroke-linejoin:miter;stroke-opacity:1"
           inkscape:path-effect="#path-effect4356-7-8"
           inkscape:original-d="m 305.11658,239.54296 -13.08147,-3.88909 -6.44691,-0.15366"
           id="path4354-8-1"
           d="m 305.11658,239.54296 -13.08147,-3.88909 -6.44691,-0.15366"
           inkscape:connector-curvature="0"
           sodipodi:nodetypes="ccc" />
        <path
           style="fill:none;fill-rule:evenodd;stroke:#000000;stroke-width:1px;stroke-linecap:butt;stroke-linejoin:miter;stroke-opacity:1"
           inkscape:path-effect="#path-effect4368-1-6"
           inkscape:original-d="m 294.86353,253.33154 -13.87697,-3.44714 -2.56327,-7.68979"
           id="path4366-8-0"
           d="m 294.86353,253.33154 -13.87697,-3.44714 -2.56327,-7.68979"
           inkscape:connector-curvature="0"
           sodipodi:nodetypes="ccc" />
        <path
           style="fill:none;fill-rule:evenodd;stroke:#000000;stroke-width:1px;stroke-linecap:butt;stroke-linejoin:miter;stroke-opacity:1"
           inkscape:path-effect="#path-effect4384-8-8"
           inkscape:original-d="m 290.26733,257.92774 -13.96535,-3.44715 -9.28078,1.14904"
           id="path4382-6-8"
           d="m 290.26733,257.92774 -13.96535,-3.44715 -9.28078,1.14904"
           inkscape:connector-curvature="0"
           sodipodi:nodetypes="ccc" />
        <path
           style="fill:none;fill-rule:evenodd;stroke:#000000;stroke-width:1px;stroke-linecap:butt;stroke-linejoin:miter;stroke-opacity:1"
           inkscape:path-effect="#path-effect4388-1-7"
           inkscape:original-d="m 287.43891,265.35236 -14.84924,-1.94455 -9.45756,-7.77817"
           id="path4386-0-2"
           d="m 287.43891,265.35236 -14.84924,-1.94455 -9.45756,-7.77817"
           inkscape:connector-curvature="0"
           sodipodi:nodetypes="ccc" />
        <path
           style="fill:none;fill-rule:evenodd;stroke:#000000;stroke-width:1px;stroke-linecap:butt;stroke-linejoin:miter;stroke-opacity:1"
           inkscape:path-effect="#path-effect4392-7-2"
           inkscape:original-d="m 283.54982,271.00921 -14.05375,0.0884 -7.77817,-5.83363"
           id="path4390-9-8"
           d="m 283.54982,271.00921 -14.05375,0.0884 -7.77817,-5.83363"
           inkscape:connector-curvature="0"
           sodipodi:nodetypes="ccc" />
        <path
           style="fill:none;fill-rule:evenodd;stroke:#000000;stroke-width:1px;stroke-linecap:butt;stroke-linejoin:miter;stroke-opacity:1"
           inkscape:path-effect="#path-effect4396-2-4"
           inkscape:original-d="m 282.13561,277.72672 -16.26346,0.35355 -7.6014,2.56327"
           id="path4394-5-8"
           d="m 282.13561,277.72672 -16.26346,0.35355 -7.6014,2.56327"
           inkscape:connector-curvature="0"
           sodipodi:nodetypes="ccc" />
        <path
           style="fill:none;fill-rule:evenodd;stroke:#000000;stroke-width:1px;stroke-linecap:butt;stroke-linejoin:miter;stroke-opacity:1"
           inkscape:path-effect="#path-effect4400-06-8"
           inkscape:original-d="m 277.89297,285.5049 -14.31892,-1.14905 -8.75045,1.85616"
           id="path4398-9-7"
           d="m 277.89297,285.5049 -14.31892,-1.14905 -8.75045,1.85616"
           inkscape:connector-curvature="0"
           sodipodi:nodetypes="ccc" />
        <path
           style="fill:none;fill-rule:evenodd;stroke:#000000;stroke-width:1px;stroke-linecap:butt;stroke-linejoin:miter;stroke-opacity:1"
           inkscape:path-effect="#path-effect4404-4-0"
           inkscape:original-d="m 275.77165,291.16175 -13.25826,1.50261 -12.72792,-4.41942"
           id="path4402-9-5"
           d="m 275.77165,291.16175 -13.25826,1.50261 -12.72792,-4.41942"
           inkscape:connector-curvature="0"
           sodipodi:nodetypes="ccc" />
      </g>
      <path
         sodipodi:nodetypes="cscc"
         inkscape:connector-curvature="0"
         id="path9814-6"
         d="m 248.15337,494.9217 c 0,0 19.99609,31.17049 53.22901,30.9512 38.13419,-0.25163 52.96419,-30.9512 52.96419,-30.9512 z"
         style="display:inline;fill:none;fill-rule:evenodd;stroke:#000000;stroke-width:5.11099482;stroke-linecap:butt;stroke-linejoin:round;stroke-miterlimit:4;stroke-dasharray:none;stroke-dashoffset:0;stroke-opacity:1" />
    </g>
    <text
       xml:space="preserve"
       style="font-style:normal;font-weight:normal;font-size:50px;line-height:125%;font-family:Sans;letter-spacing:0px;word-spacing:0px;fill:#000000;fill-opacity:1;stroke:none;stroke-width:1px;stroke-linecap:butt;stroke-linejoin:miter;stroke-opacity:1"
       x="32.508789"
       y="44.465153"
       id="text5635"
       sodipodi:linespacing="125%"><tspan
         sodipodi:role="line"
         id="tspan5637"
         x="32.508789"
         y="44.465153">63 BC</tspan></text>
  </g>
</svg>
