<?xml version="1.0" encoding="UTF-8" standalone="no"?>
<!-- Created with Inkscape (http://www.inkscape.org/) -->

<svg
   xmlns:osb="http://www.openswatchbook.org/uri/2009/osb"
   xmlns:dc="http://purl.org/dc/elements/1.1/"
   xmlns:cc="http://creativecommons.org/ns#"
   xmlns:rdf="http://www.w3.org/1999/02/22-rdf-syntax-ns#"
   xmlns:svg="http://www.w3.org/2000/svg"
   xmlns="http://www.w3.org/2000/svg"
   xmlns:sodipodi="http://sodipodi.sourceforge.net/DTD/sodipodi-0.dtd"
   xmlns:inkscape="http://www.inkscape.org/namespaces/inkscape"
   width="210mm"
   height="297mm"
   viewBox="0 0 744.09448819 1052.3622047"
   id="svg2"
   version="1.1"
   inkscape:version="0.91 r13725"
   sodipodi:docname="us_senator.svg"
   inkscape:export-filename="/home/rugrats/Documents/thing/stickfigure.svg.png"
   inkscape:export-xdpi="75"
   inkscape:export-ydpi="75">
  <defs
     id="defs4">
    <inkscape:path-effect
       effect="spiro"
       id="path-effect7399"
       is_visible="true" />
    <inkscape:path-effect
       effect="spiro"
       id="path-effect7341"
       is_visible="true" />
    <inkscape:path-effect
       effect="spiro"
       id="path-effect7319"
       is_visible="true" />
    <inkscape:path-effect
       effect="spiro"
       id="path-effect7297"
       is_visible="true" />
    <inkscape:path-effect
       effect="spiro"
       id="path-effect7275"
       is_visible="true" />
    <inkscape:path-effect
       effect="spiro"
       id="path-effect7271"
       is_visible="true" />
    <inkscape:path-effect
       effect="spiro"
       id="path-effect7223"
       is_visible="true" />
    <inkscape:path-effect
       effect="spiro"
       id="path-effect4652"
       is_visible="true" />
    <inkscape:path-effect
       effect="spiro"
       id="path-effect4648"
       is_visible="true" />
    <inkscape:path-effect
       effect="spiro"
       id="path-effect4644"
       is_visible="true" />
    <inkscape:path-effect
       effect="spiro"
       id="path-effect9806"
       is_visible="true" />
    <inkscape:path-effect
       effect="spiro"
       id="path-effect9802"
       is_visible="true" />
    <linearGradient
       id="linearGradient9741"
       osb:paint="solid">
      <stop
         style="stop-color:#000000;stop-opacity:1;"
         offset="0"
         id="stop9743" />
    </linearGradient>
    <linearGradient
       id="linearGradient9571"
       osb:paint="solid">
      <stop
         style="stop-color:#000000;stop-opacity:1;"
         offset="0"
         id="stop9573" />
    </linearGradient>
    <inkscape:path-effect
       effect="spiro"
       id="path-effect7223-4"
       is_visible="true" />
    <inkscape:path-effect
       effect="spiro"
       id="path-effect7275-6"
       is_visible="true" />
    <inkscape:path-effect
       effect="spiro"
       id="path-effect7297-2"
       is_visible="true" />
    <inkscape:path-effect
       effect="spiro"
       id="path-effect7319-6"
       is_visible="true" />
    <inkscape:path-effect
       effect="spiro"
       id="path-effect7341-7"
       is_visible="true" />
    <inkscape:path-effect
       effect="spiro"
       id="path-effect7341-7-4"
       is_visible="true" />
    <inkscape:path-effect
       effect="spiro"
       id="path-effect7341-7-4-1"
       is_visible="true" />
    <inkscape:path-effect
       effect="spiro"
       id="path-effect7399-9"
       is_visible="true" />
  </defs>
  <sodipodi:namedview
     id="base"
     pagecolor="#ffffff"
     bordercolor="#666666"
     borderopacity="1.0"
     inkscape:pageopacity="0.0"
     inkscape:pageshadow="2"
     inkscape:zoom="8"
     inkscape:cx="414.48604"
     inkscape:cy="567.11258"
     inkscape:document-units="px"
     inkscape:current-layer="layer1"
     showgrid="false"
     inkscape:window-width="1920"
     inkscape:window-height="1016"
     inkscape:window-x="1920"
     inkscape:window-y="27"
     inkscape:window-maximized="1"
     showguides="true" />
  <metadata
     id="metadata7">
    <rdf:RDF>
      <cc:Work
         rdf:about="">
        <dc:format>image/svg+xml</dc:format>
        <dc:type
           rdf:resource="http://purl.org/dc/dcmitype/StillImage" />
        <dc:title />
      </cc:Work>
    </rdf:RDF>
  </metadata>
  <g
     inkscape:label="Layer 1"
     inkscape:groupmode="layer"
     id="layer1"
     style="display:inline">
    <path
       style="fill:none;fill-rule:evenodd;stroke:#000000;stroke-width:1px;stroke-linecap:butt;stroke-linejoin:miter;stroke-opacity:1"
       d="m 393.20188,432.63362 0,0 z"
       id="path9800"
       inkscape:path-effect="#path-effect9802"
       inkscape:original-d="m 393.20188,432.63362 c -262.13459,413.15239 -131.06729,206.57619 0,0 z"
       inkscape:connector-curvature="0"
       sodipodi:nodetypes="cc" />
    <rect
       style="fill:#000000;fill-opacity:1;stroke-width:15;stroke-miterlimit:4;stroke-dasharray:none;stroke-dashoffset:0"
       id="rect8093"
       width="17.485998"
       height="316.37543"
       x="566.97565"
       y="525.55505"
       rx="8.7429991"
       ry="8.4366779"
       transform="matrix(0.96184119,0.27360834,-0.29587192,0.95522762,0,0)"
       inkscape:transform-center-x="45.204326"
       inkscape:transform-center-y="142.68405" />
    <rect
       style="fill:#000000;fill-opacity:1;stroke-width:15;stroke-miterlimit:4;stroke-dasharray:none;stroke-dashoffset:0"
       id="rect8093-7"
       width="17.674168"
       height="315.74506"
       x="-188.16104"
       y="743.16364"
       rx="8.8370838"
       ry="8.4198685"
       transform="matrix(-0.96291845,0.26979262,0.29998851,0.95394281,0,0)"
       inkscape:transform-center-x="-45"
       inkscape:transform-center-y="141.42857" />
    <rect
       style="fill:#000000;fill-opacity:1;stroke-width:15;stroke-miterlimit:4;stroke-dasharray:none;stroke-dashoffset:0"
       id="rect8093-7-2"
       width="15.76705"
       height="208.32692"
       x="-405.28467"
       y="441.12961"
       rx="7.8835249"
       ry="5.5553846"
       transform="matrix(-0.99999983,-5.8654277e-4,-0.00118117,0.9999993,0,0)" />
    <rect
       style="fill:#000000;fill-opacity:1;stroke-width:15;stroke-miterlimit:4;stroke-dasharray:none;stroke-dashoffset:0"
       id="rect8093-2-2"
       width="17.322805"
       height="316.09723"
       x="591.79077"
       y="231.84639"
       rx="8.6614027"
       ry="8.4292593"
       transform="matrix(0.27618591,0.96110423,0.95606836,-0.29314382,0,0)"
       inkscape:transform-center-x="-142.14287"
       inkscape:transform-center-y="-45.960038" />
    <rect
       style="fill:#000000;fill-opacity:1;stroke-width:15;stroke-miterlimit:4;stroke-dasharray:none;stroke-dashoffset:0"
       id="rect8093-2"
       width="17.37719"
       height="316.18967"
       x="362.72852"
       y="-528.00385"
       rx="8.6885948"
       ry="8.4317245"
       transform="matrix(-0.27532156,0.96135219,-0.95578881,-0.29405399,0,0)"
       inkscape:transform-center-x="142.50004"
       inkscape:transform-center-y="-42.568801" />
    <ellipse
       style="opacity:1;fill:#ffffff;fill-opacity:1;fill-rule:evenodd;stroke:#000000;stroke-width:16.59946251;stroke-miterlimit:4;stroke-dasharray:none;stroke-dashoffset:0;stroke-opacity:1"
       id="path8125"
       cx="396.26031"
       cy="322.97641"
       rx="116.70026"
       ry="116.70027" />
    <circle
       style="opacity:1;fill:#000000;fill-opacity:1;fill-rule:evenodd;stroke:#000000;stroke-width:11.00851727;stroke-miterlimit:4;stroke-dasharray:none;stroke-dashoffset:0;stroke-opacity:1"
       id="path9777"
       cx="339.24237"
       cy="293.34506"
       r="14.495741" />
    <circle
       style="opacity:1;fill:#000000;fill-opacity:1;fill-rule:evenodd;stroke:#000000;stroke-width:11.00851727;stroke-miterlimit:4;stroke-dasharray:none;stroke-dashoffset:0;stroke-opacity:1"
       id="path9777-9"
       cx="454.24237"
       cy="293.34506"
       r="14.495741" />
    <path
       style="fill:none;fill-rule:evenodd;stroke:#000000;stroke-width:5.11099482;stroke-linecap:butt;stroke-linejoin:round;stroke-miterlimit:4;stroke-dasharray:none;stroke-dashoffset:0;stroke-opacity:1"
       d="m 343.79146,362.98859 c 0,0 19.99609,31.17049 53.22901,30.9512 38.13419,-0.25163 52.96418,-30.9512 52.96418,-30.9512 z"
       id="path9814"
       inkscape:connector-curvature="0"
       sodipodi:nodetypes="cscc" />
    <path
       style="fill:#000000;fill-opacity:1;fill-rule:evenodd;stroke:#000000;stroke-width:0.92584616px;stroke-linecap:butt;stroke-linejoin:miter;stroke-opacity:1"
       d="m 273.96845,465.42061 23.10983,-6.41589 203.81175,-0.92108 23.11152,4.02223 -48.21098,226.02754 -150.39421,2.56914 z"
       id="path6162"
       inkscape:connector-curvature="0"
       sodipodi:nodetypes="ccccccc" />
    <path
       style="fill:#ffffff;fill-opacity:1;fill-rule:evenodd;stroke:#ffffff;stroke-width:1.00414956px;stroke-linecap:butt;stroke-linejoin:miter;stroke-opacity:1"
       d="M 355.32412,457.81817 391.0006,592.85201 441.00424,457.28068 Z"
       id="path6185"
       inkscape:connector-curvature="0"
       sodipodi:nodetypes="cccc" />
    <path
       style="fill:#ff002c;fill-opacity:1;fill-rule:evenodd;stroke:#ff002c;stroke-width:1.00558054px;stroke-linecap:butt;stroke-linejoin:miter;stroke-opacity:1"
       d="m 400.9911,457.54689 4.69233,115.26175 -18.52553,0 5.99815,-115.31148 z"
       id="path6143"
       inkscape:connector-curvature="0"
       sodipodi:nodetypes="ccccc" />
    <path
       style="fill:#000000;fill-opacity:1;fill-rule:evenodd;stroke:#000000;stroke-width:1.00920165px;stroke-linecap:butt;stroke-linejoin:miter;stroke-opacity:1"
       d="m 325.44866,690.60206 12.13113,49.53094 -40.63149,182.90394 31.45664,8.6779 64.22397,-191.58184 10.79334,-0.19551 63.5885,198.78635 32.43966,-9.5122 -40.24078,-188.23523 16.57088,-52.89726 z"
       id="path6187"
       inkscape:connector-curvature="0"
       sodipodi:nodetypes="ccccccccccc" />
  </g>
  <g
     inkscape:groupmode="layer"
     id="layer2"
     inkscape:label="Layer 2"
     style="display:none">
    <path
       style="fill:#ff0000;fill-rule:evenodd;stroke:#ff0000;stroke-width:1.6518122px;stroke-linecap:butt;stroke-linejoin:miter;stroke-opacity:1"
       d="m 396.82591,617.78335 0,-347.27922"
       id="path9816"
       inkscape:connector-curvature="0" />
    <path
       style="fill:none;fill-rule:evenodd;stroke:#f7ff00;stroke-width:1.03650284px;stroke-linecap:butt;stroke-linejoin:miter;stroke-opacity:1"
       d="m 397.37247,359.54265 53.17703,0"
       id="path9890"
       inkscape:connector-curvature="0" />
    <path
       style="fill:none;fill-rule:evenodd;stroke:#001cff;stroke-width:1px;stroke-linecap:butt;stroke-linejoin:miter;stroke-opacity:1"
       d="m 396.74112,319.79803 -112.12693,0"
       id="path9837"
       inkscape:connector-curvature="0" />
    <path
       style="fill:none;fill-rule:evenodd;stroke:#00ff08;stroke-width:1px;stroke-linecap:butt;stroke-linejoin:miter;stroke-opacity:1"
       d="m 395.89285,291.95149 -36.96428,0"
       id="path9820"
       inkscape:connector-curvature="0" />
    <path
       style="fill:none;fill-rule:evenodd;stroke:#00ff08;stroke-width:1px;stroke-linecap:butt;stroke-linejoin:miter;stroke-opacity:1"
       d="m 397.54206,291.83225 36.96428,0"
       id="path9820-4"
       inkscape:connector-curvature="0" />
    <path
       style="fill:none;fill-rule:evenodd;stroke:#ff00f3;stroke-width:1px;stroke-linecap:butt;stroke-linejoin:miter;stroke-opacity:1"
       d="m 508.83164,319.96681 -112.12693,0"
       id="path9837-6"
       inkscape:connector-curvature="0" />
    <path
       style="display:inline;fill:none;fill-rule:evenodd;stroke:#f7ff00;stroke-width:1.03650284px;stroke-linecap:butt;stroke-linejoin:miter;stroke-opacity:1"
       d="m 342.86968,359.41638 53.177,0"
       id="path9890-4"
       inkscape:connector-curvature="0" />
  </g>
</svg>
