<?xml version="1.0" encoding="UTF-8" standalone="no"?>
<!-- Created with Inkscape (http://www.inkscape.org/) -->

<svg
   xmlns:dc="http://purl.org/dc/elements/1.1/"
   xmlns:cc="http://creativecommons.org/ns#"
   xmlns:rdf="http://www.w3.org/1999/02/22-rdf-syntax-ns#"
   xmlns:svg="http://www.w3.org/2000/svg"
   xmlns="http://www.w3.org/2000/svg"
   xmlns:sodipodi="http://sodipodi.sourceforge.net/DTD/sodipodi-0.dtd"
   xmlns:inkscape="http://www.inkscape.org/namespaces/inkscape"
   width="210mm"
   height="297mm"
   viewBox="0 0 744.09448819 1052.3622047"
   id="svg16193"
   version="1.1"
   inkscape:version="0.91 r13725"
   sodipodi:docname="backfacing_stickfigure.svg">
  <defs
     id="defs16195">
    <inkscape:path-effect
       effect="rough_hatches"
       id="path-effect17376"
       is_visible="true"
       direction="354.63379,202.93222 , 57.509022,0"
       dist_rdm="75;1"
       growth="0"
       do_bend="true"
       bender="354.63379,207.93222 , 5,0"
       bottom_edge_variation="11.501806;1"
       top_edge_variation="11.501806;1"
       bottom_tgt_variation="0;1"
       top_tgt_variation="0;1"
       scale_bf="1"
       scale_bb="1"
       scale_tf="1"
       scale_tb="1"
       top_smth_variation="0;1"
       bottom_smth_variation="0;1"
       fat_output="true"
       stroke_width_top="1"
       stroke_width_bottom="1"
       front_thickness="1"
       back_thickness="0.25" />
    <inkscape:path-effect
       effect="spiro"
       id="path-effect9802"
       is_visible="true" />
    <inkscape:path-effect
       effect="spiro"
       id="path-effect4644"
       is_visible="true" />
    <inkscape:path-effect
       effect="spiro"
       id="path-effect4652"
       is_visible="true" />
    <inkscape:path-effect
       effect="rough_hatches"
       id="path-effect17376-1"
       is_visible="true"
       direction="354.63379,202.93222 , 57.509022,0"
       dist_rdm="75;1"
       growth="0"
       do_bend="true"
       bender="354.63379,207.93222 , 5,0"
       bottom_edge_variation="11.501806;1"
       top_edge_variation="11.501806;1"
       bottom_tgt_variation="0;1"
       top_tgt_variation="0;1"
       scale_bf="1"
       scale_bb="1"
       scale_tf="1"
       scale_tb="1"
       top_smth_variation="0;1"
       bottom_smth_variation="0;1"
       fat_output="true"
       stroke_width_top="1"
       stroke_width_bottom="1"
       front_thickness="1"
       back_thickness="0.25" />
  </defs>
  <sodipodi:namedview
     id="base"
     pagecolor="#ffffff"
     bordercolor="#666666"
     borderopacity="1.0"
     inkscape:pageopacity="0.0"
     inkscape:pageshadow="2"
     inkscape:zoom="0.65053824"
     inkscape:cx="351.29491"
     inkscape:cy="495.57188"
     inkscape:document-units="px"
     inkscape:current-layer="layer1"
     showgrid="false"
     inkscape:window-width="1920"
     inkscape:window-height="1016"
     inkscape:window-x="1920"
     inkscape:window-y="27"
     inkscape:window-maximized="1" />
  <metadata
     id="metadata16198">
    <rdf:RDF>
      <cc:Work
         rdf:about="">
        <dc:format>image/svg+xml</dc:format>
        <dc:type
           rdf:resource="http://purl.org/dc/dcmitype/StillImage" />
        <dc:title></dc:title>
      </cc:Work>
    </rdf:RDF>
  </metadata>
  <g
     inkscape:label="Layer 1"
     inkscape:groupmode="layer"
     id="layer1">
    <g
       id="g17452">
      <path
         sodipodi:nodetypes="cc"
         inkscape:connector-curvature="0"
         inkscape:original-d="m 352.53836,374.71102 c -262.134587,413.15239 -131.06729,206.57619 0,0 z"
         inkscape:path-effect="#path-effect9802"
         id="path9800"
         d="m 352.53836,374.71102 0,0 z"
         style="fill:none;fill-rule:evenodd;stroke:#000000;stroke-width:1px;stroke-linecap:butt;stroke-linejoin:miter;stroke-opacity:1" />
      <rect
         inkscape:transform-center-y="142.68405"
         inkscape:transform-center-x="45.204326"
         transform="matrix(0.96184119,0.27360834,-0.29587192,0.95522762,0,0)"
         ry="8.4366779"
         rx="8.7429991"
         y="566.65204"
         x="537.28308"
         height="316.37543"
         width="17.485998"
         id="rect8093"
         style="fill:#000000;fill-opacity:1;stroke-width:15;stroke-miterlimit:4;stroke-dasharray:none;stroke-dashoffset:0" />
      <rect
         inkscape:transform-center-y="141.42857"
         inkscape:transform-center-x="-45"
         transform="matrix(-0.96291845,0.26979262,0.29998851,0.95394281,0,0)"
         ry="8.4198685"
         rx="8.8370838"
         y="762.16577"
         x="-139.95404"
         height="315.74506"
         width="17.674168"
         id="rect8093-7"
         style="fill:#000000;fill-opacity:1;stroke-width:15;stroke-miterlimit:4;stroke-dasharray:none;stroke-dashoffset:0" />
      <rect
         transform="matrix(-0.9999996,-8.9412964e-4,-7.7483979e-4,0.9999997,0,0)"
         ry="8.4686632"
         rx="7.8835268"
         y="383.12112"
         x="-364.39703"
         height="317.57486"
         width="15.767054"
         id="rect8093-7-2"
         style="fill:#000000;fill-opacity:1;stroke-width:15;stroke-miterlimit:4;stroke-dasharray:none;stroke-dashoffset:0" />
      <rect
         inkscape:transform-center-y="142.14288"
         inkscape:transform-center-x="-45.960043"
         transform="matrix(-0.96110423,0.27618591,0.29314382,0.95606836,0,0)"
         ry="8.4292593"
         rx="8.6614027"
         y="522.935"
         x="-218.9718"
         height="316.09723"
         width="17.322805"
         id="rect8093-2-2"
         style="fill:#000000;fill-opacity:1;stroke-width:15;stroke-miterlimit:4;stroke-dasharray:none;stroke-dashoffset:0" />
      <rect
         inkscape:transform-center-y="142.50005"
         inkscape:transform-center-x="42.568814"
         transform="matrix(0.96135219,0.27532156,-0.29405399,0.95578881,0,0)"
         ry="8.4317245"
         rx="8.6885948"
         y="326.55756"
         x="462.60324"
         height="316.18967"
         width="17.37719"
         id="rect8093-2"
         style="fill:#000000;fill-opacity:1;stroke-width:15;stroke-miterlimit:4;stroke-dasharray:none;stroke-dashoffset:0" />
      <ellipse
         ry="116.70027"
         rx="116.70026"
         cy="265.0538"
         cx="355.5968"
         id="path8125"
         style="opacity:1;fill:#ffffff;fill-opacity:1;fill-rule:evenodd;stroke:#000000;stroke-width:16.59946251;stroke-miterlimit:4;stroke-dasharray:none;stroke-dashoffset:0;stroke-opacity:1" />
      <path
         transform="translate(0.27173913,4.6195652)"
         inkscape:path-effect="#path-effect17376"
         d="m 459.36255,217.89088 c 0,0 -0.21573,12.074 -1.4729,24.1513 -1.25699,12.07565 -3.539,24.1513 -6.83761,24.1513 -3.44572,0 -4.42002,-17.44262 -6.18538,-36.12018 -1.77188,-18.74647 -4.33798,-38.52117 -9.32831,-43.52985 -5.10145,-5.12022 -7.19905,15.60176 -9.75944,37.63908 -2.55913,22.02646 -5.61306,45.33569 -9.80971,45.33569 -4.24426,0 -5.29113,-25.21874 -6.53096,-50.62203 -1.2417,-25.44176 -2.67596,-50.95263 -4.2665,-51.72928 -1.63865,-0.80013 -1.73901,24.45615 -3.00289,50.01317 -1.26235,25.52603 -3.68974,51.25985 -6.42406,51.25985 -2.76869,0 -3.02609,-27.07979 -4.64966,-54.41745 -1.62492,-27.36041 -4.61979,-54.91047 -8.90209,-55.96474 -4.31557,-1.06245 -5.55521,24.53613 -7.67944,50.45123 -2.12295,25.89943 -5.13473,52.0684 -9.32119,52.0684 -4.20498,0 -5.31108,-28.50386 -7.74192,-56.91584 -2.4303,-28.40578 -6.18394,-56.73828 -11.31307,-56.36455 -5.13292,0.374 -6.52272,29.69681 -8.19557,58.90292 -1.67326,29.21325 -3.62765,58.33121 -5.31768,58.33121 -1.69851,0 -1.49171,-27.79023 -2.43353,-55.44339 -0.9411,-27.63216 -3.02863,-55.19024 -5.16389,-54.62096 -2.14819,0.57272 -2.24864,28.9251 -3.64775,57.05299 -1.40034,28.15291 -4.09835,56.15638 -7.21289,56.15638 -3.1396,0 -3.65429,-26.06084 -4.85815,-51.85375 -1.20242,-25.76196 -3.09034,-51.34884 -5.33243,-50.24614 -2.28115,1.12191 -2.77236,26.90785 -4.26779,52.28128 -1.49782,25.41406 -3.99886,50.53748 -6.89306,50.53748 -2.94693,0 -3.48244,-23.13502 -5.12929,-45.26999 -1.64546,-22.11619 -4.37907,-43.28865 -8.91655,-39.26965 -4.62323,4.09495 -6.79572,25.79411 -9.19687,46.24622 -2.40921,20.52081 -5.04952,40.00071 -8.56748,40.00071 -3.64424,0 -4.85274,-14.181 -5.91923,-27.31045 -1.06681,-13.13353 -1.97245,-25.20326 -3.99215,-21.0011 -2.19144,4.55948 -3.45651,14.62805 -4.45534,23.4087 -1.004,8.8262 -1.74879,16.50114 -2.60768,16.50114 -1.04055,0 -1.37375,-5.49451 -1.48829,-10.98902 -0.11454,-5.49444 -0.0138,-10.98902 -0.0138,-10.98902 0,0 -0.16929,5.74456 -0.0962,11.48902 0.073,5.74451 0.39204,11.48902 1.55727,11.48902 1.36062,0 2.38011,-8.20668 3.393,-17.29875 1.00792,-9.0475 2.01678,-19.1141 3.7002,-22.61109 1.89615,-3.9389 2.72684,8.13605 3.78335,21.2005 1.0564,13.06298 2.32145,27.11105 6.09151,27.11105 4.01974,0 6.93186,-19.69782 9.3534,-40.32759 2.41364,-20.56254 4.34055,-42.25876 8.47614,-45.91934 4.41822,-3.91074 7.07071,17.26313 8.69836,39.35137 1.62909,22.10773 2.21111,45.18827 5.28358,45.18827 3.39549,0 6.16871,-25.24447 7.68275,-50.71905 1.51167,-25.43471 1.76472,-51.21914 3.55582,-52.09971 2.12024,-1.04238 3.92449,24.54491 5.10664,50.29153 1.18358,25.77778 1.74182,51.80836 5.00676,51.80836 3.61533,0 6.58605,-28.06941 8.00568,-56.25529 1.41839,-28.16111 1.28573,-56.51299 2.94053,-56.95408 2.01225,-0.53637 4.01536,27.02183 4.93507,54.64569 0.92041,27.64492 0.75545,55.41866 2.57916,55.41866 2.19025,0 4.41702,-29.13612 6.11176,-58.35844 1.69432,-29.21521 2.855,-58.53798 7.4901,-58.87569 5.0049,-0.36466 8.67431,27.96786 11.08299,56.37136 2.4092,28.40971 3.55635,56.90903 7.88637,56.90903 4.68578,0 7.96613,-26.10684 10.11044,-51.97521 2.14563,-25.88425 3.1584,-51.48241 6.96769,-50.54442 4.15515,1.02315 7.06774,28.57331 8.67241,55.94144 1.60335,27.34543 1.90239,54.44075 4.7959,54.44075 3.23297,0 5.92661,-25.60988 7.21136,-51.07394 1.28635,-25.49588 1.16324,-50.75051 2.29214,-50.19908 1.4627,0.71449 2.81711,26.22574 4.04033,51.68281 1.22137,25.41877 2.31085,50.6685 6.67977,50.6685 4.69409,0 8.00848,-23.05417 10.58893,-44.9531 2.58218,-21.91356 4.45697,-42.628 9.04294,-38.02167 4.85924,4.88081 7.35111,24.65619 9.10957,43.4342 1.75204,18.70945 2.77365,36.21583 6.34391,36.21583 3.79929,0 6.10095,-12.32565 7.24405,-24.6513 1.14324,-12.32719 1.11088,-24.6513 1.11088,-24.6513 z"
         sodipodi:end="0"
         sodipodi:start="3.1415927"
         sodipodi:ry="115.01806"
         sodipodi:rx="115.01804"
         sodipodi:cy="265.44125"
         sodipodi:cx="354.63379"
         sodipodi:type="arc"
         id="path8125-0"
         style="opacity:1;fill:#000000;fill-opacity:1;fill-rule:evenodd;stroke:#000000;stroke-width:16.35972977;stroke-miterlimit:4;stroke-dasharray:none;stroke-dashoffset:0;stroke-opacity:1" />
      <path
         inkscape:path-effect="#path-effect17376-1"
         d="m 459.36255,217.89088 c 0,0 -0.21573,12.074 -1.4729,24.1513 -1.25699,12.07565 -3.539,24.1513 -6.83761,24.1513 -3.44572,0 -4.42002,-17.44262 -6.18538,-36.12018 -1.77188,-18.74647 -4.33798,-38.52117 -9.32831,-43.52985 -5.10145,-5.12022 -7.19905,15.60176 -9.75944,37.63908 -2.55913,22.02646 -5.61306,45.33569 -9.80971,45.33569 -4.24426,0 -5.29113,-25.21874 -6.53096,-50.62203 -1.2417,-25.44176 -2.67596,-50.95263 -4.2665,-51.72928 -1.63865,-0.80013 -1.73901,24.45615 -3.00289,50.01317 -1.26235,25.52603 -3.68974,51.25985 -6.42406,51.25985 -2.76869,0 -3.02609,-27.07979 -4.64966,-54.41745 -1.62492,-27.36041 -4.61979,-54.91047 -8.90209,-55.96474 -4.31557,-1.06245 -5.55521,24.53613 -7.67944,50.45123 -2.12295,25.89943 -5.13473,52.0684 -9.32119,52.0684 -4.20498,0 -5.31108,-28.50386 -7.74192,-56.91584 -2.4303,-28.40578 -6.18394,-56.73828 -11.31307,-56.36455 -5.13292,0.374 -6.52272,29.69681 -8.19557,58.90292 -1.67326,29.21325 -3.62765,58.33121 -5.31768,58.33121 -1.69851,0 -1.49171,-27.79023 -2.43353,-55.44339 -0.9411,-27.63216 -3.02863,-55.19024 -5.16389,-54.62096 -2.14819,0.57272 -2.24864,28.9251 -3.64775,57.05299 -1.40034,28.15291 -4.09835,56.15638 -7.21289,56.15638 -3.1396,0 -3.65429,-26.06084 -4.85815,-51.85375 -1.20242,-25.76196 -3.09034,-51.34884 -5.33243,-50.24614 -2.28115,1.12191 -2.77236,26.90785 -4.26779,52.28128 -1.49782,25.41406 -3.99886,50.53748 -6.89306,50.53748 -2.94693,0 -3.48244,-23.13502 -5.12929,-45.26999 -1.64546,-22.11619 -4.37907,-43.28865 -8.91655,-39.26965 -4.62323,4.09495 -6.79572,25.79411 -9.19687,46.24622 -2.40921,20.52081 -5.04952,40.00071 -8.56748,40.00071 -3.64424,0 -4.85274,-14.181 -5.91923,-27.31045 -1.06681,-13.13353 -1.97245,-25.20326 -3.99215,-21.0011 -2.19144,4.55948 -3.45651,14.62805 -4.45534,23.4087 -1.004,8.8262 -1.74879,16.50114 -2.60768,16.50114 -1.04055,0 -1.37375,-5.49451 -1.48829,-10.98902 -0.11454,-5.49444 -0.0138,-10.98902 -0.0138,-10.98902 0,0 -0.16929,5.74456 -0.0962,11.48902 0.073,5.74451 0.39204,11.48902 1.55727,11.48902 1.36062,0 2.38011,-8.20668 3.393,-17.29875 1.00792,-9.0475 2.01678,-19.1141 3.7002,-22.61109 1.89615,-3.9389 2.72684,8.13605 3.78335,21.2005 1.0564,13.06298 2.32145,27.11105 6.09151,27.11105 4.01974,0 6.93186,-19.69782 9.3534,-40.32759 2.41364,-20.56254 4.34055,-42.25876 8.47614,-45.91934 4.41822,-3.91074 7.07071,17.26313 8.69836,39.35137 1.62909,22.10773 2.21111,45.18827 5.28358,45.18827 3.39549,0 6.16871,-25.24447 7.68275,-50.71905 1.51167,-25.43471 1.76472,-51.21914 3.55582,-52.09971 2.12024,-1.04238 3.92449,24.54491 5.10664,50.29153 1.18358,25.77778 1.74182,51.80836 5.00676,51.80836 3.61533,0 6.58605,-28.06941 8.00568,-56.25529 1.41839,-28.16111 1.28573,-56.51299 2.94053,-56.95408 2.01225,-0.53637 4.01536,27.02183 4.93507,54.64569 0.92041,27.64492 0.75545,55.41866 2.57916,55.41866 2.19025,0 4.41702,-29.13612 6.11176,-58.35844 1.69432,-29.21521 2.855,-58.53798 7.4901,-58.87569 5.0049,-0.36466 8.67431,27.96786 11.08299,56.37136 2.4092,28.40971 3.55635,56.90903 7.88637,56.90903 4.68578,0 7.96613,-26.10684 10.11044,-51.97521 2.14563,-25.88425 3.1584,-51.48241 6.96769,-50.54442 4.15515,1.02315 7.06774,28.57331 8.67241,55.94144 1.60335,27.34543 1.90239,54.44075 4.7959,54.44075 3.23297,0 5.92661,-25.60988 7.21136,-51.07394 1.28635,-25.49588 1.16324,-50.75051 2.29214,-50.19908 1.4627,0.71449 2.81711,26.22574 4.04033,51.68281 1.22137,25.41877 2.31085,50.6685 6.67977,50.6685 4.69409,0 8.00848,-23.05417 10.58893,-44.9531 2.58218,-21.91356 4.45697,-42.628 9.04294,-38.02167 4.85924,4.88081 7.35111,24.65619 9.10957,43.4342 1.75204,18.70945 2.77365,36.21583 6.34391,36.21583 3.79929,0 6.10095,-12.32565 7.24405,-24.6513 1.14324,-12.32719 1.11088,-24.6513 1.11088,-24.6513 z"
         sodipodi:end="0"
         sodipodi:start="3.1415927"
         sodipodi:ry="115.01806"
         sodipodi:rx="115.01804"
         sodipodi:cy="265.44125"
         sodipodi:cx="354.63379"
         sodipodi:type="arc"
         id="path8125-0-6"
         style="opacity:1;fill:#000000;fill-opacity:1;fill-rule:evenodd;stroke:#000000;stroke-width:16.35972977;stroke-miterlimit:4;stroke-dasharray:none;stroke-dashoffset:0;stroke-opacity:1"
         transform="matrix(-1,0,0,1,707.2907,1.918641)" />
      <rect
         ry="8.4198704"
         rx="8.83708"
         y="172.4709"
         x="283.69565"
         height="50.54348"
         width="142.93478"
         id="rect17396"
         style="opacity:1;fill:#000000;fill-opacity:1;fill-rule:evenodd;stroke:#000000;stroke-width:16.59900093;stroke-linecap:round;stroke-linejoin:miter;stroke-miterlimit:4;stroke-dasharray:none;stroke-dashoffset:0;stroke-opacity:1" />
      <rect
         ry="8.4198704"
         rx="8.83708"
         y="159.15569"
         x="377.71738"
         height="16.847826"
         width="22.01087"
         id="rect17398"
         style="opacity:1;fill:#000000;fill-opacity:1;fill-rule:evenodd;stroke:#000000;stroke-width:16.59900093;stroke-linecap:round;stroke-linejoin:miter;stroke-miterlimit:4;stroke-dasharray:none;stroke-dashoffset:0;stroke-opacity:1" />
      <rect
         ry="8.4198704"
         rx="8.83708"
         y="204.80786"
         x="417.93478"
         height="27.98913"
         width="34.239132"
         id="rect17400"
         style="opacity:1;fill:#000000;fill-opacity:1;fill-rule:evenodd;stroke:#000000;stroke-width:16.59900093;stroke-linecap:round;stroke-linejoin:miter;stroke-miterlimit:4;stroke-dasharray:none;stroke-dashoffset:0;stroke-opacity:1" />
    </g>
  </g>
</svg>
