<?xml version="1.0" encoding="UTF-8" standalone="no"?>
<!-- Created with Inkscape (http://www.inkscape.org/) -->

<svg
   xmlns:dc="http://purl.org/dc/elements/1.1/"
   xmlns:cc="http://creativecommons.org/ns#"
   xmlns:rdf="http://www.w3.org/1999/02/22-rdf-syntax-ns#"
   xmlns:svg="http://www.w3.org/2000/svg"
   xmlns="http://www.w3.org/2000/svg"
   xmlns:sodipodi="http://sodipodi.sourceforge.net/DTD/sodipodi-0.dtd"
   xmlns:inkscape="http://www.inkscape.org/namespaces/inkscape"
   width="210mm"
   height="297mm"
   viewBox="0 0 744.09448819 1052.3622047"
   id="svg2"
   version="1.1"
   inkscape:version="0.91 r13725"
   sodipodi:docname="stickfigure_plotting.svg">
  <defs
     id="defs4">
    <inkscape:path-effect
       effect="spiro"
       id="path-effect9008"
       is_visible="true" />
    <inkscape:path-effect
       effect="spiro"
       id="path-effect9802"
       is_visible="true" />
    <inkscape:path-effect
       effect="spiro"
       id="path-effect4644"
       is_visible="true" />
    <inkscape:path-effect
       effect="spiro"
       id="path-effect4652"
       is_visible="true" />
    <inkscape:path-effect
       effect="spiro"
       id="path-effect9802-0"
       is_visible="true" />
    <inkscape:path-effect
       effect="spiro"
       id="path-effect4644-9"
       is_visible="true" />
    <inkscape:path-effect
       effect="spiro"
       id="path-effect4652-4"
       is_visible="true" />
    <inkscape:path-effect
       effect="spiro"
       id="path-effect9008-0"
       is_visible="true" />
  </defs>
  <sodipodi:namedview
     id="base"
     pagecolor="#ffffff"
     bordercolor="#666666"
     borderopacity="1.0"
     inkscape:pageopacity="0.0"
     inkscape:pageshadow="2"
     inkscape:zoom="0.49497475"
     inkscape:cx="-56.025496"
     inkscape:cy="365.81634"
     inkscape:document-units="px"
     inkscape:current-layer="layer1"
     showgrid="false"
     inkscape:window-width="1920"
     inkscape:window-height="1016"
     inkscape:window-x="1920"
     inkscape:window-y="27"
     inkscape:window-maximized="1" />
  <metadata
     id="metadata7">
    <rdf:RDF>
      <cc:Work
         rdf:about="">
        <dc:format>image/svg+xml</dc:format>
        <dc:type
           rdf:resource="http://purl.org/dc/dcmitype/StillImage" />
        <dc:title />
      </cc:Work>
    </rdf:RDF>
  </metadata>
  <g
     inkscape:label="Layer 1"
     inkscape:groupmode="layer"
     id="layer1">
    <g
       id="g9207">
      <path
         sodipodi:nodetypes="cc"
         inkscape:connector-curvature="0"
         inkscape:original-d="m 258.05695,290.83836 c -265.552281,418.53904 -132.77614,209.26951 0,0 z"
         inkscape:path-effect="#path-effect9802"
         id="path9800"
         d="m 258.05695,290.83836 0,0 z"
         style="fill:none;fill-rule:evenodd;stroke:#000000;stroke-width:1.01303792px;stroke-linecap:butt;stroke-linejoin:miter;stroke-opacity:1" />
      <rect
         inkscape:transform-center-y="142.68405"
         inkscape:transform-center-x="45.204326"
         transform="matrix(0.96184119,0.27360835,-0.29587192,0.95522762,0,0)"
         ry="8.5466757"
         rx="8.8569899"
         y="515.7616"
         x="423.35263"
         height="320.50031"
         width="17.71398"
         id="rect8093"
         style="fill:#000000;fill-opacity:1;stroke-width:15;stroke-miterlimit:4;stroke-dasharray:none;stroke-dashoffset:0" />
      <rect
         inkscape:transform-center-y="147.28958"
         inkscape:transform-center-x="-18.243347"
         transform="matrix(-0.996099,0.08824274,0.11957382,0.99282531,0,0)"
         ry="8.5296459"
         rx="8.952301"
         y="630.97003"
         x="-210.0322"
         height="319.86172"
         width="17.904602"
         id="rect8093-7"
         style="fill:#000000;fill-opacity:1;stroke-width:15;stroke-miterlimit:4;stroke-dasharray:none;stroke-dashoffset:0" />
      <rect
         inkscape:transform-center-y="-312.43446"
         inkscape:transform-center-x="-75.298166"
         transform="matrix(-0.96961659,-0.24462965,-0.24042868,0.97066681,0,0)"
         ry="8.7074041"
         rx="7.9887347"
         y="212.04002"
         x="-409.96805"
         height="326.52765"
         width="15.977469"
         id="rect8093-7-2"
         style="fill:#000000;fill-opacity:1;stroke-width:15;stroke-miterlimit:4;stroke-dasharray:none;stroke-dashoffset:0" />
      <rect
         inkscape:transform-center-y="53.901179"
         inkscape:transform-center-x="-52.796822"
         transform="matrix(-0.74925132,0.66228579,0.66764316,0.74448144,0,0)"
         ry="8.6836424"
         rx="8.1063519"
         y="472.38193"
         x="-7.4877949"
         height="174.71754"
         width="17.546295"
         id="rect8093-2-2"
         style="fill:#000000;fill-opacity:1;stroke-width:15;stroke-miterlimit:4;stroke-dasharray:none;stroke-dashoffset:0" />
      <ellipse
         inkscape:transform-center-y="-815.49771"
         inkscape:transform-center-x="-280.62534"
         transform="matrix(0.84139785,0.54041619,-0.54041619,0.84139785,0,0)"
         ry="118.2218"
         rx="118.22179"
         cy="-43.28429"
         cx="451.82953"
         id="path8125"
         style="opacity:1;fill:#ffffff;fill-opacity:1;fill-rule:evenodd;stroke:#000000;stroke-width:16.81588554;stroke-miterlimit:4;stroke-dasharray:none;stroke-dashoffset:0;stroke-opacity:1" />
      <circle
         r="14.684735"
         inkscape:transform-center-y="-790.73335"
         inkscape:transform-center-x="-438.67842"
         transform="matrix(0.84139785,0.54041619,-0.54041619,0.84139785,0,0)"
         cy="-76.002274"
         cx="525.98639"
         id="path9777"
         style="opacity:1;fill:#000000;fill-opacity:1;fill-rule:evenodd;stroke:#000000;stroke-width:11.15204525;stroke-miterlimit:4;stroke-dasharray:none;stroke-dashoffset:0;stroke-opacity:1" />
      <path
         inkscape:transform-center-y="-648.48946"
         inkscape:transform-center-x="-380.71755"
         sodipodi:nodetypes="cscc"
         inkscape:connector-curvature="0"
         id="path9814"
         d="m 472.8541,295.92446 c 0,0 -22.57609,38.15001 -31.5593,8.72858 -6.44214,-21.09927 -5.56666,-35.70733 -5.56666,-35.70733 z"
         style="fill:none;fill-rule:evenodd;stroke:#000000;stroke-width:4.57871437;stroke-linecap:butt;stroke-linejoin:round;stroke-miterlimit:4;stroke-dasharray:none;stroke-dashoffset:0;stroke-opacity:1" />
      <rect
         inkscape:transform-center-y="-48.477114"
         inkscape:transform-center-x="-54.296283"
         transform="matrix(0.66221652,0.74931254,0.74495683,-0.66711267,0,0)"
         ry="8.1063166"
         rx="8.1063166"
         y="-4.4178858"
         x="631.34351"
         height="163.10156"
         width="17.546219"
         id="rect8093-2-2-7"
         style="fill:#000000;fill-opacity:1;stroke-width:15;stroke-miterlimit:4;stroke-dasharray:none;stroke-dashoffset:0" />
      <path
         inkscape:transform-center-y="-7.5608557"
         inkscape:transform-center-x="-63.984091"
         sodipodi:nodetypes="ccccccccccc"
         inkscape:connector-curvature="0"
         inkscape:original-d="m 137.36989,843.17269 188.03626,46.09333 20.31928,-260.97119 27.41396,-162.56211 -7.04268,-38.6857 -10.96054,-54.29882 -15.88641,-17.26343 -36.23939,-14.13492 -15.82802,45.71376 -70.28406,176.86059 z"
         inkscape:path-effect="#path-effect4644"
         id="path4642"
         d="m 137.36989,843.17269 188.03626,46.09333 20.31928,-260.97119 27.41396,-162.56211 c -2.24524,-12.91358 -4.5929,-25.80935 -7.04268,-38.6857 -3.45115,-18.13967 -7.10496,-36.24078 -10.96054,-54.29882 l -15.88641,-17.26343 -36.23939,-14.13492 c -5.1371,15.28554 -10.4134,30.52431 -15.82802,45.71376 -21.30557,59.76777 -44.75364,118.77177 -70.28406,176.86059 l -79.5284,279.24849 z"
         style="fill:#ffffff;fill-opacity:1;fill-rule:evenodd;stroke:#000000;stroke-width:1.01303792px;stroke-linecap:butt;stroke-linejoin:miter;stroke-opacity:1" />
      <rect
         inkscape:transform-center-y="42.457118"
         inkscape:transform-center-x="-62.371723"
         transform="matrix(-0.60426702,0.79678188,0.80109582,0.59853613,0,0)"
         ry="8.6836424"
         rx="8.1063519"
         y="494.66046"
         x="133.85976"
         height="174.71754"
         width="17.546295"
         id="rect8093-2-2-6"
         style="fill:#000000;fill-opacity:1;stroke-width:15;stroke-miterlimit:4;stroke-dasharray:none;stroke-dashoffset:0" />
      <path
         inkscape:transform-center-y="-425.44328"
         inkscape:transform-center-x="-132.02742"
         sodipodi:nodetypes="cc"
         inkscape:connector-curvature="0"
         inkscape:original-d="M 356.08416,377.45346 261.6321,455.31661"
         inkscape:path-effect="#path-effect4652"
         id="path4650"
         d="M 356.08416,377.45346 261.6321,455.31661"
         style="fill:none;fill-rule:evenodd;stroke:#000000;stroke-width:1.00651693px;stroke-linecap:butt;stroke-linejoin:miter;stroke-opacity:1" />
      <rect
         inkscape:transform-center-y="-58.214221"
         inkscape:transform-center-x="-43.694628"
         transform="matrix(0.79672601,0.60434069,0.59910662,-0.80066926,0,0)"
         ry="8.1063166"
         rx="8.1063166"
         y="-145.6066"
         x="652.70935"
         height="163.10156"
         width="17.546219"
         id="rect8093-2-2-7-4"
         style="fill:#000000;fill-opacity:1;stroke-width:15;stroke-miterlimit:4;stroke-dasharray:none;stroke-dashoffset:0" />
      <path
         inkscape:transform-center-y="-161.61328"
         inkscape:transform-center-x="-127.12743"
         sodipodi:nodetypes="csc"
         inkscape:connector-curvature="0"
         id="path4658"
         d="m 230.38541,532.71302 c 0,0 2.34681,65.69719 63.38515,17.07015 61.03838,-48.62703 77.80726,-74.9972 77.80726,-74.9972"
         style="fill:none;fill-rule:evenodd;stroke:#000000;stroke-width:1.01829946px;stroke-linecap:butt;stroke-linejoin:miter;stroke-opacity:1" />
      <path
         inkscape:connector-curvature="0"
         inkscape:original-d="m 492.85714,173.79078 24.28572,48.57142"
         inkscape:path-effect="#path-effect9008"
         id="path9006"
         d="m 492.85714,173.79078 24.28572,48.57142"
         style="fill:none;fill-rule:evenodd;stroke:#000000;stroke-width:8;stroke-linecap:round;stroke-linejoin:miter;stroke-miterlimit:4;stroke-dasharray:none;stroke-opacity:1" />
    </g>
  </g>
</svg>
