<?xml version="1.0" encoding="UTF-8" standalone="no"?>
<!-- Created with Inkscape (http://www.inkscape.org/) -->

<svg
   xmlns:dc="http://purl.org/dc/elements/1.1/"
   xmlns:cc="http://creativecommons.org/ns#"
   xmlns:rdf="http://www.w3.org/1999/02/22-rdf-syntax-ns#"
   xmlns:svg="http://www.w3.org/2000/svg"
   xmlns="http://www.w3.org/2000/svg"
   xmlns:sodipodi="http://sodipodi.sourceforge.net/DTD/sodipodi-0.dtd"
   xmlns:inkscape="http://www.inkscape.org/namespaces/inkscape"
   width="1920"
   height="1080"
   viewBox="0 0 1920.0001 1080"
   id="svg2"
   version="1.1"
   inkscape:version="0.91 r13725"
   sodipodi:docname="cataline_left.svg">
  <defs
     id="defs4">
    <inkscape:path-effect
       effect="spiro"
       id="path-effect9802"
       is_visible="true" />
    <inkscape:path-effect
       effect="spiro"
       id="path-effect4644"
       is_visible="true" />
    <inkscape:path-effect
       effect="spiro"
       id="path-effect4652"
       is_visible="true" />
    <inkscape:path-effect
       effect="spiro"
       id="path-effect4316"
       is_visible="true" />
    <inkscape:path-effect
       effect="spiro"
       id="path-effect4320"
       is_visible="true" />
    <inkscape:path-effect
       effect="spiro"
       id="path-effect4332"
       is_visible="true" />
    <inkscape:path-effect
       effect="spiro"
       id="path-effect4344"
       is_visible="true" />
    <inkscape:path-effect
       effect="spiro"
       id="path-effect4356"
       is_visible="true" />
    <inkscape:path-effect
       effect="spiro"
       id="path-effect4368"
       is_visible="true" />
    <inkscape:path-effect
       effect="spiro"
       id="path-effect4384"
       is_visible="true" />
    <inkscape:path-effect
       effect="spiro"
       id="path-effect4388"
       is_visible="true" />
    <inkscape:path-effect
       effect="spiro"
       id="path-effect4392"
       is_visible="true" />
    <inkscape:path-effect
       effect="spiro"
       id="path-effect4396"
       is_visible="true" />
    <inkscape:path-effect
       effect="spiro"
       id="path-effect4400"
       is_visible="true" />
    <inkscape:path-effect
       effect="spiro"
       id="path-effect4404"
       is_visible="true" />
    <inkscape:path-effect
       effect="spiro"
       id="path-effect4316-4"
       is_visible="true" />
    <inkscape:path-effect
       effect="spiro"
       id="path-effect4320-5"
       is_visible="true" />
    <inkscape:path-effect
       effect="spiro"
       id="path-effect4332-4"
       is_visible="true" />
    <inkscape:path-effect
       effect="spiro"
       id="path-effect4344-1"
       is_visible="true" />
    <inkscape:path-effect
       effect="spiro"
       id="path-effect4356-3"
       is_visible="true" />
    <inkscape:path-effect
       effect="spiro"
       id="path-effect4368-5"
       is_visible="true" />
    <inkscape:path-effect
       effect="spiro"
       id="path-effect4384-7"
       is_visible="true" />
    <inkscape:path-effect
       effect="spiro"
       id="path-effect4388-4"
       is_visible="true" />
    <inkscape:path-effect
       effect="spiro"
       id="path-effect4392-5"
       is_visible="true" />
    <inkscape:path-effect
       effect="spiro"
       id="path-effect4396-3"
       is_visible="true" />
    <inkscape:path-effect
       effect="spiro"
       id="path-effect4400-0"
       is_visible="true" />
    <inkscape:path-effect
       effect="spiro"
       id="path-effect4404-5"
       is_visible="true" />
    <inkscape:path-effect
       effect="spiro"
       id="path-effect4316-4-6"
       is_visible="true" />
    <inkscape:path-effect
       effect="spiro"
       id="path-effect4320-5-8"
       is_visible="true" />
    <inkscape:path-effect
       effect="spiro"
       id="path-effect4332-4-0"
       is_visible="true" />
    <inkscape:path-effect
       effect="spiro"
       id="path-effect4344-1-9"
       is_visible="true" />
    <inkscape:path-effect
       effect="spiro"
       id="path-effect4356-3-1"
       is_visible="true" />
    <inkscape:path-effect
       effect="spiro"
       id="path-effect4368-5-8"
       is_visible="true" />
    <inkscape:path-effect
       effect="spiro"
       id="path-effect4384-7-4"
       is_visible="true" />
    <inkscape:path-effect
       effect="spiro"
       id="path-effect4388-4-8"
       is_visible="true" />
    <inkscape:path-effect
       effect="spiro"
       id="path-effect4392-5-2"
       is_visible="true" />
    <inkscape:path-effect
       effect="spiro"
       id="path-effect4396-3-5"
       is_visible="true" />
    <inkscape:path-effect
       effect="spiro"
       id="path-effect4400-0-1"
       is_visible="true" />
    <inkscape:path-effect
       effect="spiro"
       id="path-effect4404-5-7"
       is_visible="true" />
    <inkscape:path-effect
       effect="spiro"
       id="path-effect4316-4-6-9"
       is_visible="true" />
    <inkscape:path-effect
       effect="spiro"
       id="path-effect4320-5-8-3"
       is_visible="true" />
    <inkscape:path-effect
       effect="spiro"
       id="path-effect4332-4-0-5"
       is_visible="true" />
    <inkscape:path-effect
       effect="spiro"
       id="path-effect4344-1-9-3"
       is_visible="true" />
    <inkscape:path-effect
       effect="spiro"
       id="path-effect4356-3-1-7"
       is_visible="true" />
    <inkscape:path-effect
       effect="spiro"
       id="path-effect4368-5-8-9"
       is_visible="true" />
    <inkscape:path-effect
       effect="spiro"
       id="path-effect4384-7-4-0"
       is_visible="true" />
    <inkscape:path-effect
       effect="spiro"
       id="path-effect4388-4-8-7"
       is_visible="true" />
    <inkscape:path-effect
       effect="spiro"
       id="path-effect4392-5-2-9"
       is_visible="true" />
    <inkscape:path-effect
       effect="spiro"
       id="path-effect4396-3-5-1"
       is_visible="true" />
    <inkscape:path-effect
       effect="spiro"
       id="path-effect4400-0-1-8"
       is_visible="true" />
    <inkscape:path-effect
       effect="spiro"
       id="path-effect4404-5-7-7"
       is_visible="true" />
    <inkscape:path-effect
       effect="spiro"
       id="path-effect4316-7"
       is_visible="true" />
    <inkscape:path-effect
       effect="spiro"
       id="path-effect4320-4"
       is_visible="true" />
    <inkscape:path-effect
       effect="spiro"
       id="path-effect4332-1"
       is_visible="true" />
    <inkscape:path-effect
       effect="spiro"
       id="path-effect4344-7"
       is_visible="true" />
    <inkscape:path-effect
       effect="spiro"
       id="path-effect4356-7"
       is_visible="true" />
    <inkscape:path-effect
       effect="spiro"
       id="path-effect4368-1"
       is_visible="true" />
    <inkscape:path-effect
       effect="spiro"
       id="path-effect4384-8"
       is_visible="true" />
    <inkscape:path-effect
       effect="spiro"
       id="path-effect4388-1"
       is_visible="true" />
    <inkscape:path-effect
       effect="spiro"
       id="path-effect4392-7"
       is_visible="true" />
    <inkscape:path-effect
       effect="spiro"
       id="path-effect4396-2"
       is_visible="true" />
    <inkscape:path-effect
       effect="spiro"
       id="path-effect4400-06"
       is_visible="true" />
    <inkscape:path-effect
       effect="spiro"
       id="path-effect4404-4"
       is_visible="true" />
    <inkscape:path-effect
       effect="spiro"
       id="path-effect4316-4-7"
       is_visible="true" />
    <inkscape:path-effect
       effect="spiro"
       id="path-effect4320-5-9"
       is_visible="true" />
    <inkscape:path-effect
       effect="spiro"
       id="path-effect4332-4-8"
       is_visible="true" />
    <inkscape:path-effect
       effect="spiro"
       id="path-effect4344-1-6"
       is_visible="true" />
    <inkscape:path-effect
       effect="spiro"
       id="path-effect4356-3-8"
       is_visible="true" />
    <inkscape:path-effect
       effect="spiro"
       id="path-effect4368-5-4"
       is_visible="true" />
    <inkscape:path-effect
       effect="spiro"
       id="path-effect4384-7-9"
       is_visible="true" />
    <inkscape:path-effect
       effect="spiro"
       id="path-effect4388-4-6"
       is_visible="true" />
    <inkscape:path-effect
       effect="spiro"
       id="path-effect4392-5-4"
       is_visible="true" />
    <inkscape:path-effect
       effect="spiro"
       id="path-effect4396-3-0"
       is_visible="true" />
    <inkscape:path-effect
       effect="spiro"
       id="path-effect4400-0-4"
       is_visible="true" />
    <inkscape:path-effect
       effect="spiro"
       id="path-effect4404-5-5"
       is_visible="true" />
    <inkscape:path-effect
       effect="spiro"
       id="path-effect4316-4-6-5"
       is_visible="true" />
    <inkscape:path-effect
       effect="spiro"
       id="path-effect4320-5-8-2"
       is_visible="true" />
    <inkscape:path-effect
       effect="spiro"
       id="path-effect4332-4-0-4"
       is_visible="true" />
    <inkscape:path-effect
       effect="spiro"
       id="path-effect4344-1-9-6"
       is_visible="true" />
    <inkscape:path-effect
       effect="spiro"
       id="path-effect4356-3-1-1"
       is_visible="true" />
    <inkscape:path-effect
       effect="spiro"
       id="path-effect4368-5-8-3"
       is_visible="true" />
    <inkscape:path-effect
       effect="spiro"
       id="path-effect4384-7-4-5"
       is_visible="true" />
    <inkscape:path-effect
       effect="spiro"
       id="path-effect4388-4-8-1"
       is_visible="true" />
    <inkscape:path-effect
       effect="spiro"
       id="path-effect4392-5-2-1"
       is_visible="true" />
    <inkscape:path-effect
       effect="spiro"
       id="path-effect4396-3-5-4"
       is_visible="true" />
    <inkscape:path-effect
       effect="spiro"
       id="path-effect4400-0-1-5"
       is_visible="true" />
    <inkscape:path-effect
       effect="spiro"
       id="path-effect4404-5-7-0"
       is_visible="true" />
    <inkscape:path-effect
       effect="spiro"
       id="path-effect4316-4-6-2"
       is_visible="true" />
    <inkscape:path-effect
       effect="spiro"
       id="path-effect4320-5-8-5"
       is_visible="true" />
    <inkscape:path-effect
       effect="spiro"
       id="path-effect4332-4-0-7"
       is_visible="true" />
    <inkscape:path-effect
       effect="spiro"
       id="path-effect4344-1-9-1"
       is_visible="true" />
    <inkscape:path-effect
       effect="spiro"
       id="path-effect4356-3-1-0"
       is_visible="true" />
    <inkscape:path-effect
       effect="spiro"
       id="path-effect4368-5-8-1"
       is_visible="true" />
    <inkscape:path-effect
       effect="spiro"
       id="path-effect4384-7-4-8"
       is_visible="true" />
    <inkscape:path-effect
       effect="spiro"
       id="path-effect4388-4-8-8"
       is_visible="true" />
    <inkscape:path-effect
       effect="spiro"
       id="path-effect4392-5-2-2"
       is_visible="true" />
    <inkscape:path-effect
       effect="spiro"
       id="path-effect4396-3-5-14"
       is_visible="true" />
    <inkscape:path-effect
       effect="spiro"
       id="path-effect4400-0-1-53"
       is_visible="true" />
    <inkscape:path-effect
       effect="spiro"
       id="path-effect4404-5-7-03"
       is_visible="true" />
    <inkscape:path-effect
       effect="spiro"
       id="path-effect4316-4-6-9-3"
       is_visible="true" />
    <inkscape:path-effect
       effect="spiro"
       id="path-effect4320-5-8-3-8"
       is_visible="true" />
    <inkscape:path-effect
       effect="spiro"
       id="path-effect4332-4-0-5-4"
       is_visible="true" />
    <inkscape:path-effect
       effect="spiro"
       id="path-effect4344-1-9-3-6"
       is_visible="true" />
    <inkscape:path-effect
       effect="spiro"
       id="path-effect4356-3-1-7-1"
       is_visible="true" />
    <inkscape:path-effect
       effect="spiro"
       id="path-effect4368-5-8-9-6"
       is_visible="true" />
    <inkscape:path-effect
       effect="spiro"
       id="path-effect4384-7-4-0-4"
       is_visible="true" />
    <inkscape:path-effect
       effect="spiro"
       id="path-effect4388-4-8-7-9"
       is_visible="true" />
    <inkscape:path-effect
       effect="spiro"
       id="path-effect4392-5-2-9-0"
       is_visible="true" />
    <inkscape:path-effect
       effect="spiro"
       id="path-effect4396-3-5-1-6"
       is_visible="true" />
    <inkscape:path-effect
       effect="spiro"
       id="path-effect4400-0-1-8-3"
       is_visible="true" />
    <inkscape:path-effect
       effect="spiro"
       id="path-effect4404-5-7-7-8"
       is_visible="true" />
    <inkscape:path-effect
       effect="spiro"
       id="path-effect4316-7-0"
       is_visible="true" />
    <inkscape:path-effect
       effect="spiro"
       id="path-effect4320-4-7"
       is_visible="true" />
    <inkscape:path-effect
       effect="spiro"
       id="path-effect4332-1-1"
       is_visible="true" />
    <inkscape:path-effect
       effect="spiro"
       id="path-effect4344-7-3"
       is_visible="true" />
    <inkscape:path-effect
       effect="spiro"
       id="path-effect4356-7-8"
       is_visible="true" />
    <inkscape:path-effect
       effect="spiro"
       id="path-effect4368-1-6"
       is_visible="true" />
    <inkscape:path-effect
       effect="spiro"
       id="path-effect4384-8-8"
       is_visible="true" />
    <inkscape:path-effect
       effect="spiro"
       id="path-effect4388-1-7"
       is_visible="true" />
    <inkscape:path-effect
       effect="spiro"
       id="path-effect4392-7-2"
       is_visible="true" />
    <inkscape:path-effect
       effect="spiro"
       id="path-effect4396-2-4"
       is_visible="true" />
    <inkscape:path-effect
       effect="spiro"
       id="path-effect4400-06-8"
       is_visible="true" />
    <inkscape:path-effect
       effect="spiro"
       id="path-effect4404-4-0"
       is_visible="true" />
  </defs>
  <sodipodi:namedview
     id="base"
     pagecolor="#ffffff"
     bordercolor="#666666"
     borderopacity="1.0"
     inkscape:pageopacity="0.0"
     inkscape:pageshadow="2"
     inkscape:zoom="0.7"
     inkscape:cx="860.66289"
     inkscape:cy="554.89502"
     inkscape:document-units="px"
     inkscape:current-layer="layer1"
     showgrid="false"
     units="px"
     inkscape:window-width="1920"
     inkscape:window-height="1043"
     inkscape:window-x="0"
     inkscape:window-y="0"
     inkscape:window-maximized="1" />
  <metadata
     id="metadata7">
    <rdf:RDF>
      <cc:Work
         rdf:about="">
        <dc:format>image/svg+xml</dc:format>
        <dc:type
           rdf:resource="http://purl.org/dc/dcmitype/StillImage" />
        <dc:title />
      </cc:Work>
    </rdf:RDF>
  </metadata>
  <g
     inkscape:label="Layer 1"
     inkscape:groupmode="layer"
     id="layer1"
     transform="translate(0,27.637408)">
    <g
       transform="translate(-22.092073,1.1980325)"
       style="display:inline"
       id="g5603">
      <path
         sodipodi:nodetypes="cc"
         inkscape:connector-curvature="0"
         inkscape:original-d="m 393.20188,432.63362 c -262.13459,413.15239 -131.06729,206.57619 0,0 z"
         inkscape:path-effect="#path-effect9802"
         id="path9800"
         d="m 393.20188,432.63362 0,0 z"
         style="fill:none;fill-rule:evenodd;stroke:#000000;stroke-width:1px;stroke-linecap:butt;stroke-linejoin:miter;stroke-opacity:1" />
      <rect
         inkscape:transform-center-y="142.68405"
         inkscape:transform-center-x="45.204326"
         transform="matrix(0.96184119,0.27360834,-0.29587192,0.95522762,0,0)"
         ry="8.4366779"
         rx="8.7429991"
         y="611.25055"
         x="593.27875"
         height="316.37543"
         width="17.485998"
         id="rect8093"
         style="fill:#000000;fill-opacity:1;stroke-width:15;stroke-miterlimit:4;stroke-dasharray:none;stroke-dashoffset:0" />
      <rect
         inkscape:transform-center-y="141.42857"
         inkscape:transform-center-x="-45"
         transform="matrix(-0.96291845,0.26979262,0.29998851,0.95394281,0,0)"
         ry="8.4198685"
         rx="8.8370838"
         y="828.94434"
         x="-161.37923"
         height="315.74506"
         width="17.674168"
         id="rect8093-7"
         style="fill:#000000;fill-opacity:1;stroke-width:15;stroke-miterlimit:4;stroke-dasharray:none;stroke-dashoffset:0" />
      <rect
         transform="matrix(-0.9999996,-8.9412964e-4,-7.7483979e-4,0.9999997,0,0)"
         ry="8.4686632"
         rx="7.8835268"
         y="441.00735"
         x="-405.10541"
         height="317.57486"
         width="15.767054"
         id="rect8093-7-2"
         style="fill:#000000;fill-opacity:1;stroke-width:15;stroke-miterlimit:4;stroke-dasharray:none;stroke-dashoffset:0" />
      <rect
         inkscape:transform-center-y="-45.960038"
         inkscape:transform-center-x="-142.14287"
         transform="matrix(0.27618591,0.96110423,0.95606836,-0.29314382,0,0)"
         ry="8.4292593"
         rx="8.6614027"
         y="231.84639"
         x="591.79077"
         height="316.09723"
         width="17.322805"
         id="rect8093-2-2"
         style="fill:#000000;fill-opacity:1;stroke-width:15;stroke-miterlimit:4;stroke-dasharray:none;stroke-dashoffset:0" />
      <rect
         inkscape:transform-center-y="-42.568801"
         inkscape:transform-center-x="142.50004"
         transform="matrix(-0.27532156,0.96135219,-0.95578881,-0.29405399,0,0)"
         ry="8.4317245"
         rx="8.6885948"
         y="-528.00385"
         x="362.72852"
         height="316.18967"
         width="17.37719"
         id="rect8093-2"
         style="fill:#000000;fill-opacity:1;stroke-width:15;stroke-miterlimit:4;stroke-dasharray:none;stroke-dashoffset:0" />
      <ellipse
         ry="116.70027"
         rx="116.70026"
         cy="322.97641"
         cx="396.26031"
         id="path8125"
         style="opacity:1;fill:#ffffff;fill-opacity:1;fill-rule:evenodd;stroke:#000000;stroke-width:16.59946251;stroke-miterlimit:4;stroke-dasharray:none;stroke-dashoffset:0;stroke-opacity:1" />
      <circle
         r="14.495741"
         cy="293.34506"
         cx="339.24237"
         id="path9777"
         style="opacity:1;fill:#000000;fill-opacity:1;fill-rule:evenodd;stroke:#000000;stroke-width:11.00851727;stroke-miterlimit:4;stroke-dasharray:none;stroke-dashoffset:0;stroke-opacity:1" />
      <circle
         r="14.495741"
         cy="293.34506"
         cx="454.24237"
         id="path9777-9"
         style="opacity:1;fill:#000000;fill-opacity:1;fill-rule:evenodd;stroke:#000000;stroke-width:11.00851727;stroke-miterlimit:4;stroke-dasharray:none;stroke-dashoffset:0;stroke-opacity:1" />
      <path
         sodipodi:nodetypes="ccc"
         inkscape:connector-curvature="0"
         id="path9814"
         d="m 343.79146,382.24388 106.19319,0 z"
         style="fill:none;fill-rule:evenodd;stroke:#000000;stroke-width:8;stroke-linecap:butt;stroke-linejoin:round;stroke-miterlimit:4;stroke-dasharray:none;stroke-dashoffset:0;stroke-opacity:1" />
      <path
         sodipodi:nodetypes="ccccccccccc"
         inkscape:connector-curvature="0"
         inkscape:original-d="m 292.61657,1006.0337 207.01652,-0.495 -5.46549,-291.43401 13.132,-229.30463 -12.87942,-26.01143 -79.58015,30.44771 -39.39595,0 -80.27649,-29.18502 -11.8916,33.80115 19.64721,225.75113 z"
         inkscape:path-effect="#path-effect4644"
         id="path4642"
         d="m 292.61657,1006.0337 207.01652,-0.495 -5.46549,-291.43401 13.132,-229.30463 -12.87942,-26.01143 -79.58015,30.44771 -39.39595,0 -80.27649,-29.18502 -11.8916,33.80115 19.64721,225.75113 -10.30663,286.4301 z"
         style="fill:#ffffff;fill-opacity:1;fill-rule:evenodd;stroke:#000000;stroke-width:1px;stroke-linecap:butt;stroke-linejoin:miter;stroke-opacity:1" />
      <path
         sodipodi:nodetypes="cc"
         inkscape:connector-curvature="0"
         inkscape:original-d="M 421.94488,486.55093 293.70309,614.15019"
         inkscape:path-effect="#path-effect4652"
         id="path4650"
         d="M 421.94488,486.55093 293.70309,614.15019"
         style="fill:none;fill-rule:evenodd;stroke:#000000;stroke-width:0.99356294px;stroke-linecap:butt;stroke-linejoin:miter;stroke-opacity:1" />
      <path
         sodipodi:nodetypes="csc"
         inkscape:connector-curvature="0"
         id="path4658"
         d="m 301.95253,730.89179 c 0,0 98.14015,33.28218 145.16564,-27.73519 47.02547,-61.01737 54.69266,-122.53903 54.69266,-122.53903"
         style="fill:none;fill-rule:evenodd;stroke:#000000;stroke-width:1.00519383px;stroke-linecap:butt;stroke-linejoin:miter;stroke-opacity:1" />
      <g
         id="g4459">
        <path
           style="fill:none;fill-rule:evenodd;stroke:#000000;stroke-width:1px;stroke-linecap:butt;stroke-linejoin:miter;stroke-opacity:1"
           inkscape:path-effect="#path-effect4316"
           inkscape:original-d="m 323.1478,223.2795 -13.34665,-12.28598 -13.87696,-4.5962"
           id="path4314"
           d="m 323.1478,223.2795 -13.34665,-12.28598 -13.87696,-4.5962"
           inkscape:connector-curvature="0"
           sodipodi:nodetypes="ccc" />
        <path
           style="fill:none;fill-rule:evenodd;stroke:#000000;stroke-width:1px;stroke-linecap:butt;stroke-linejoin:miter;stroke-opacity:1"
           inkscape:path-effect="#path-effect4320"
           inkscape:original-d="m 310.77343,233.179 -10.25305,-3.27037 -14.14214,-3.62393"
           id="path4318"
           d="m 310.77343,233.179 c -3.39021,-1.17389 -6.80927,-2.26445 -10.25305,-3.27037 -4.67203,-1.36469 -9.38957,-2.57356 -14.14214,-3.62393"
           inkscape:connector-curvature="0"
           sodipodi:nodetypes="ccc" />
        <path
           style="fill:none;fill-rule:evenodd;stroke:#000000;stroke-width:1px;stroke-linecap:butt;stroke-linejoin:miter;stroke-opacity:1"
           inkscape:path-effect="#path-effect4332"
           inkscape:original-d="m 315.36962,228.5828 -16.88217,-6.27557 -8.13172,-8.57367"
           id="path4330"
           d="m 315.36962,228.5828 -16.88217,-6.27557 -8.13172,-8.57367"
           inkscape:connector-curvature="0"
           sodipodi:nodetypes="ccc" />
        <path
           style="fill:none;fill-rule:evenodd;stroke:#000000;stroke-width:1px;stroke-linecap:butt;stroke-linejoin:miter;stroke-opacity:1"
           inkscape:path-effect="#path-effect4344"
           inkscape:original-d="m 299.45972,245.90692 -11.84404,-2.47487 -6.80589,-7.6898"
           id="path4342"
           d="m 299.45972,245.90692 -11.84404,-2.47487 -6.80589,-7.6898"
           inkscape:connector-curvature="0"
           sodipodi:nodetypes="ccc" />
        <path
           style="fill:none;fill-rule:evenodd;stroke:#000000;stroke-width:1px;stroke-linecap:butt;stroke-linejoin:miter;stroke-opacity:1"
           inkscape:path-effect="#path-effect4356"
           inkscape:original-d="m 305.11658,239.54296 -13.08147,-3.88909 -6.44691,-0.15366"
           id="path4354"
           d="m 305.11658,239.54296 -13.08147,-3.88909 -6.44691,-0.15366"
           inkscape:connector-curvature="0"
           sodipodi:nodetypes="ccc" />
        <path
           style="fill:none;fill-rule:evenodd;stroke:#000000;stroke-width:1px;stroke-linecap:butt;stroke-linejoin:miter;stroke-opacity:1"
           inkscape:path-effect="#path-effect4368"
           inkscape:original-d="m 294.86353,253.33154 -13.87697,-3.44714 -2.56327,-7.68979"
           id="path4366"
           d="m 294.86353,253.33154 -13.87697,-3.44714 -2.56327,-7.68979"
           inkscape:connector-curvature="0"
           sodipodi:nodetypes="ccc" />
        <path
           style="fill:none;fill-rule:evenodd;stroke:#000000;stroke-width:1px;stroke-linecap:butt;stroke-linejoin:miter;stroke-opacity:1"
           inkscape:path-effect="#path-effect4384"
           inkscape:original-d="m 290.26733,257.92774 -13.96535,-3.44715 -9.28078,1.14904"
           id="path4382"
           d="m 290.26733,257.92774 -13.96535,-3.44715 -9.28078,1.14904"
           inkscape:connector-curvature="0"
           sodipodi:nodetypes="ccc" />
        <path
           style="fill:none;fill-rule:evenodd;stroke:#000000;stroke-width:1px;stroke-linecap:butt;stroke-linejoin:miter;stroke-opacity:1"
           inkscape:path-effect="#path-effect4388"
           inkscape:original-d="m 287.43891,265.35236 -14.84924,-1.94455 -9.45756,-7.77817"
           id="path4386"
           d="m 287.43891,265.35236 -14.84924,-1.94455 -9.45756,-7.77817"
           inkscape:connector-curvature="0"
           sodipodi:nodetypes="ccc" />
        <path
           style="fill:none;fill-rule:evenodd;stroke:#000000;stroke-width:1px;stroke-linecap:butt;stroke-linejoin:miter;stroke-opacity:1"
           inkscape:path-effect="#path-effect4392"
           inkscape:original-d="m 283.54982,271.00921 -14.05375,0.0884 -7.77817,-5.83363"
           id="path4390"
           d="m 283.54982,271.00921 -14.05375,0.0884 -7.77817,-5.83363"
           inkscape:connector-curvature="0"
           sodipodi:nodetypes="ccc" />
        <path
           style="fill:none;fill-rule:evenodd;stroke:#000000;stroke-width:1px;stroke-linecap:butt;stroke-linejoin:miter;stroke-opacity:1"
           inkscape:path-effect="#path-effect4396"
           inkscape:original-d="m 282.13561,277.72672 -16.26346,0.35355 -7.6014,2.56327"
           id="path4394"
           d="m 282.13561,277.72672 -16.26346,0.35355 -7.6014,2.56327"
           inkscape:connector-curvature="0"
           sodipodi:nodetypes="ccc" />
        <path
           style="fill:none;fill-rule:evenodd;stroke:#000000;stroke-width:1px;stroke-linecap:butt;stroke-linejoin:miter;stroke-opacity:1"
           inkscape:path-effect="#path-effect4400"
           inkscape:original-d="m 277.89297,285.5049 -14.31892,-1.14905 -8.75045,1.85616"
           id="path4398"
           d="m 277.89297,285.5049 -14.31892,-1.14905 -8.75045,1.85616"
           inkscape:connector-curvature="0"
           sodipodi:nodetypes="ccc" />
        <path
           style="fill:none;fill-rule:evenodd;stroke:#000000;stroke-width:1px;stroke-linecap:butt;stroke-linejoin:miter;stroke-opacity:1"
           inkscape:path-effect="#path-effect4404"
           inkscape:original-d="m 275.77165,291.16175 -13.25826,1.50261 -12.72792,-4.41942"
           id="path4402"
           d="m 275.77165,291.16175 -13.25826,1.50261 -12.72792,-4.41942"
           inkscape:connector-curvature="0"
           sodipodi:nodetypes="ccc" />
      </g>
      <g
         id="g4459-7"
         style="display:inline"
         transform="matrix(0.72189213,0.6920056,-0.6920056,0.72189213,330.79008,-182.33465)">
        <path
           style="fill:none;fill-rule:evenodd;stroke:#000000;stroke-width:1px;stroke-linecap:butt;stroke-linejoin:miter;stroke-opacity:1"
           inkscape:path-effect="#path-effect4316-4"
           inkscape:original-d="m 323.1478,223.2795 -13.34665,-12.28598 -13.87696,-4.5962"
           id="path4314-7"
           d="m 323.1478,223.2795 -13.34665,-12.28598 -13.87696,-4.5962"
           inkscape:connector-curvature="0"
           sodipodi:nodetypes="ccc" />
        <path
           style="fill:none;fill-rule:evenodd;stroke:#000000;stroke-width:1px;stroke-linecap:butt;stroke-linejoin:miter;stroke-opacity:1"
           inkscape:path-effect="#path-effect4320-5"
           inkscape:original-d="m 310.77343,233.179 -10.25305,-3.27037 -14.14214,-3.62393"
           id="path4318-2"
           d="m 310.77343,233.179 c -3.39021,-1.17389 -6.80927,-2.26445 -10.25305,-3.27037 -4.67203,-1.36469 -9.38957,-2.57356 -14.14214,-3.62393"
           inkscape:connector-curvature="0"
           sodipodi:nodetypes="ccc" />
        <path
           style="fill:none;fill-rule:evenodd;stroke:#000000;stroke-width:1px;stroke-linecap:butt;stroke-linejoin:miter;stroke-opacity:1"
           inkscape:path-effect="#path-effect4332-4"
           inkscape:original-d="m 315.36962,228.5828 -16.88217,-6.27557 -8.13172,-8.57367"
           id="path4330-2"
           d="m 315.36962,228.5828 -16.88217,-6.27557 -8.13172,-8.57367"
           inkscape:connector-curvature="0"
           sodipodi:nodetypes="ccc" />
        <path
           style="fill:none;fill-rule:evenodd;stroke:#000000;stroke-width:1px;stroke-linecap:butt;stroke-linejoin:miter;stroke-opacity:1"
           inkscape:path-effect="#path-effect4344-1"
           inkscape:original-d="m 299.45972,245.90692 -11.84404,-2.47487 -6.80589,-7.6898"
           id="path4342-0"
           d="m 299.45972,245.90692 -11.84404,-2.47487 -6.80589,-7.6898"
           inkscape:connector-curvature="0"
           sodipodi:nodetypes="ccc" />
        <path
           style="fill:none;fill-rule:evenodd;stroke:#000000;stroke-width:1px;stroke-linecap:butt;stroke-linejoin:miter;stroke-opacity:1"
           inkscape:path-effect="#path-effect4356-3"
           inkscape:original-d="m 305.11658,239.54296 -13.08147,-3.88909 -6.44691,-0.15366"
           id="path4354-7"
           d="m 305.11658,239.54296 -13.08147,-3.88909 -6.44691,-0.15366"
           inkscape:connector-curvature="0"
           sodipodi:nodetypes="ccc" />
        <path
           style="fill:none;fill-rule:evenodd;stroke:#000000;stroke-width:1px;stroke-linecap:butt;stroke-linejoin:miter;stroke-opacity:1"
           inkscape:path-effect="#path-effect4368-5"
           inkscape:original-d="m 294.86353,253.33154 -13.87697,-3.44714 -2.56327,-7.68979"
           id="path4366-6"
           d="m 294.86353,253.33154 -13.87697,-3.44714 -2.56327,-7.68979"
           inkscape:connector-curvature="0"
           sodipodi:nodetypes="ccc" />
        <path
           style="fill:none;fill-rule:evenodd;stroke:#000000;stroke-width:1px;stroke-linecap:butt;stroke-linejoin:miter;stroke-opacity:1"
           inkscape:path-effect="#path-effect4384-7"
           inkscape:original-d="m 290.26733,257.92774 -13.96535,-3.44715 -9.28078,1.14904"
           id="path4382-8"
           d="m 290.26733,257.92774 -13.96535,-3.44715 -9.28078,1.14904"
           inkscape:connector-curvature="0"
           sodipodi:nodetypes="ccc" />
        <path
           style="fill:none;fill-rule:evenodd;stroke:#000000;stroke-width:1px;stroke-linecap:butt;stroke-linejoin:miter;stroke-opacity:1"
           inkscape:path-effect="#path-effect4388-4"
           inkscape:original-d="m 287.43891,265.35236 -14.84924,-1.94455 -9.45756,-7.77817"
           id="path4386-8"
           d="m 287.43891,265.35236 -14.84924,-1.94455 -9.45756,-7.77817"
           inkscape:connector-curvature="0"
           sodipodi:nodetypes="ccc" />
        <path
           style="fill:none;fill-rule:evenodd;stroke:#000000;stroke-width:1px;stroke-linecap:butt;stroke-linejoin:miter;stroke-opacity:1"
           inkscape:path-effect="#path-effect4392-5"
           inkscape:original-d="m 283.54982,271.00921 -14.05375,0.0884 -7.77817,-5.83363"
           id="path4390-5"
           d="m 283.54982,271.00921 -14.05375,0.0884 -7.77817,-5.83363"
           inkscape:connector-curvature="0"
           sodipodi:nodetypes="ccc" />
        <path
           style="fill:none;fill-rule:evenodd;stroke:#000000;stroke-width:1px;stroke-linecap:butt;stroke-linejoin:miter;stroke-opacity:1"
           inkscape:path-effect="#path-effect4396-3"
           inkscape:original-d="m 282.13561,277.72672 -16.26346,0.35355 -7.6014,2.56327"
           id="path4394-2"
           d="m 282.13561,277.72672 -16.26346,0.35355 -7.6014,2.56327"
           inkscape:connector-curvature="0"
           sodipodi:nodetypes="ccc" />
        <path
           style="fill:none;fill-rule:evenodd;stroke:#000000;stroke-width:1px;stroke-linecap:butt;stroke-linejoin:miter;stroke-opacity:1"
           inkscape:path-effect="#path-effect4400-0"
           inkscape:original-d="m 277.89297,285.5049 -14.31892,-1.14905 -8.75045,1.85616"
           id="path4398-3"
           d="m 277.89297,285.5049 -14.31892,-1.14905 -8.75045,1.85616"
           inkscape:connector-curvature="0"
           sodipodi:nodetypes="ccc" />
        <path
           style="fill:none;fill-rule:evenodd;stroke:#000000;stroke-width:1px;stroke-linecap:butt;stroke-linejoin:miter;stroke-opacity:1"
           inkscape:path-effect="#path-effect4404-5"
           inkscape:original-d="m 275.77165,291.16175 -13.25826,1.50261 -12.72792,-4.41942"
           id="path4402-1"
           d="m 275.77165,291.16175 -13.25826,1.50261 -12.72792,-4.41942"
           inkscape:connector-curvature="0"
           sodipodi:nodetypes="ccc" />
      </g>
      <g
         id="g4459-7-4"
         style="display:inline"
         transform="matrix(0.11112713,0.9938062,-0.9938062,0.11112713,674.9566,-104.10001)">
        <path
           style="fill:none;fill-rule:evenodd;stroke:#000000;stroke-width:1px;stroke-linecap:butt;stroke-linejoin:miter;stroke-opacity:1"
           inkscape:path-effect="#path-effect4316-4-6"
           inkscape:original-d="m 323.1478,223.2795 -13.34665,-12.28598 -13.87696,-4.5962"
           id="path4314-7-7"
           d="m 323.1478,223.2795 -13.34665,-12.28598 -13.87696,-4.5962"
           inkscape:connector-curvature="0"
           sodipodi:nodetypes="ccc" />
        <path
           style="fill:none;fill-rule:evenodd;stroke:#000000;stroke-width:1px;stroke-linecap:butt;stroke-linejoin:miter;stroke-opacity:1"
           inkscape:path-effect="#path-effect4320-5-8"
           inkscape:original-d="m 310.77343,233.179 -10.25305,-3.27037 -14.14214,-3.62393"
           id="path4318-2-4"
           d="m 310.77343,233.179 c -3.39021,-1.17389 -6.80927,-2.26445 -10.25305,-3.27037 -4.67203,-1.36469 -9.38957,-2.57356 -14.14214,-3.62393"
           inkscape:connector-curvature="0"
           sodipodi:nodetypes="ccc" />
        <path
           style="fill:none;fill-rule:evenodd;stroke:#000000;stroke-width:1px;stroke-linecap:butt;stroke-linejoin:miter;stroke-opacity:1"
           inkscape:path-effect="#path-effect4332-4-0"
           inkscape:original-d="m 315.36962,228.5828 -16.88217,-6.27557 -8.13172,-8.57367"
           id="path4330-2-0"
           d="m 315.36962,228.5828 -16.88217,-6.27557 -8.13172,-8.57367"
           inkscape:connector-curvature="0"
           sodipodi:nodetypes="ccc" />
        <path
           style="fill:none;fill-rule:evenodd;stroke:#000000;stroke-width:1px;stroke-linecap:butt;stroke-linejoin:miter;stroke-opacity:1"
           inkscape:path-effect="#path-effect4344-1-9"
           inkscape:original-d="m 299.45972,245.90692 -11.84404,-2.47487 -6.80589,-7.6898"
           id="path4342-0-9"
           d="m 299.45972,245.90692 -11.84404,-2.47487 -6.80589,-7.6898"
           inkscape:connector-curvature="0"
           sodipodi:nodetypes="ccc" />
        <path
           style="fill:none;fill-rule:evenodd;stroke:#000000;stroke-width:1px;stroke-linecap:butt;stroke-linejoin:miter;stroke-opacity:1"
           inkscape:path-effect="#path-effect4356-3-1"
           inkscape:original-d="m 305.11658,239.54296 -13.08147,-3.88909 -6.44691,-0.15366"
           id="path4354-7-1"
           d="m 305.11658,239.54296 -13.08147,-3.88909 -6.44691,-0.15366"
           inkscape:connector-curvature="0"
           sodipodi:nodetypes="ccc" />
        <path
           style="fill:none;fill-rule:evenodd;stroke:#000000;stroke-width:1px;stroke-linecap:butt;stroke-linejoin:miter;stroke-opacity:1"
           inkscape:path-effect="#path-effect4368-5-8"
           inkscape:original-d="m 294.86353,253.33154 -13.87697,-3.44714 -2.56327,-7.68979"
           id="path4366-6-7"
           d="m 294.86353,253.33154 -13.87697,-3.44714 -2.56327,-7.68979"
           inkscape:connector-curvature="0"
           sodipodi:nodetypes="ccc" />
        <path
           style="fill:none;fill-rule:evenodd;stroke:#000000;stroke-width:1px;stroke-linecap:butt;stroke-linejoin:miter;stroke-opacity:1"
           inkscape:path-effect="#path-effect4384-7-4"
           inkscape:original-d="m 290.26733,257.92774 -13.96535,-3.44715 -9.28078,1.14904"
           id="path4382-8-8"
           d="m 290.26733,257.92774 -13.96535,-3.44715 -9.28078,1.14904"
           inkscape:connector-curvature="0"
           sodipodi:nodetypes="ccc" />
        <path
           style="fill:none;fill-rule:evenodd;stroke:#000000;stroke-width:1px;stroke-linecap:butt;stroke-linejoin:miter;stroke-opacity:1"
           inkscape:path-effect="#path-effect4388-4-8"
           inkscape:original-d="m 287.43891,265.35236 -14.84924,-1.94455 -9.45756,-7.77817"
           id="path4386-8-3"
           d="m 287.43891,265.35236 -14.84924,-1.94455 -9.45756,-7.77817"
           inkscape:connector-curvature="0"
           sodipodi:nodetypes="ccc" />
        <path
           style="fill:none;fill-rule:evenodd;stroke:#000000;stroke-width:1px;stroke-linecap:butt;stroke-linejoin:miter;stroke-opacity:1"
           inkscape:path-effect="#path-effect4392-5-2"
           inkscape:original-d="m 283.54982,271.00921 -14.05375,0.0884 -7.77817,-5.83363"
           id="path4390-5-0"
           d="m 283.54982,271.00921 -14.05375,0.0884 -7.77817,-5.83363"
           inkscape:connector-curvature="0"
           sodipodi:nodetypes="ccc" />
        <path
           style="fill:none;fill-rule:evenodd;stroke:#000000;stroke-width:1px;stroke-linecap:butt;stroke-linejoin:miter;stroke-opacity:1"
           inkscape:path-effect="#path-effect4396-3-5"
           inkscape:original-d="m 282.13561,277.72672 -16.26346,0.35355 -7.6014,2.56327"
           id="path4394-2-0"
           d="m 282.13561,277.72672 -16.26346,0.35355 -7.6014,2.56327"
           inkscape:connector-curvature="0"
           sodipodi:nodetypes="ccc" />
        <path
           style="fill:none;fill-rule:evenodd;stroke:#000000;stroke-width:1px;stroke-linecap:butt;stroke-linejoin:miter;stroke-opacity:1"
           inkscape:path-effect="#path-effect4400-0-1"
           inkscape:original-d="m 277.89297,285.5049 -14.31892,-1.14905 -8.75045,1.85616"
           id="path4398-3-3"
           d="m 277.89297,285.5049 -14.31892,-1.14905 -8.75045,1.85616"
           inkscape:connector-curvature="0"
           sodipodi:nodetypes="ccc" />
        <path
           style="fill:none;fill-rule:evenodd;stroke:#000000;stroke-width:1px;stroke-linecap:butt;stroke-linejoin:miter;stroke-opacity:1"
           inkscape:path-effect="#path-effect4404-5-7"
           inkscape:original-d="m 275.77165,291.16175 -13.25826,1.50261 -12.72792,-4.41942"
           id="path4402-1-8"
           d="m 275.77165,291.16175 -13.25826,1.50261 -12.72792,-4.41942"
           inkscape:connector-curvature="0"
           sodipodi:nodetypes="ccc" />
      </g>
      <g
         id="g4459-7-4-5"
         style="display:inline"
         transform="matrix(-0.62186344,0.7831257,-0.7831257,-0.62186344,892.41659,210.19533)">
        <path
           style="fill:none;fill-rule:evenodd;stroke:#000000;stroke-width:1px;stroke-linecap:butt;stroke-linejoin:miter;stroke-opacity:1"
           inkscape:path-effect="#path-effect4316-4-6-9"
           inkscape:original-d="m 323.1478,223.2795 -13.34665,-12.28598 -13.87696,-4.5962"
           id="path4314-7-7-8"
           d="m 323.1478,223.2795 -13.34665,-12.28598 -13.87696,-4.5962"
           inkscape:connector-curvature="0"
           sodipodi:nodetypes="ccc" />
        <path
           style="fill:none;fill-rule:evenodd;stroke:#000000;stroke-width:1px;stroke-linecap:butt;stroke-linejoin:miter;stroke-opacity:1"
           inkscape:path-effect="#path-effect4320-5-8-3"
           inkscape:original-d="m 310.77343,233.179 -10.25305,-3.27037 -14.14214,-3.62393"
           id="path4318-2-4-1"
           d="m 310.77343,233.179 c -3.39021,-1.17389 -6.80927,-2.26445 -10.25305,-3.27037 -4.67203,-1.36469 -9.38957,-2.57356 -14.14214,-3.62393"
           inkscape:connector-curvature="0"
           sodipodi:nodetypes="ccc" />
        <path
           style="fill:none;fill-rule:evenodd;stroke:#000000;stroke-width:1px;stroke-linecap:butt;stroke-linejoin:miter;stroke-opacity:1"
           inkscape:path-effect="#path-effect4332-4-0-5"
           inkscape:original-d="m 315.36962,228.5828 -16.88217,-6.27557 -8.13172,-8.57367"
           id="path4330-2-0-3"
           d="m 315.36962,228.5828 -16.88217,-6.27557 -8.13172,-8.57367"
           inkscape:connector-curvature="0"
           sodipodi:nodetypes="ccc" />
        <path
           style="fill:none;fill-rule:evenodd;stroke:#000000;stroke-width:1px;stroke-linecap:butt;stroke-linejoin:miter;stroke-opacity:1"
           inkscape:path-effect="#path-effect4344-1-9-3"
           inkscape:original-d="m 299.45972,245.90692 -11.84404,-2.47487 -6.80589,-7.6898"
           id="path4342-0-9-1"
           d="m 299.45972,245.90692 -11.84404,-2.47487 -6.80589,-7.6898"
           inkscape:connector-curvature="0"
           sodipodi:nodetypes="ccc" />
        <path
           style="fill:none;fill-rule:evenodd;stroke:#000000;stroke-width:1px;stroke-linecap:butt;stroke-linejoin:miter;stroke-opacity:1"
           inkscape:path-effect="#path-effect4356-3-1-7"
           inkscape:original-d="m 305.11658,239.54296 -13.08147,-3.88909 -6.44691,-0.15366"
           id="path4354-7-1-1"
           d="m 305.11658,239.54296 -13.08147,-3.88909 -6.44691,-0.15366"
           inkscape:connector-curvature="0"
           sodipodi:nodetypes="ccc" />
        <path
           style="fill:none;fill-rule:evenodd;stroke:#000000;stroke-width:1px;stroke-linecap:butt;stroke-linejoin:miter;stroke-opacity:1"
           inkscape:path-effect="#path-effect4368-5-8-9"
           inkscape:original-d="m 294.86353,253.33154 -13.87697,-3.44714 -2.56327,-7.68979"
           id="path4366-6-7-9"
           d="m 294.86353,253.33154 -13.87697,-3.44714 -2.56327,-7.68979"
           inkscape:connector-curvature="0"
           sodipodi:nodetypes="ccc" />
        <path
           style="fill:none;fill-rule:evenodd;stroke:#000000;stroke-width:1px;stroke-linecap:butt;stroke-linejoin:miter;stroke-opacity:1"
           inkscape:path-effect="#path-effect4384-7-4-0"
           inkscape:original-d="m 290.26733,257.92774 -13.96535,-3.44715 -9.28078,1.14904"
           id="path4382-8-8-9"
           d="m 290.26733,257.92774 -13.96535,-3.44715 -9.28078,1.14904"
           inkscape:connector-curvature="0"
           sodipodi:nodetypes="ccc" />
        <path
           style="fill:none;fill-rule:evenodd;stroke:#000000;stroke-width:1px;stroke-linecap:butt;stroke-linejoin:miter;stroke-opacity:1"
           inkscape:path-effect="#path-effect4388-4-8-7"
           inkscape:original-d="m 287.43891,265.35236 -14.84924,-1.94455 -9.45756,-7.77817"
           id="path4386-8-3-7"
           d="m 287.43891,265.35236 -14.84924,-1.94455 -9.45756,-7.77817"
           inkscape:connector-curvature="0"
           sodipodi:nodetypes="ccc" />
        <path
           style="fill:none;fill-rule:evenodd;stroke:#000000;stroke-width:1px;stroke-linecap:butt;stroke-linejoin:miter;stroke-opacity:1"
           inkscape:path-effect="#path-effect4392-5-2-9"
           inkscape:original-d="m 283.54982,271.00921 -14.05375,0.0884 -7.77817,-5.83363"
           id="path4390-5-0-9"
           d="m 283.54982,271.00921 -14.05375,0.0884 -7.77817,-5.83363"
           inkscape:connector-curvature="0"
           sodipodi:nodetypes="ccc" />
        <path
           style="fill:none;fill-rule:evenodd;stroke:#000000;stroke-width:1px;stroke-linecap:butt;stroke-linejoin:miter;stroke-opacity:1"
           inkscape:path-effect="#path-effect4396-3-5-1"
           inkscape:original-d="m 282.13561,277.72672 -16.26346,0.35355 -7.6014,2.56327"
           id="path4394-2-0-8"
           d="m 282.13561,277.72672 -16.26346,0.35355 -7.6014,2.56327"
           inkscape:connector-curvature="0"
           sodipodi:nodetypes="ccc" />
        <path
           style="fill:none;fill-rule:evenodd;stroke:#000000;stroke-width:1px;stroke-linecap:butt;stroke-linejoin:miter;stroke-opacity:1"
           inkscape:path-effect="#path-effect4400-0-1-8"
           inkscape:original-d="m 277.89297,285.5049 -14.31892,-1.14905 -8.75045,1.85616"
           id="path4398-3-3-9"
           d="m 277.89297,285.5049 -14.31892,-1.14905 -8.75045,1.85616"
           inkscape:connector-curvature="0"
           sodipodi:nodetypes="ccc" />
        <path
           style="fill:none;fill-rule:evenodd;stroke:#000000;stroke-width:1px;stroke-linecap:butt;stroke-linejoin:miter;stroke-opacity:1"
           inkscape:path-effect="#path-effect4404-5-7-7"
           inkscape:original-d="m 275.77165,291.16175 -13.25826,1.50261 -12.72792,-4.41942"
           id="path4402-1-8-9"
           d="m 275.77165,291.16175 -13.25826,1.50261 -12.72792,-4.41942"
           inkscape:connector-curvature="0"
           sodipodi:nodetypes="ccc" />
      </g>
      <g
         id="g4459-77"
         style="display:inline"
         transform="matrix(0.99543544,-0.09543736,0.09543736,0.99543544,-30.462116,49.947912)">
        <path
           style="fill:none;fill-rule:evenodd;stroke:#000000;stroke-width:1px;stroke-linecap:butt;stroke-linejoin:miter;stroke-opacity:1"
           inkscape:path-effect="#path-effect4316-7"
           inkscape:original-d="m 323.1478,223.2795 -13.34665,-12.28598 -13.87696,-4.5962"
           id="path4314-5"
           d="m 323.1478,223.2795 -13.34665,-12.28598 -13.87696,-4.5962"
           inkscape:connector-curvature="0"
           sodipodi:nodetypes="ccc" />
        <path
           style="fill:none;fill-rule:evenodd;stroke:#000000;stroke-width:1px;stroke-linecap:butt;stroke-linejoin:miter;stroke-opacity:1"
           inkscape:path-effect="#path-effect4320-4"
           inkscape:original-d="m 310.77343,233.179 -10.25305,-3.27037 -14.14214,-3.62393"
           id="path4318-8"
           d="m 310.77343,233.179 c -3.39021,-1.17389 -6.80927,-2.26445 -10.25305,-3.27037 -4.67203,-1.36469 -9.38957,-2.57356 -14.14214,-3.62393"
           inkscape:connector-curvature="0"
           sodipodi:nodetypes="ccc" />
        <path
           style="fill:none;fill-rule:evenodd;stroke:#000000;stroke-width:1px;stroke-linecap:butt;stroke-linejoin:miter;stroke-opacity:1"
           inkscape:path-effect="#path-effect4332-1"
           inkscape:original-d="m 315.36962,228.5828 -16.88217,-6.27557 -8.13172,-8.57367"
           id="path4330-5"
           d="m 315.36962,228.5828 -16.88217,-6.27557 -8.13172,-8.57367"
           inkscape:connector-curvature="0"
           sodipodi:nodetypes="ccc" />
        <path
           style="fill:none;fill-rule:evenodd;stroke:#000000;stroke-width:1px;stroke-linecap:butt;stroke-linejoin:miter;stroke-opacity:1"
           inkscape:path-effect="#path-effect4344-7"
           inkscape:original-d="m 299.45972,245.90692 -11.84404,-2.47487 -6.80589,-7.6898"
           id="path4342-1"
           d="m 299.45972,245.90692 -11.84404,-2.47487 -6.80589,-7.6898"
           inkscape:connector-curvature="0"
           sodipodi:nodetypes="ccc" />
        <path
           style="fill:none;fill-rule:evenodd;stroke:#000000;stroke-width:1px;stroke-linecap:butt;stroke-linejoin:miter;stroke-opacity:1"
           inkscape:path-effect="#path-effect4356-7"
           inkscape:original-d="m 305.11658,239.54296 -13.08147,-3.88909 -6.44691,-0.15366"
           id="path4354-8"
           d="m 305.11658,239.54296 -13.08147,-3.88909 -6.44691,-0.15366"
           inkscape:connector-curvature="0"
           sodipodi:nodetypes="ccc" />
        <path
           style="fill:none;fill-rule:evenodd;stroke:#000000;stroke-width:1px;stroke-linecap:butt;stroke-linejoin:miter;stroke-opacity:1"
           inkscape:path-effect="#path-effect4368-1"
           inkscape:original-d="m 294.86353,253.33154 -13.87697,-3.44714 -2.56327,-7.68979"
           id="path4366-8"
           d="m 294.86353,253.33154 -13.87697,-3.44714 -2.56327,-7.68979"
           inkscape:connector-curvature="0"
           sodipodi:nodetypes="ccc" />
        <path
           style="fill:none;fill-rule:evenodd;stroke:#000000;stroke-width:1px;stroke-linecap:butt;stroke-linejoin:miter;stroke-opacity:1"
           inkscape:path-effect="#path-effect4384-8"
           inkscape:original-d="m 290.26733,257.92774 -13.96535,-3.44715 -9.28078,1.14904"
           id="path4382-6"
           d="m 290.26733,257.92774 -13.96535,-3.44715 -9.28078,1.14904"
           inkscape:connector-curvature="0"
           sodipodi:nodetypes="ccc" />
        <path
           style="fill:none;fill-rule:evenodd;stroke:#000000;stroke-width:1px;stroke-linecap:butt;stroke-linejoin:miter;stroke-opacity:1"
           inkscape:path-effect="#path-effect4388-1"
           inkscape:original-d="m 287.43891,265.35236 -14.84924,-1.94455 -9.45756,-7.77817"
           id="path4386-0"
           d="m 287.43891,265.35236 -14.84924,-1.94455 -9.45756,-7.77817"
           inkscape:connector-curvature="0"
           sodipodi:nodetypes="ccc" />
        <path
           style="fill:none;fill-rule:evenodd;stroke:#000000;stroke-width:1px;stroke-linecap:butt;stroke-linejoin:miter;stroke-opacity:1"
           inkscape:path-effect="#path-effect4392-7"
           inkscape:original-d="m 283.54982,271.00921 -14.05375,0.0884 -7.77817,-5.83363"
           id="path4390-9"
           d="m 283.54982,271.00921 -14.05375,0.0884 -7.77817,-5.83363"
           inkscape:connector-curvature="0"
           sodipodi:nodetypes="ccc" />
        <path
           style="fill:none;fill-rule:evenodd;stroke:#000000;stroke-width:1px;stroke-linecap:butt;stroke-linejoin:miter;stroke-opacity:1"
           inkscape:path-effect="#path-effect4396-2"
           inkscape:original-d="m 282.13561,277.72672 -16.26346,0.35355 -7.6014,2.56327"
           id="path4394-5"
           d="m 282.13561,277.72672 -16.26346,0.35355 -7.6014,2.56327"
           inkscape:connector-curvature="0"
           sodipodi:nodetypes="ccc" />
        <path
           style="fill:none;fill-rule:evenodd;stroke:#000000;stroke-width:1px;stroke-linecap:butt;stroke-linejoin:miter;stroke-opacity:1"
           inkscape:path-effect="#path-effect4400-06"
           inkscape:original-d="m 277.89297,285.5049 -14.31892,-1.14905 -8.75045,1.85616"
           id="path4398-9"
           d="m 277.89297,285.5049 -14.31892,-1.14905 -8.75045,1.85616"
           inkscape:connector-curvature="0"
           sodipodi:nodetypes="ccc" />
        <path
           style="fill:none;fill-rule:evenodd;stroke:#000000;stroke-width:1px;stroke-linecap:butt;stroke-linejoin:miter;stroke-opacity:1"
           inkscape:path-effect="#path-effect4404-4"
           inkscape:original-d="m 275.77165,291.16175 -13.25826,1.50261 -12.72792,-4.41942"
           id="path4402-9"
           d="m 275.77165,291.16175 -13.25826,1.50261 -12.72792,-4.41942"
           inkscape:connector-curvature="0"
           sodipodi:nodetypes="ccc" />
      </g>
      <g
         id="g4459-7-9"
         style="display:inline"
         transform="matrix(0.808633,0.58831342,-0.58831342,0.808633,256.30825,-165.68195)">
        <path
           style="fill:none;fill-rule:evenodd;stroke:#000000;stroke-width:1px;stroke-linecap:butt;stroke-linejoin:miter;stroke-opacity:1"
           inkscape:path-effect="#path-effect4316-4-7"
           inkscape:original-d="m 323.1478,223.2795 -13.34665,-12.28598 -13.87696,-4.5962"
           id="path4314-7-8"
           d="m 323.1478,223.2795 -13.34665,-12.28598 -13.87696,-4.5962"
           inkscape:connector-curvature="0"
           sodipodi:nodetypes="ccc" />
        <path
           style="fill:none;fill-rule:evenodd;stroke:#000000;stroke-width:1px;stroke-linecap:butt;stroke-linejoin:miter;stroke-opacity:1"
           inkscape:path-effect="#path-effect4320-5-9"
           inkscape:original-d="m 310.77343,233.179 -10.25305,-3.27037 -14.14214,-3.62393"
           id="path4318-2-7"
           d="m 310.77343,233.179 c -3.39021,-1.17389 -6.80927,-2.26445 -10.25305,-3.27037 -4.67203,-1.36469 -9.38957,-2.57356 -14.14214,-3.62393"
           inkscape:connector-curvature="0"
           sodipodi:nodetypes="ccc" />
        <path
           style="fill:none;fill-rule:evenodd;stroke:#000000;stroke-width:1px;stroke-linecap:butt;stroke-linejoin:miter;stroke-opacity:1"
           inkscape:path-effect="#path-effect4332-4-8"
           inkscape:original-d="m 315.36962,228.5828 -16.88217,-6.27557 -8.13172,-8.57367"
           id="path4330-2-5"
           d="m 315.36962,228.5828 -16.88217,-6.27557 -8.13172,-8.57367"
           inkscape:connector-curvature="0"
           sodipodi:nodetypes="ccc" />
        <path
           style="fill:none;fill-rule:evenodd;stroke:#000000;stroke-width:1px;stroke-linecap:butt;stroke-linejoin:miter;stroke-opacity:1"
           inkscape:path-effect="#path-effect4344-1-6"
           inkscape:original-d="m 299.45972,245.90692 -11.84404,-2.47487 -6.80589,-7.6898"
           id="path4342-0-2"
           d="m 299.45972,245.90692 -11.84404,-2.47487 -6.80589,-7.6898"
           inkscape:connector-curvature="0"
           sodipodi:nodetypes="ccc" />
        <path
           style="fill:none;fill-rule:evenodd;stroke:#000000;stroke-width:1px;stroke-linecap:butt;stroke-linejoin:miter;stroke-opacity:1"
           inkscape:path-effect="#path-effect4356-3-8"
           inkscape:original-d="m 305.11658,239.54296 -13.08147,-3.88909 -6.44691,-0.15366"
           id="path4354-7-6"
           d="m 305.11658,239.54296 -13.08147,-3.88909 -6.44691,-0.15366"
           inkscape:connector-curvature="0"
           sodipodi:nodetypes="ccc" />
        <path
           style="fill:none;fill-rule:evenodd;stroke:#000000;stroke-width:1px;stroke-linecap:butt;stroke-linejoin:miter;stroke-opacity:1"
           inkscape:path-effect="#path-effect4368-5-4"
           inkscape:original-d="m 294.86353,253.33154 -13.87697,-3.44714 -2.56327,-7.68979"
           id="path4366-6-5"
           d="m 294.86353,253.33154 -13.87697,-3.44714 -2.56327,-7.68979"
           inkscape:connector-curvature="0"
           sodipodi:nodetypes="ccc" />
        <path
           style="fill:none;fill-rule:evenodd;stroke:#000000;stroke-width:1px;stroke-linecap:butt;stroke-linejoin:miter;stroke-opacity:1"
           inkscape:path-effect="#path-effect4384-7-9"
           inkscape:original-d="m 290.26733,257.92774 -13.96535,-3.44715 -9.28078,1.14904"
           id="path4382-8-86"
           d="m 290.26733,257.92774 -13.96535,-3.44715 -9.28078,1.14904"
           inkscape:connector-curvature="0"
           sodipodi:nodetypes="ccc" />
        <path
           style="fill:none;fill-rule:evenodd;stroke:#000000;stroke-width:1px;stroke-linecap:butt;stroke-linejoin:miter;stroke-opacity:1"
           inkscape:path-effect="#path-effect4388-4-6"
           inkscape:original-d="m 287.43891,265.35236 -14.84924,-1.94455 -9.45756,-7.77817"
           id="path4386-8-2"
           d="m 287.43891,265.35236 -14.84924,-1.94455 -9.45756,-7.77817"
           inkscape:connector-curvature="0"
           sodipodi:nodetypes="ccc" />
        <path
           style="fill:none;fill-rule:evenodd;stroke:#000000;stroke-width:1px;stroke-linecap:butt;stroke-linejoin:miter;stroke-opacity:1"
           inkscape:path-effect="#path-effect4392-5-4"
           inkscape:original-d="m 283.54982,271.00921 -14.05375,0.0884 -7.77817,-5.83363"
           id="path4390-5-1"
           d="m 283.54982,271.00921 -14.05375,0.0884 -7.77817,-5.83363"
           inkscape:connector-curvature="0"
           sodipodi:nodetypes="ccc" />
        <path
           style="fill:none;fill-rule:evenodd;stroke:#000000;stroke-width:1px;stroke-linecap:butt;stroke-linejoin:miter;stroke-opacity:1"
           inkscape:path-effect="#path-effect4396-3-0"
           inkscape:original-d="m 282.13561,277.72672 -16.26346,0.35355 -7.6014,2.56327"
           id="path4394-2-5"
           d="m 282.13561,277.72672 -16.26346,0.35355 -7.6014,2.56327"
           inkscape:connector-curvature="0"
           sodipodi:nodetypes="ccc" />
        <path
           style="fill:none;fill-rule:evenodd;stroke:#000000;stroke-width:1px;stroke-linecap:butt;stroke-linejoin:miter;stroke-opacity:1"
           inkscape:path-effect="#path-effect4400-0-4"
           inkscape:original-d="m 277.89297,285.5049 -14.31892,-1.14905 -8.75045,1.85616"
           id="path4398-3-0"
           d="m 277.89297,285.5049 -14.31892,-1.14905 -8.75045,1.85616"
           inkscape:connector-curvature="0"
           sodipodi:nodetypes="ccc" />
        <path
           style="fill:none;fill-rule:evenodd;stroke:#000000;stroke-width:1px;stroke-linecap:butt;stroke-linejoin:miter;stroke-opacity:1"
           inkscape:path-effect="#path-effect4404-5-5"
           inkscape:original-d="m 275.77165,291.16175 -13.25826,1.50261 -12.72792,-4.41942"
           id="path4402-1-9"
           d="m 275.77165,291.16175 -13.25826,1.50261 -12.72792,-4.41942"
           inkscape:connector-curvature="0"
           sodipodi:nodetypes="ccc" />
      </g>
      <g
         id="g4459-7-4-2"
         style="display:inline"
         transform="matrix(0.30723024,0.95163522,-0.95163522,0.30723024,582.23792,-151.82137)">
        <path
           style="fill:none;fill-rule:evenodd;stroke:#000000;stroke-width:1px;stroke-linecap:butt;stroke-linejoin:miter;stroke-opacity:1"
           inkscape:path-effect="#path-effect4316-4-6-5"
           inkscape:original-d="m 323.1478,223.2795 -13.34665,-12.28598 -13.87696,-4.5962"
           id="path4314-7-7-9"
           d="m 323.1478,223.2795 -13.34665,-12.28598 -13.87696,-4.5962"
           inkscape:connector-curvature="0"
           sodipodi:nodetypes="ccc" />
        <path
           style="fill:none;fill-rule:evenodd;stroke:#000000;stroke-width:1px;stroke-linecap:butt;stroke-linejoin:miter;stroke-opacity:1"
           inkscape:path-effect="#path-effect4320-5-8-2"
           inkscape:original-d="m 310.77343,233.179 -10.25305,-3.27037 -14.14214,-3.62393"
           id="path4318-2-4-3"
           d="m 310.77343,233.179 c -3.39021,-1.17389 -6.80927,-2.26445 -10.25305,-3.27037 -4.67203,-1.36469 -9.38957,-2.57356 -14.14214,-3.62393"
           inkscape:connector-curvature="0"
           sodipodi:nodetypes="ccc" />
        <path
           style="fill:none;fill-rule:evenodd;stroke:#000000;stroke-width:1px;stroke-linecap:butt;stroke-linejoin:miter;stroke-opacity:1"
           inkscape:path-effect="#path-effect4332-4-0-4"
           inkscape:original-d="m 315.36962,228.5828 -16.88217,-6.27557 -8.13172,-8.57367"
           id="path4330-2-0-8"
           d="m 315.36962,228.5828 -16.88217,-6.27557 -8.13172,-8.57367"
           inkscape:connector-curvature="0"
           sodipodi:nodetypes="ccc" />
        <path
           style="fill:none;fill-rule:evenodd;stroke:#000000;stroke-width:1px;stroke-linecap:butt;stroke-linejoin:miter;stroke-opacity:1"
           inkscape:path-effect="#path-effect4344-1-9-6"
           inkscape:original-d="m 299.45972,245.90692 -11.84404,-2.47487 -6.80589,-7.6898"
           id="path4342-0-9-6"
           d="m 299.45972,245.90692 -11.84404,-2.47487 -6.80589,-7.6898"
           inkscape:connector-curvature="0"
           sodipodi:nodetypes="ccc" />
        <path
           style="fill:none;fill-rule:evenodd;stroke:#000000;stroke-width:1px;stroke-linecap:butt;stroke-linejoin:miter;stroke-opacity:1"
           inkscape:path-effect="#path-effect4356-3-1-1"
           inkscape:original-d="m 305.11658,239.54296 -13.08147,-3.88909 -6.44691,-0.15366"
           id="path4354-7-1-2"
           d="m 305.11658,239.54296 -13.08147,-3.88909 -6.44691,-0.15366"
           inkscape:connector-curvature="0"
           sodipodi:nodetypes="ccc" />
        <path
           style="fill:none;fill-rule:evenodd;stroke:#000000;stroke-width:1px;stroke-linecap:butt;stroke-linejoin:miter;stroke-opacity:1"
           inkscape:path-effect="#path-effect4368-5-8-3"
           inkscape:original-d="m 294.86353,253.33154 -13.87697,-3.44714 -2.56327,-7.68979"
           id="path4366-6-7-7"
           d="m 294.86353,253.33154 -13.87697,-3.44714 -2.56327,-7.68979"
           inkscape:connector-curvature="0"
           sodipodi:nodetypes="ccc" />
        <path
           style="fill:none;fill-rule:evenodd;stroke:#000000;stroke-width:1px;stroke-linecap:butt;stroke-linejoin:miter;stroke-opacity:1"
           inkscape:path-effect="#path-effect4384-7-4-5"
           inkscape:original-d="m 290.26733,257.92774 -13.96535,-3.44715 -9.28078,1.14904"
           id="path4382-8-8-5"
           d="m 290.26733,257.92774 -13.96535,-3.44715 -9.28078,1.14904"
           inkscape:connector-curvature="0"
           sodipodi:nodetypes="ccc" />
        <path
           style="fill:none;fill-rule:evenodd;stroke:#000000;stroke-width:1px;stroke-linecap:butt;stroke-linejoin:miter;stroke-opacity:1"
           inkscape:path-effect="#path-effect4388-4-8-1"
           inkscape:original-d="m 287.43891,265.35236 -14.84924,-1.94455 -9.45756,-7.77817"
           id="path4386-8-3-0"
           d="m 287.43891,265.35236 -14.84924,-1.94455 -9.45756,-7.77817"
           inkscape:connector-curvature="0"
           sodipodi:nodetypes="ccc" />
        <path
           style="fill:none;fill-rule:evenodd;stroke:#000000;stroke-width:1px;stroke-linecap:butt;stroke-linejoin:miter;stroke-opacity:1"
           inkscape:path-effect="#path-effect4392-5-2-1"
           inkscape:original-d="m 283.54982,271.00921 -14.05375,0.0884 -7.77817,-5.83363"
           id="path4390-5-0-92"
           d="m 283.54982,271.00921 -14.05375,0.0884 -7.77817,-5.83363"
           inkscape:connector-curvature="0"
           sodipodi:nodetypes="ccc" />
        <path
           style="fill:none;fill-rule:evenodd;stroke:#000000;stroke-width:1px;stroke-linecap:butt;stroke-linejoin:miter;stroke-opacity:1"
           inkscape:path-effect="#path-effect4396-3-5-4"
           inkscape:original-d="m 282.13561,277.72672 -16.26346,0.35355 -7.6014,2.56327"
           id="path4394-2-0-5"
           d="m 282.13561,277.72672 -16.26346,0.35355 -7.6014,2.56327"
           inkscape:connector-curvature="0"
           sodipodi:nodetypes="ccc" />
        <path
           style="fill:none;fill-rule:evenodd;stroke:#000000;stroke-width:1px;stroke-linecap:butt;stroke-linejoin:miter;stroke-opacity:1"
           inkscape:path-effect="#path-effect4400-0-1-5"
           inkscape:original-d="m 277.89297,285.5049 -14.31892,-1.14905 -8.75045,1.85616"
           id="path4398-3-3-90"
           d="m 277.89297,285.5049 -14.31892,-1.14905 -8.75045,1.85616"
           inkscape:connector-curvature="0"
           sodipodi:nodetypes="ccc" />
        <path
           style="fill:none;fill-rule:evenodd;stroke:#000000;stroke-width:1px;stroke-linecap:butt;stroke-linejoin:miter;stroke-opacity:1"
           inkscape:path-effect="#path-effect4404-5-7-0"
           inkscape:original-d="m 275.77165,291.16175 -13.25826,1.50261 -12.72792,-4.41942"
           id="path4402-1-8-7"
           d="m 275.77165,291.16175 -13.25826,1.50261 -12.72792,-4.41942"
           inkscape:connector-curvature="0"
           sodipodi:nodetypes="ccc" />
      </g>
      <g
         id="g4459-7-4-52"
         style="display:inline"
         transform="matrix(-0.21843671,0.97585112,-0.97585112,-0.21843671,794.17971,3.2086305)">
        <path
           style="fill:none;fill-rule:evenodd;stroke:#000000;stroke-width:1px;stroke-linecap:butt;stroke-linejoin:miter;stroke-opacity:1"
           inkscape:path-effect="#path-effect4316-4-6-2"
           inkscape:original-d="m 323.1478,223.2795 -13.34665,-12.28598 -13.87696,-4.5962"
           id="path4314-7-7-2"
           d="m 323.1478,223.2795 -13.34665,-12.28598 -13.87696,-4.5962"
           inkscape:connector-curvature="0"
           sodipodi:nodetypes="ccc" />
        <path
           style="fill:none;fill-rule:evenodd;stroke:#000000;stroke-width:1px;stroke-linecap:butt;stroke-linejoin:miter;stroke-opacity:1"
           inkscape:path-effect="#path-effect4320-5-8-5"
           inkscape:original-d="m 310.77343,233.179 -10.25305,-3.27037 -14.14214,-3.62393"
           id="path4318-2-4-8"
           d="m 310.77343,233.179 c -3.39021,-1.17389 -6.80927,-2.26445 -10.25305,-3.27037 -4.67203,-1.36469 -9.38957,-2.57356 -14.14214,-3.62393"
           inkscape:connector-curvature="0"
           sodipodi:nodetypes="ccc" />
        <path
           style="fill:none;fill-rule:evenodd;stroke:#000000;stroke-width:1px;stroke-linecap:butt;stroke-linejoin:miter;stroke-opacity:1"
           inkscape:path-effect="#path-effect4332-4-0-7"
           inkscape:original-d="m 315.36962,228.5828 -16.88217,-6.27557 -8.13172,-8.57367"
           id="path4330-2-0-0"
           d="m 315.36962,228.5828 -16.88217,-6.27557 -8.13172,-8.57367"
           inkscape:connector-curvature="0"
           sodipodi:nodetypes="ccc" />
        <path
           style="fill:none;fill-rule:evenodd;stroke:#000000;stroke-width:1px;stroke-linecap:butt;stroke-linejoin:miter;stroke-opacity:1"
           inkscape:path-effect="#path-effect4344-1-9-1"
           inkscape:original-d="m 299.45972,245.90692 -11.84404,-2.47487 -6.80589,-7.6898"
           id="path4342-0-9-11"
           d="m 299.45972,245.90692 -11.84404,-2.47487 -6.80589,-7.6898"
           inkscape:connector-curvature="0"
           sodipodi:nodetypes="ccc" />
        <path
           style="fill:none;fill-rule:evenodd;stroke:#000000;stroke-width:1px;stroke-linecap:butt;stroke-linejoin:miter;stroke-opacity:1"
           inkscape:path-effect="#path-effect4356-3-1-0"
           inkscape:original-d="m 305.11658,239.54296 -13.08147,-3.88909 -6.44691,-0.15366"
           id="path4354-7-1-9"
           d="m 305.11658,239.54296 -13.08147,-3.88909 -6.44691,-0.15366"
           inkscape:connector-curvature="0"
           sodipodi:nodetypes="ccc" />
        <path
           style="fill:none;fill-rule:evenodd;stroke:#000000;stroke-width:1px;stroke-linecap:butt;stroke-linejoin:miter;stroke-opacity:1"
           inkscape:path-effect="#path-effect4368-5-8-1"
           inkscape:original-d="m 294.86353,253.33154 -13.87697,-3.44714 -2.56327,-7.68979"
           id="path4366-6-7-6"
           d="m 294.86353,253.33154 -13.87697,-3.44714 -2.56327,-7.68979"
           inkscape:connector-curvature="0"
           sodipodi:nodetypes="ccc" />
        <path
           style="fill:none;fill-rule:evenodd;stroke:#000000;stroke-width:1px;stroke-linecap:butt;stroke-linejoin:miter;stroke-opacity:1"
           inkscape:path-effect="#path-effect4384-7-4-8"
           inkscape:original-d="m 290.26733,257.92774 -13.96535,-3.44715 -9.28078,1.14904"
           id="path4382-8-8-1"
           d="m 290.26733,257.92774 -13.96535,-3.44715 -9.28078,1.14904"
           inkscape:connector-curvature="0"
           sodipodi:nodetypes="ccc" />
        <path
           style="fill:none;fill-rule:evenodd;stroke:#000000;stroke-width:1px;stroke-linecap:butt;stroke-linejoin:miter;stroke-opacity:1"
           inkscape:path-effect="#path-effect4388-4-8-8"
           inkscape:original-d="m 287.43891,265.35236 -14.84924,-1.94455 -9.45756,-7.77817"
           id="path4386-8-3-1"
           d="m 287.43891,265.35236 -14.84924,-1.94455 -9.45756,-7.77817"
           inkscape:connector-curvature="0"
           sodipodi:nodetypes="ccc" />
        <path
           style="fill:none;fill-rule:evenodd;stroke:#000000;stroke-width:1px;stroke-linecap:butt;stroke-linejoin:miter;stroke-opacity:1"
           inkscape:path-effect="#path-effect4392-5-2-2"
           inkscape:original-d="m 283.54982,271.00921 -14.05375,0.0884 -7.77817,-5.83363"
           id="path4390-5-0-0"
           d="m 283.54982,271.00921 -14.05375,0.0884 -7.77817,-5.83363"
           inkscape:connector-curvature="0"
           sodipodi:nodetypes="ccc" />
        <path
           style="fill:none;fill-rule:evenodd;stroke:#000000;stroke-width:1px;stroke-linecap:butt;stroke-linejoin:miter;stroke-opacity:1"
           inkscape:path-effect="#path-effect4396-3-5-14"
           inkscape:original-d="m 282.13561,277.72672 -16.26346,0.35355 -7.6014,2.56327"
           id="path4394-2-0-80"
           d="m 282.13561,277.72672 -16.26346,0.35355 -7.6014,2.56327"
           inkscape:connector-curvature="0"
           sodipodi:nodetypes="ccc" />
        <path
           style="fill:none;fill-rule:evenodd;stroke:#000000;stroke-width:1px;stroke-linecap:butt;stroke-linejoin:miter;stroke-opacity:1"
           inkscape:path-effect="#path-effect4400-0-1-53"
           inkscape:original-d="m 277.89297,285.5049 -14.31892,-1.14905 -8.75045,1.85616"
           id="path4398-3-3-1"
           d="m 277.89297,285.5049 -14.31892,-1.14905 -8.75045,1.85616"
           inkscape:connector-curvature="0"
           sodipodi:nodetypes="ccc" />
        <path
           style="fill:none;fill-rule:evenodd;stroke:#000000;stroke-width:1px;stroke-linecap:butt;stroke-linejoin:miter;stroke-opacity:1"
           inkscape:path-effect="#path-effect4404-5-7-03"
           inkscape:original-d="m 275.77165,291.16175 -13.25826,1.50261 -12.72792,-4.41942"
           id="path4402-1-8-5"
           d="m 275.77165,291.16175 -13.25826,1.50261 -12.72792,-4.41942"
           inkscape:connector-curvature="0"
           sodipodi:nodetypes="ccc" />
      </g>
      <g
         id="g4459-7-4-5-1"
         style="display:inline"
         transform="matrix(-0.55293418,0.83322494,-0.83322494,-0.55293418,885.1145,174.37066)">
        <path
           style="fill:none;fill-rule:evenodd;stroke:#000000;stroke-width:1px;stroke-linecap:butt;stroke-linejoin:miter;stroke-opacity:1"
           inkscape:path-effect="#path-effect4316-4-6-9-3"
           inkscape:original-d="m 323.1478,223.2795 -13.34665,-12.28598 -13.87696,-4.5962"
           id="path4314-7-7-8-5"
           d="m 323.1478,223.2795 -13.34665,-12.28598 -13.87696,-4.5962"
           inkscape:connector-curvature="0"
           sodipodi:nodetypes="ccc" />
        <path
           style="fill:none;fill-rule:evenodd;stroke:#000000;stroke-width:1px;stroke-linecap:butt;stroke-linejoin:miter;stroke-opacity:1"
           inkscape:path-effect="#path-effect4320-5-8-3-8"
           inkscape:original-d="m 310.77343,233.179 -10.25305,-3.27037 -14.14214,-3.62393"
           id="path4318-2-4-1-1"
           d="m 310.77343,233.179 c -3.39021,-1.17389 -6.80927,-2.26445 -10.25305,-3.27037 -4.67203,-1.36469 -9.38957,-2.57356 -14.14214,-3.62393"
           inkscape:connector-curvature="0"
           sodipodi:nodetypes="ccc" />
        <path
           style="fill:none;fill-rule:evenodd;stroke:#000000;stroke-width:1px;stroke-linecap:butt;stroke-linejoin:miter;stroke-opacity:1"
           inkscape:path-effect="#path-effect4332-4-0-5-4"
           inkscape:original-d="m 315.36962,228.5828 -16.88217,-6.27557 -8.13172,-8.57367"
           id="path4330-2-0-3-6"
           d="m 315.36962,228.5828 -16.88217,-6.27557 -8.13172,-8.57367"
           inkscape:connector-curvature="0"
           sodipodi:nodetypes="ccc" />
        <path
           style="fill:none;fill-rule:evenodd;stroke:#000000;stroke-width:1px;stroke-linecap:butt;stroke-linejoin:miter;stroke-opacity:1"
           inkscape:path-effect="#path-effect4344-1-9-3-6"
           inkscape:original-d="m 299.45972,245.90692 -11.84404,-2.47487 -6.80589,-7.6898"
           id="path4342-0-9-1-7"
           d="m 299.45972,245.90692 -11.84404,-2.47487 -6.80589,-7.6898"
           inkscape:connector-curvature="0"
           sodipodi:nodetypes="ccc" />
        <path
           style="fill:none;fill-rule:evenodd;stroke:#000000;stroke-width:1px;stroke-linecap:butt;stroke-linejoin:miter;stroke-opacity:1"
           inkscape:path-effect="#path-effect4356-3-1-7-1"
           inkscape:original-d="m 305.11658,239.54296 -13.08147,-3.88909 -6.44691,-0.15366"
           id="path4354-7-1-1-5"
           d="m 305.11658,239.54296 -13.08147,-3.88909 -6.44691,-0.15366"
           inkscape:connector-curvature="0"
           sodipodi:nodetypes="ccc" />
        <path
           style="fill:none;fill-rule:evenodd;stroke:#000000;stroke-width:1px;stroke-linecap:butt;stroke-linejoin:miter;stroke-opacity:1"
           inkscape:path-effect="#path-effect4368-5-8-9-6"
           inkscape:original-d="m 294.86353,253.33154 -13.87697,-3.44714 -2.56327,-7.68979"
           id="path4366-6-7-9-7"
           d="m 294.86353,253.33154 -13.87697,-3.44714 -2.56327,-7.68979"
           inkscape:connector-curvature="0"
           sodipodi:nodetypes="ccc" />
        <path
           style="fill:none;fill-rule:evenodd;stroke:#000000;stroke-width:1px;stroke-linecap:butt;stroke-linejoin:miter;stroke-opacity:1"
           inkscape:path-effect="#path-effect4384-7-4-0-4"
           inkscape:original-d="m 290.26733,257.92774 -13.96535,-3.44715 -9.28078,1.14904"
           id="path4382-8-8-9-0"
           d="m 290.26733,257.92774 -13.96535,-3.44715 -9.28078,1.14904"
           inkscape:connector-curvature="0"
           sodipodi:nodetypes="ccc" />
        <path
           style="fill:none;fill-rule:evenodd;stroke:#000000;stroke-width:1px;stroke-linecap:butt;stroke-linejoin:miter;stroke-opacity:1"
           inkscape:path-effect="#path-effect4388-4-8-7-9"
           inkscape:original-d="m 287.43891,265.35236 -14.84924,-1.94455 -9.45756,-7.77817"
           id="path4386-8-3-7-6"
           d="m 287.43891,265.35236 -14.84924,-1.94455 -9.45756,-7.77817"
           inkscape:connector-curvature="0"
           sodipodi:nodetypes="ccc" />
        <path
           style="fill:none;fill-rule:evenodd;stroke:#000000;stroke-width:1px;stroke-linecap:butt;stroke-linejoin:miter;stroke-opacity:1"
           inkscape:path-effect="#path-effect4392-5-2-9-0"
           inkscape:original-d="m 283.54982,271.00921 -14.05375,0.0884 -7.77817,-5.83363"
           id="path4390-5-0-9-8"
           d="m 283.54982,271.00921 -14.05375,0.0884 -7.77817,-5.83363"
           inkscape:connector-curvature="0"
           sodipodi:nodetypes="ccc" />
        <path
           style="fill:none;fill-rule:evenodd;stroke:#000000;stroke-width:1px;stroke-linecap:butt;stroke-linejoin:miter;stroke-opacity:1"
           inkscape:path-effect="#path-effect4396-3-5-1-6"
           inkscape:original-d="m 282.13561,277.72672 -16.26346,0.35355 -7.6014,2.56327"
           id="path4394-2-0-8-9"
           d="m 282.13561,277.72672 -16.26346,0.35355 -7.6014,2.56327"
           inkscape:connector-curvature="0"
           sodipodi:nodetypes="ccc" />
        <path
           style="fill:none;fill-rule:evenodd;stroke:#000000;stroke-width:1px;stroke-linecap:butt;stroke-linejoin:miter;stroke-opacity:1"
           inkscape:path-effect="#path-effect4400-0-1-8-3"
           inkscape:original-d="m 277.89297,285.5049 -14.31892,-1.14905 -8.75045,1.85616"
           id="path4398-3-3-9-5"
           d="m 277.89297,285.5049 -14.31892,-1.14905 -8.75045,1.85616"
           inkscape:connector-curvature="0"
           sodipodi:nodetypes="ccc" />
        <path
           style="fill:none;fill-rule:evenodd;stroke:#000000;stroke-width:1px;stroke-linecap:butt;stroke-linejoin:miter;stroke-opacity:1"
           inkscape:path-effect="#path-effect4404-5-7-7-8"
           inkscape:original-d="m 275.77165,291.16175 -13.25826,1.50261 -12.72792,-4.41942"
           id="path4402-1-8-9-1"
           d="m 275.77165,291.16175 -13.25826,1.50261 -12.72792,-4.41942"
           inkscape:connector-curvature="0"
           sodipodi:nodetypes="ccc" />
      </g>
      <g
         id="g4459-77-1"
         style="display:inline"
         transform="matrix(0.98896201,-0.14816931,0.14816931,0.98896201,-41.629833,60.93771)">
        <path
           style="fill:none;fill-rule:evenodd;stroke:#000000;stroke-width:1px;stroke-linecap:butt;stroke-linejoin:miter;stroke-opacity:1"
           inkscape:path-effect="#path-effect4316-7-0"
           inkscape:original-d="m 323.1478,223.2795 -13.34665,-12.28598 -13.87696,-4.5962"
           id="path4314-5-7"
           d="m 323.1478,223.2795 -13.34665,-12.28598 -13.87696,-4.5962"
           inkscape:connector-curvature="0"
           sodipodi:nodetypes="ccc" />
        <path
           style="fill:none;fill-rule:evenodd;stroke:#000000;stroke-width:1px;stroke-linecap:butt;stroke-linejoin:miter;stroke-opacity:1"
           inkscape:path-effect="#path-effect4320-4-7"
           inkscape:original-d="m 310.77343,233.179 -10.25305,-3.27037 -14.14214,-3.62393"
           id="path4318-8-1"
           d="m 310.77343,233.179 c -3.39021,-1.17389 -6.80927,-2.26445 -10.25305,-3.27037 -4.67203,-1.36469 -9.38957,-2.57356 -14.14214,-3.62393"
           inkscape:connector-curvature="0"
           sodipodi:nodetypes="ccc" />
        <path
           style="fill:none;fill-rule:evenodd;stroke:#000000;stroke-width:1px;stroke-linecap:butt;stroke-linejoin:miter;stroke-opacity:1"
           inkscape:path-effect="#path-effect4332-1-1"
           inkscape:original-d="m 315.36962,228.5828 -16.88217,-6.27557 -8.13172,-8.57367"
           id="path4330-5-9"
           d="m 315.36962,228.5828 -16.88217,-6.27557 -8.13172,-8.57367"
           inkscape:connector-curvature="0"
           sodipodi:nodetypes="ccc" />
        <path
           style="fill:none;fill-rule:evenodd;stroke:#000000;stroke-width:1px;stroke-linecap:butt;stroke-linejoin:miter;stroke-opacity:1"
           inkscape:path-effect="#path-effect4344-7-3"
           inkscape:original-d="m 299.45972,245.90692 -11.84404,-2.47487 -6.80589,-7.6898"
           id="path4342-1-3"
           d="m 299.45972,245.90692 -11.84404,-2.47487 -6.80589,-7.6898"
           inkscape:connector-curvature="0"
           sodipodi:nodetypes="ccc" />
        <path
           style="fill:none;fill-rule:evenodd;stroke:#000000;stroke-width:1px;stroke-linecap:butt;stroke-linejoin:miter;stroke-opacity:1"
           inkscape:path-effect="#path-effect4356-7-8"
           inkscape:original-d="m 305.11658,239.54296 -13.08147,-3.88909 -6.44691,-0.15366"
           id="path4354-8-1"
           d="m 305.11658,239.54296 -13.08147,-3.88909 -6.44691,-0.15366"
           inkscape:connector-curvature="0"
           sodipodi:nodetypes="ccc" />
        <path
           style="fill:none;fill-rule:evenodd;stroke:#000000;stroke-width:1px;stroke-linecap:butt;stroke-linejoin:miter;stroke-opacity:1"
           inkscape:path-effect="#path-effect4368-1-6"
           inkscape:original-d="m 294.86353,253.33154 -13.87697,-3.44714 -2.56327,-7.68979"
           id="path4366-8-0"
           d="m 294.86353,253.33154 -13.87697,-3.44714 -2.56327,-7.68979"
           inkscape:connector-curvature="0"
           sodipodi:nodetypes="ccc" />
        <path
           style="fill:none;fill-rule:evenodd;stroke:#000000;stroke-width:1px;stroke-linecap:butt;stroke-linejoin:miter;stroke-opacity:1"
           inkscape:path-effect="#path-effect4384-8-8"
           inkscape:original-d="m 290.26733,257.92774 -13.96535,-3.44715 -9.28078,1.14904"
           id="path4382-6-8"
           d="m 290.26733,257.92774 -13.96535,-3.44715 -9.28078,1.14904"
           inkscape:connector-curvature="0"
           sodipodi:nodetypes="ccc" />
        <path
           style="fill:none;fill-rule:evenodd;stroke:#000000;stroke-width:1px;stroke-linecap:butt;stroke-linejoin:miter;stroke-opacity:1"
           inkscape:path-effect="#path-effect4388-1-7"
           inkscape:original-d="m 287.43891,265.35236 -14.84924,-1.94455 -9.45756,-7.77817"
           id="path4386-0-2"
           d="m 287.43891,265.35236 -14.84924,-1.94455 -9.45756,-7.77817"
           inkscape:connector-curvature="0"
           sodipodi:nodetypes="ccc" />
        <path
           style="fill:none;fill-rule:evenodd;stroke:#000000;stroke-width:1px;stroke-linecap:butt;stroke-linejoin:miter;stroke-opacity:1"
           inkscape:path-effect="#path-effect4392-7-2"
           inkscape:original-d="m 283.54982,271.00921 -14.05375,0.0884 -7.77817,-5.83363"
           id="path4390-9-8"
           d="m 283.54982,271.00921 -14.05375,0.0884 -7.77817,-5.83363"
           inkscape:connector-curvature="0"
           sodipodi:nodetypes="ccc" />
        <path
           style="fill:none;fill-rule:evenodd;stroke:#000000;stroke-width:1px;stroke-linecap:butt;stroke-linejoin:miter;stroke-opacity:1"
           inkscape:path-effect="#path-effect4396-2-4"
           inkscape:original-d="m 282.13561,277.72672 -16.26346,0.35355 -7.6014,2.56327"
           id="path4394-5-8"
           d="m 282.13561,277.72672 -16.26346,0.35355 -7.6014,2.56327"
           inkscape:connector-curvature="0"
           sodipodi:nodetypes="ccc" />
        <path
           style="fill:none;fill-rule:evenodd;stroke:#000000;stroke-width:1px;stroke-linecap:butt;stroke-linejoin:miter;stroke-opacity:1"
           inkscape:path-effect="#path-effect4400-06-8"
           inkscape:original-d="m 277.89297,285.5049 -14.31892,-1.14905 -8.75045,1.85616"
           id="path4398-9-7"
           d="m 277.89297,285.5049 -14.31892,-1.14905 -8.75045,1.85616"
           inkscape:connector-curvature="0"
           sodipodi:nodetypes="ccc" />
        <path
           style="fill:none;fill-rule:evenodd;stroke:#000000;stroke-width:1px;stroke-linecap:butt;stroke-linejoin:miter;stroke-opacity:1"
           inkscape:path-effect="#path-effect4404-4-0"
           inkscape:original-d="m 275.77165,291.16175 -13.25826,1.50261 -12.72792,-4.41942"
           id="path4402-9-5"
           d="m 275.77165,291.16175 -13.25826,1.50261 -12.72792,-4.41942"
           inkscape:connector-curvature="0"
           sodipodi:nodetypes="ccc" />
      </g>
    </g>
  </g>
</svg>
