<?xml version="1.0" encoding="UTF-8" standalone="no"?>
<!-- Created with Inkscape (http://www.inkscape.org/) -->

<svg
   xmlns:dc="http://purl.org/dc/elements/1.1/"
   xmlns:cc="http://creativecommons.org/ns#"
   xmlns:rdf="http://www.w3.org/1999/02/22-rdf-syntax-ns#"
   xmlns:svg="http://www.w3.org/2000/svg"
   xmlns="http://www.w3.org/2000/svg"
   xmlns:sodipodi="http://sodipodi.sourceforge.net/DTD/sodipodi-0.dtd"
   xmlns:inkscape="http://www.inkscape.org/namespaces/inkscape"
   width="1920"
   height="1080"
   viewBox="0 0 1920 1080"
   id="svg5674"
   version="1.1"
   inkscape:version="0.91 r13725"
   sodipodi:docname="votes.svg">
  <defs
     id="defs5676">
    <inkscape:path-effect
       effect="spiro"
       id="path-effect9802"
       is_visible="true" />
    <inkscape:path-effect
       effect="spiro"
       id="path-effect4644"
       is_visible="true" />
    <inkscape:path-effect
       effect="spiro"
       id="path-effect4652"
       is_visible="true" />
    <inkscape:path-effect
       effect="spiro"
       id="path-effect9802-9"
       is_visible="true" />
    <inkscape:path-effect
       effect="spiro"
       id="path-effect4644-0"
       is_visible="true" />
    <inkscape:path-effect
       effect="spiro"
       id="path-effect4652-4"
       is_visible="true" />
    <inkscape:path-effect
       effect="spiro"
       id="path-effect9802-9-2"
       is_visible="true" />
    <inkscape:path-effect
       effect="spiro"
       id="path-effect9802-8"
       is_visible="true" />
    <inkscape:path-effect
       effect="spiro"
       id="path-effect4644-4"
       is_visible="true" />
    <inkscape:path-effect
       effect="spiro"
       id="path-effect4652-9"
       is_visible="true" />
    <inkscape:path-effect
       effect="spiro"
       id="path-effect9802-8-6"
       is_visible="true" />
    <inkscape:path-effect
       effect="spiro"
       id="path-effect4644-4-5"
       is_visible="true" />
    <inkscape:path-effect
       effect="spiro"
       id="path-effect4652-9-8"
       is_visible="true" />
  </defs>
  <sodipodi:namedview
     id="base"
     pagecolor="#ffffff"
     bordercolor="#666666"
     borderopacity="1.0"
     inkscape:pageopacity="0.0"
     inkscape:pageshadow="2"
     inkscape:zoom="0.7"
     inkscape:cx="944.7247"
     inkscape:cy="548.73933"
     inkscape:document-units="px"
     inkscape:current-layer="layer1"
     showgrid="false"
     units="px"
     showguides="false"
     gridtolerance="10000"
     guidetolerance="20"
     objecttolerance="20"
     inkscape:snap-bbox="true"
     inkscape:snap-global="true"
     inkscape:snap-object-midpoints="false"
     inkscape:snap-page="false"
     inkscape:snap-to-guides="true"
     inkscape:window-width="1920"
     inkscape:window-height="1016"
     inkscape:window-x="1920"
     inkscape:window-y="27"
     inkscape:window-maximized="1">
    <inkscape:grid
       type="xygrid"
       id="grid6585"
       visible="true"
       enabled="true"
       snapvisiblegridlinesonly="true"
       dotted="false"
       spacingx="16"
       empspacing="5"
       spacingy="16"
       originx="0"
       originy="0" />
  </sodipodi:namedview>
  <metadata
     id="metadata5679">
    <rdf:RDF>
      <cc:Work
         rdf:about="">
        <dc:format>image/svg+xml</dc:format>
        <dc:type
           rdf:resource="http://purl.org/dc/dcmitype/StillImage" />
        <dc:title></dc:title>
      </cc:Work>
    </rdf:RDF>
  </metadata>
  <g
     inkscape:label="Layer 1"
     inkscape:groupmode="layer"
     id="layer1"
     transform="translate(0,27.637839)">
    <g
       transform="matrix(0.55725178,0,0,0.55725178,53.314949,466.5988)"
       style="display:inline"
       id="g6524">
      <path
         sodipodi:nodetypes="cc"
         inkscape:connector-curvature="0"
         inkscape:original-d="m 393.20188,432.63362 c -262.13459,413.15239 -131.06729,206.57619 0,0 z"
         inkscape:path-effect="#path-effect9802"
         id="path9800"
         d="m 393.20188,432.63362 0,0 z"
         style="fill:none;fill-rule:evenodd;stroke:#000000;stroke-width:1px;stroke-linecap:butt;stroke-linejoin:miter;stroke-opacity:1" />
      <rect
         inkscape:transform-center-y="142.68405"
         inkscape:transform-center-x="45.204326"
         transform="matrix(0.96184119,0.27360834,-0.29587192,0.95522762,0,0)"
         ry="8.4366779"
         rx="8.7429991"
         y="611.25055"
         x="593.27875"
         height="316.37543"
         width="17.485998"
         id="rect8093"
         style="fill:#000000;fill-opacity:1;stroke-width:15;stroke-miterlimit:4;stroke-dasharray:none;stroke-dashoffset:0" />
      <rect
         inkscape:transform-center-y="141.42857"
         inkscape:transform-center-x="-45"
         transform="matrix(-0.96291845,0.26979262,0.29998851,0.95394281,0,0)"
         ry="8.4198685"
         rx="8.8370838"
         y="828.94434"
         x="-161.37923"
         height="315.74506"
         width="17.674168"
         id="rect8093-7"
         style="fill:#000000;fill-opacity:1;stroke-width:15;stroke-miterlimit:4;stroke-dasharray:none;stroke-dashoffset:0" />
      <rect
         transform="matrix(-0.9999996,-8.9412964e-4,-7.7483979e-4,0.9999997,0,0)"
         ry="8.4686632"
         rx="7.8835268"
         y="441.00735"
         x="-405.10541"
         height="317.57486"
         width="15.767054"
         id="rect8093-7-2"
         style="fill:#000000;fill-opacity:1;stroke-width:15;stroke-miterlimit:4;stroke-dasharray:none;stroke-dashoffset:0" />
      <rect
         inkscape:transform-center-y="-45.960038"
         inkscape:transform-center-x="-142.14287"
         transform="matrix(0.27618591,0.96110423,0.95606836,-0.29314382,0,0)"
         ry="8.4292593"
         rx="8.6614027"
         y="231.84639"
         x="591.79077"
         height="316.09723"
         width="17.322805"
         id="rect8093-2-2"
         style="fill:#000000;fill-opacity:1;stroke-width:15;stroke-miterlimit:4;stroke-dasharray:none;stroke-dashoffset:0" />
      <rect
         inkscape:transform-center-y="-42.568801"
         inkscape:transform-center-x="142.50004"
         transform="matrix(-0.27532156,0.96135219,-0.95578881,-0.29405399,0,0)"
         ry="8.4317245"
         rx="8.6885948"
         y="-528.00385"
         x="362.72852"
         height="316.18967"
         width="17.37719"
         id="rect8093-2"
         style="fill:#000000;fill-opacity:1;stroke-width:15;stroke-miterlimit:4;stroke-dasharray:none;stroke-dashoffset:0" />
      <ellipse
         ry="116.70027"
         rx="116.70026"
         cy="322.97641"
         cx="396.26031"
         id="path8125"
         style="opacity:1;fill:#ffffff;fill-opacity:1;fill-rule:evenodd;stroke:#000000;stroke-width:16.59946251;stroke-miterlimit:4;stroke-dasharray:none;stroke-dashoffset:0;stroke-opacity:1" />
      <circle
         r="14.495741"
         cy="293.34506"
         cx="339.24237"
         id="path9777"
         style="opacity:1;fill:#000000;fill-opacity:1;fill-rule:evenodd;stroke:#000000;stroke-width:11.00851727;stroke-miterlimit:4;stroke-dasharray:none;stroke-dashoffset:0;stroke-opacity:1" />
      <circle
         r="14.495741"
         cy="293.34506"
         cx="454.24237"
         id="path9777-9"
         style="opacity:1;fill:#000000;fill-opacity:1;fill-rule:evenodd;stroke:#000000;stroke-width:11.00851727;stroke-miterlimit:4;stroke-dasharray:none;stroke-dashoffset:0;stroke-opacity:1" />
      <path
         sodipodi:nodetypes="cscc"
         inkscape:connector-curvature="0"
         id="path9814"
         d="m 343.79146,362.98859 c 0,0 19.99609,31.17049 53.22901,30.9512 38.13419,-0.25163 52.96418,-30.9512 52.96418,-30.9512 z"
         style="fill:none;fill-rule:evenodd;stroke:#000000;stroke-width:5.11099482;stroke-linecap:butt;stroke-linejoin:round;stroke-miterlimit:4;stroke-dasharray:none;stroke-dashoffset:0;stroke-opacity:1" />
      <path
         sodipodi:nodetypes="ccccccccccc"
         inkscape:connector-curvature="0"
         inkscape:original-d="m 292.61657,1006.0337 207.01652,-0.495 -5.46549,-291.43401 13.132,-229.30463 -12.87942,-26.01143 -79.58015,30.44771 -39.39595,0 -80.27649,-29.18502 -11.8916,33.80115 19.64721,225.75113 z"
         inkscape:path-effect="#path-effect4644"
         id="path4642"
         d="m 292.61657,1006.0337 207.01652,-0.495 -5.46549,-291.43401 13.132,-229.30463 -12.87942,-26.01143 -79.58015,30.44771 -39.39595,0 -80.27649,-29.18502 -11.8916,33.80115 19.64721,225.75113 -10.30663,286.4301 z"
         style="fill:#ffffff;fill-opacity:1;fill-rule:evenodd;stroke:#000000;stroke-width:1px;stroke-linecap:butt;stroke-linejoin:miter;stroke-opacity:1" />
      <path
         sodipodi:nodetypes="cc"
         inkscape:connector-curvature="0"
         inkscape:original-d="M 421.94488,486.55093 293.70309,614.15019"
         inkscape:path-effect="#path-effect4652"
         id="path4650"
         d="M 421.94488,486.55093 293.70309,614.15019"
         style="fill:none;fill-rule:evenodd;stroke:#000000;stroke-width:0.99356294px;stroke-linecap:butt;stroke-linejoin:miter;stroke-opacity:1" />
      <path
         sodipodi:nodetypes="csc"
         inkscape:connector-curvature="0"
         id="path4658"
         d="m 301.95253,730.89179 c 0,0 98.14015,33.28218 145.16564,-27.73519 47.02547,-61.01737 54.69266,-122.53903 54.69266,-122.53903"
         style="fill:none;fill-rule:evenodd;stroke:#000000;stroke-width:1.00519383px;stroke-linecap:butt;stroke-linejoin:miter;stroke-opacity:1" />
    </g>
    <g
       id="g6336"
       transform="translate(-105.60871,57.877973)">
      <path
         sodipodi:nodetypes="cc"
         inkscape:connector-curvature="0"
         inkscape:original-d="m 768.85615,682.94788 c -132.02966,208.09298 -66.01483,104.04649 0,0 z"
         inkscape:path-effect="#path-effect9802-9"
         id="path9800-5"
         d="m 768.85615,682.94788 0,0 z"
         style="fill:none;fill-rule:evenodd;stroke:#000000;stroke-width:0.50367123px;stroke-linecap:butt;stroke-linejoin:miter;stroke-opacity:1" />
      <rect
         inkscape:transform-center-y="142.68405"
         inkscape:transform-center-x="45.204326"
         transform="matrix(0.96184119,0.27360834,-0.29587193,0.95522762,0,0)"
         ry="4.2493119"
         rx="4.4035974"
         y="599.06635"
         x="981.84985"
         height="159.3492"
         width="8.8071947"
         id="rect8093-6"
         style="fill:#000000;fill-opacity:1;stroke-width:15;stroke-miterlimit:4;stroke-dasharray:none;stroke-dashoffset:0" />
      <rect
         inkscape:transform-center-y="141.42857"
         inkscape:transform-center-x="-45"
         transform="matrix(-0.96291845,0.26979261,0.2999885,0.95394282,0,0)"
         ry="4.2408457"
         rx="4.450985"
         y="1019.6132"
         x="-486.49734"
         height="159.03171"
         width="8.9019699"
         id="rect8093-7-1"
         style="fill:#000000;fill-opacity:1;stroke-width:15;stroke-miterlimit:4;stroke-dasharray:none;stroke-dashoffset:0" />
      <rect
         transform="matrix(-0.9999996,-8.9412963e-4,-7.7483979e-4,0.9999997,0,0)"
         ry="4.2654223"
         rx="3.9707057"
         y="686.65491"
         x="-775.21179"
         height="159.95332"
         width="7.9414115"
         id="rect8093-7-2-5"
         style="fill:#000000;fill-opacity:1;stroke-width:15;stroke-miterlimit:4;stroke-dasharray:none;stroke-dashoffset:0" />
      <rect
         inkscape:transform-center-y="-45.960038"
         inkscape:transform-center-x="-142.14287"
         transform="matrix(0.27618591,0.96110423,0.95606836,-0.29314381,0,0)"
         ry="4.2455754"
         rx="4.3624992"
         y="537.01135"
         x="910.10632"
         height="159.20909"
         width="8.7249985"
         id="rect8093-2-2-6"
         style="fill:#000000;fill-opacity:1;stroke-width:15;stroke-miterlimit:4;stroke-dasharray:none;stroke-dashoffset:0" />
      <rect
         inkscape:transform-center-y="-42.568801"
         inkscape:transform-center-x="142.50004"
         transform="matrix(-0.27532156,0.96135219,-0.95578881,-0.29405399,0,0)"
         ry="4.2468171"
         rx="4.3761954"
         y="-942.85693"
         x="459.38199"
         height="159.25565"
         width="8.7523909"
         id="rect8093-2-7"
         style="fill:#000000;fill-opacity:1;stroke-width:15;stroke-miterlimit:4;stroke-dasharray:none;stroke-dashoffset:0" />
      <ellipse
         ry="58.778572"
         rx="58.778564"
         cy="627.71667"
         cx="770.39661"
         id="path8125-0"
         style="opacity:1;fill:#ffffff;fill-opacity:1;fill-rule:evenodd;stroke:#000000;stroke-width:8.360672;stroke-miterlimit:4;stroke-dasharray:none;stroke-dashoffset:0;stroke-opacity:1" />
      <circle
         r="7.3010879"
         cy="612.79224"
         cx="741.67828"
         id="path9777-7"
         style="opacity:1;fill:#000000;fill-opacity:1;fill-rule:evenodd;stroke:#000000;stroke-width:5.54467344;stroke-miterlimit:4;stroke-dasharray:none;stroke-dashoffset:0;stroke-opacity:1" />
      <circle
         r="7.3010879"
         cy="612.79224"
         cx="799.60046"
         id="path9777-9-8"
         style="opacity:1;fill:#000000;fill-opacity:1;fill-rule:evenodd;stroke:#000000;stroke-width:5.54467344;stroke-miterlimit:4;stroke-dasharray:none;stroke-dashoffset:0;stroke-opacity:1" />
      <path
         sodipodi:nodetypes="cscc"
         inkscape:connector-curvature="0"
         id="path9814-0"
         d="m 743.96954,647.86968 c 0,0 10.07146,15.69968 26.80992,15.58923 19.2071,-0.12674 26.67654,-15.58923 26.67654,-15.58923 z"
         style="fill:none;fill-rule:evenodd;stroke:#000000;stroke-width:2.57426119;stroke-linecap:butt;stroke-linejoin:round;stroke-miterlimit:4;stroke-dasharray:none;stroke-dashoffset:0;stroke-opacity:1" />
    </g>
    <g
       id="g6336-0"
       transform="translate(653.12091,57.877973)">
      <path
         sodipodi:nodetypes="cc"
         inkscape:connector-curvature="0"
         inkscape:original-d="m 768.85615,682.94788 c -132.02966,208.09298 -66.01483,104.04649 0,0 z"
         inkscape:path-effect="#path-effect9802-9-2"
         id="path9800-5-4"
         d="m 768.85615,682.94788 0,0 z"
         style="fill:none;fill-rule:evenodd;stroke:#000000;stroke-width:0.50367123px;stroke-linecap:butt;stroke-linejoin:miter;stroke-opacity:1" />
      <rect
         inkscape:transform-center-y="142.68405"
         inkscape:transform-center-x="45.204326"
         transform="matrix(0.96184119,0.27360834,-0.29587193,0.95522762,0,0)"
         ry="4.2493119"
         rx="4.4035974"
         y="599.06635"
         x="981.84985"
         height="159.3492"
         width="8.8071947"
         id="rect8093-6-4"
         style="fill:#000000;fill-opacity:1;stroke-width:15;stroke-miterlimit:4;stroke-dasharray:none;stroke-dashoffset:0" />
      <rect
         inkscape:transform-center-y="141.42857"
         inkscape:transform-center-x="-45"
         transform="matrix(-0.96291845,0.26979261,0.2999885,0.95394282,0,0)"
         ry="4.2408457"
         rx="4.450985"
         y="1019.6132"
         x="-486.49734"
         height="159.03171"
         width="8.9019699"
         id="rect8093-7-1-9"
         style="fill:#000000;fill-opacity:1;stroke-width:15;stroke-miterlimit:4;stroke-dasharray:none;stroke-dashoffset:0" />
      <rect
         transform="matrix(-0.9999996,-8.9412963e-4,-7.7483979e-4,0.9999997,0,0)"
         ry="4.2654223"
         rx="3.9707057"
         y="686.65491"
         x="-775.21179"
         height="159.95332"
         width="7.9414115"
         id="rect8093-7-2-5-2"
         style="fill:#000000;fill-opacity:1;stroke-width:15;stroke-miterlimit:4;stroke-dasharray:none;stroke-dashoffset:0" />
      <rect
         inkscape:transform-center-y="-45.960038"
         inkscape:transform-center-x="-142.14287"
         transform="matrix(0.27618591,0.96110423,0.95606836,-0.29314381,0,0)"
         ry="4.2455754"
         rx="4.3624992"
         y="537.01135"
         x="910.10632"
         height="159.20909"
         width="8.7249985"
         id="rect8093-2-2-6-3"
         style="fill:#000000;fill-opacity:1;stroke-width:15;stroke-miterlimit:4;stroke-dasharray:none;stroke-dashoffset:0" />
      <rect
         inkscape:transform-center-y="-42.568801"
         inkscape:transform-center-x="142.50004"
         transform="matrix(-0.27532156,0.96135219,-0.95578881,-0.29405399,0,0)"
         ry="4.2468171"
         rx="4.3761954"
         y="-942.85693"
         x="459.38199"
         height="159.25565"
         width="8.7523909"
         id="rect8093-2-7-6"
         style="fill:#000000;fill-opacity:1;stroke-width:15;stroke-miterlimit:4;stroke-dasharray:none;stroke-dashoffset:0" />
      <ellipse
         ry="58.778572"
         rx="58.778564"
         cy="627.71667"
         cx="770.39661"
         id="path8125-0-5"
         style="opacity:1;fill:#ffffff;fill-opacity:1;fill-rule:evenodd;stroke:#000000;stroke-width:8.360672;stroke-miterlimit:4;stroke-dasharray:none;stroke-dashoffset:0;stroke-opacity:1" />
      <circle
         r="7.3010879"
         cy="612.79224"
         cx="741.67828"
         id="path9777-7-3"
         style="opacity:1;fill:#000000;fill-opacity:1;fill-rule:evenodd;stroke:#000000;stroke-width:5.54467344;stroke-miterlimit:4;stroke-dasharray:none;stroke-dashoffset:0;stroke-opacity:1" />
      <circle
         r="7.3010879"
         cy="612.79224"
         cx="799.60046"
         id="path9777-9-8-1"
         style="opacity:1;fill:#000000;fill-opacity:1;fill-rule:evenodd;stroke:#000000;stroke-width:5.54467344;stroke-miterlimit:4;stroke-dasharray:none;stroke-dashoffset:0;stroke-opacity:1" />
      <path
         sodipodi:nodetypes="cscc"
         inkscape:connector-curvature="0"
         id="path9814-0-3"
         d="m 743.96954,647.86968 c 0,0 10.07146,15.69968 26.80992,15.58923 19.2071,-0.12674 26.67654,-15.58923 26.67654,-15.58923 z"
         style="fill:none;fill-rule:evenodd;stroke:#000000;stroke-width:2.57426119;stroke-linecap:butt;stroke-linejoin:round;stroke-miterlimit:4;stroke-dasharray:none;stroke-dashoffset:0;stroke-opacity:1" />
    </g>
    <g
       transform="matrix(0.55725178,0,0,0.55725178,868.48527,466.5988)"
       style="display:inline"
       id="g6524-4">
      <path
         sodipodi:nodetypes="cc"
         inkscape:connector-curvature="0"
         inkscape:original-d="m 393.20188,432.63362 c -262.13459,413.15239 -131.06729,206.57619 0,0 z"
         inkscape:path-effect="#path-effect9802-8"
         id="path9800-8"
         d="m 393.20188,432.63362 0,0 z"
         style="fill:none;fill-rule:evenodd;stroke:#000000;stroke-width:1px;stroke-linecap:butt;stroke-linejoin:miter;stroke-opacity:1" />
      <rect
         inkscape:transform-center-y="142.68405"
         inkscape:transform-center-x="45.204326"
         transform="matrix(0.96184119,0.27360834,-0.29587192,0.95522762,0,0)"
         ry="8.4366779"
         rx="8.7429991"
         y="611.25055"
         x="593.27875"
         height="316.37543"
         width="17.485998"
         id="rect8093-0"
         style="fill:#000000;fill-opacity:1;stroke-width:15;stroke-miterlimit:4;stroke-dasharray:none;stroke-dashoffset:0" />
      <rect
         inkscape:transform-center-y="141.42857"
         inkscape:transform-center-x="-45"
         transform="matrix(-0.96291845,0.26979262,0.29998851,0.95394281,0,0)"
         ry="8.4198685"
         rx="8.8370838"
         y="828.94434"
         x="-161.37923"
         height="315.74506"
         width="17.674168"
         id="rect8093-7-9"
         style="fill:#000000;fill-opacity:1;stroke-width:15;stroke-miterlimit:4;stroke-dasharray:none;stroke-dashoffset:0" />
      <rect
         transform="matrix(-0.9999996,-8.9412964e-4,-7.7483979e-4,0.9999997,0,0)"
         ry="8.4686632"
         rx="7.8835268"
         y="441.00735"
         x="-405.10541"
         height="317.57486"
         width="15.767054"
         id="rect8093-7-2-3"
         style="fill:#000000;fill-opacity:1;stroke-width:15;stroke-miterlimit:4;stroke-dasharray:none;stroke-dashoffset:0" />
      <rect
         inkscape:transform-center-y="-45.960038"
         inkscape:transform-center-x="-142.14287"
         transform="matrix(0.27618591,0.96110423,0.95606836,-0.29314382,0,0)"
         ry="8.4292593"
         rx="8.6614027"
         y="231.84639"
         x="591.79077"
         height="316.09723"
         width="17.322805"
         id="rect8093-2-2-64"
         style="fill:#000000;fill-opacity:1;stroke-width:15;stroke-miterlimit:4;stroke-dasharray:none;stroke-dashoffset:0" />
      <rect
         inkscape:transform-center-y="-42.568801"
         inkscape:transform-center-x="142.50004"
         transform="matrix(-0.27532156,0.96135219,-0.95578881,-0.29405399,0,0)"
         ry="8.4317245"
         rx="8.6885948"
         y="-528.00385"
         x="362.72852"
         height="316.18967"
         width="17.37719"
         id="rect8093-2-6"
         style="fill:#000000;fill-opacity:1;stroke-width:15;stroke-miterlimit:4;stroke-dasharray:none;stroke-dashoffset:0" />
      <ellipse
         ry="116.70027"
         rx="116.70026"
         cy="322.97641"
         cx="396.26031"
         id="path8125-9"
         style="opacity:1;fill:#ffffff;fill-opacity:1;fill-rule:evenodd;stroke:#000000;stroke-width:16.59946251;stroke-miterlimit:4;stroke-dasharray:none;stroke-dashoffset:0;stroke-opacity:1" />
      <circle
         r="14.495741"
         cy="293.34506"
         cx="339.24237"
         id="path9777-97"
         style="opacity:1;fill:#000000;fill-opacity:1;fill-rule:evenodd;stroke:#000000;stroke-width:11.00851727;stroke-miterlimit:4;stroke-dasharray:none;stroke-dashoffset:0;stroke-opacity:1" />
      <circle
         r="14.495741"
         cy="293.34506"
         cx="454.24237"
         id="path9777-9-3"
         style="opacity:1;fill:#000000;fill-opacity:1;fill-rule:evenodd;stroke:#000000;stroke-width:11.00851727;stroke-miterlimit:4;stroke-dasharray:none;stroke-dashoffset:0;stroke-opacity:1" />
      <path
         sodipodi:nodetypes="cscc"
         inkscape:connector-curvature="0"
         id="path9814-2"
         d="m 343.79146,362.98859 c 0,0 19.99609,31.17049 53.22901,30.9512 38.13419,-0.25163 52.96418,-30.9512 52.96418,-30.9512 z"
         style="fill:none;fill-rule:evenodd;stroke:#000000;stroke-width:5.11099482;stroke-linecap:butt;stroke-linejoin:round;stroke-miterlimit:4;stroke-dasharray:none;stroke-dashoffset:0;stroke-opacity:1" />
      <path
         sodipodi:nodetypes="ccccccccccc"
         inkscape:connector-curvature="0"
         inkscape:original-d="m 292.61657,1006.0337 207.01652,-0.495 -5.46549,-291.43401 13.132,-229.30463 -12.87942,-26.01143 -79.58015,30.44771 -39.39595,0 -80.27649,-29.18502 -11.8916,33.80115 19.64721,225.75113 z"
         inkscape:path-effect="#path-effect4644-4"
         id="path4642-8"
         d="m 292.61657,1006.0337 207.01652,-0.495 -5.46549,-291.43401 13.132,-229.30463 -12.87942,-26.01143 -79.58015,30.44771 -39.39595,0 -80.27649,-29.18502 -11.8916,33.80115 19.64721,225.75113 -10.30663,286.4301 z"
         style="fill:#ffffff;fill-opacity:1;fill-rule:evenodd;stroke:#000000;stroke-width:1px;stroke-linecap:butt;stroke-linejoin:miter;stroke-opacity:1" />
      <path
         sodipodi:nodetypes="cc"
         inkscape:connector-curvature="0"
         inkscape:original-d="M 421.94488,486.55093 293.70309,614.15019"
         inkscape:path-effect="#path-effect4652-9"
         id="path4650-1"
         d="M 421.94488,486.55093 293.70309,614.15019"
         style="fill:none;fill-rule:evenodd;stroke:#000000;stroke-width:0.99356294px;stroke-linecap:butt;stroke-linejoin:miter;stroke-opacity:1" />
      <path
         sodipodi:nodetypes="csc"
         inkscape:connector-curvature="0"
         id="path4658-8"
         d="m 301.95253,730.89179 c 0,0 98.14015,33.28218 145.16564,-27.73519 47.02547,-61.01737 54.69266,-122.53903 54.69266,-122.53903"
         style="fill:none;fill-rule:evenodd;stroke:#000000;stroke-width:1.00519383px;stroke-linecap:butt;stroke-linejoin:miter;stroke-opacity:1" />
    </g>
    <g
       transform="matrix(0.55725178,0,0,0.55725178,1514.1996,466.5988)"
       style="display:inline"
       id="g6524-4-9">
      <path
         sodipodi:nodetypes="cc"
         inkscape:connector-curvature="0"
         inkscape:original-d="m 393.20188,432.63362 c -262.13459,413.15239 -131.06729,206.57619 0,0 z"
         inkscape:path-effect="#path-effect9802-8-6"
         id="path9800-8-0"
         d="m 393.20188,432.63362 0,0 z"
         style="fill:none;fill-rule:evenodd;stroke:#000000;stroke-width:1px;stroke-linecap:butt;stroke-linejoin:miter;stroke-opacity:1" />
      <rect
         inkscape:transform-center-y="142.68405"
         inkscape:transform-center-x="45.204326"
         transform="matrix(0.96184119,0.27360834,-0.29587192,0.95522762,0,0)"
         ry="8.4366779"
         rx="8.7429991"
         y="611.25055"
         x="593.27875"
         height="316.37543"
         width="17.485998"
         id="rect8093-0-5"
         style="fill:#000000;fill-opacity:1;stroke-width:15;stroke-miterlimit:4;stroke-dasharray:none;stroke-dashoffset:0" />
      <rect
         inkscape:transform-center-y="141.42857"
         inkscape:transform-center-x="-45"
         transform="matrix(-0.96291845,0.26979262,0.29998851,0.95394281,0,0)"
         ry="8.4198685"
         rx="8.8370838"
         y="828.94434"
         x="-161.37923"
         height="315.74506"
         width="17.674168"
         id="rect8093-7-9-2"
         style="fill:#000000;fill-opacity:1;stroke-width:15;stroke-miterlimit:4;stroke-dasharray:none;stroke-dashoffset:0" />
      <rect
         transform="matrix(-0.9999996,-8.9412964e-4,-7.7483979e-4,0.9999997,0,0)"
         ry="8.4686632"
         rx="7.8835268"
         y="441.00735"
         x="-405.10541"
         height="317.57486"
         width="15.767054"
         id="rect8093-7-2-3-9"
         style="fill:#000000;fill-opacity:1;stroke-width:15;stroke-miterlimit:4;stroke-dasharray:none;stroke-dashoffset:0" />
      <rect
         inkscape:transform-center-y="-45.960038"
         inkscape:transform-center-x="-142.14287"
         transform="matrix(0.27618591,0.96110423,0.95606836,-0.29314382,0,0)"
         ry="8.4292593"
         rx="8.6614027"
         y="231.84639"
         x="591.79077"
         height="316.09723"
         width="17.322805"
         id="rect8093-2-2-64-2"
         style="fill:#000000;fill-opacity:1;stroke-width:15;stroke-miterlimit:4;stroke-dasharray:none;stroke-dashoffset:0" />
      <rect
         inkscape:transform-center-y="-42.568801"
         inkscape:transform-center-x="142.50004"
         transform="matrix(-0.27532156,0.96135219,-0.95578881,-0.29405399,0,0)"
         ry="8.4317245"
         rx="8.6885948"
         y="-528.00385"
         x="362.72852"
         height="316.18967"
         width="17.37719"
         id="rect8093-2-6-0"
         style="fill:#000000;fill-opacity:1;stroke-width:15;stroke-miterlimit:4;stroke-dasharray:none;stroke-dashoffset:0" />
      <ellipse
         ry="116.70027"
         rx="116.70026"
         cy="322.97641"
         cx="396.26031"
         id="path8125-9-3"
         style="opacity:1;fill:#ffffff;fill-opacity:1;fill-rule:evenodd;stroke:#000000;stroke-width:16.59946251;stroke-miterlimit:4;stroke-dasharray:none;stroke-dashoffset:0;stroke-opacity:1" />
      <circle
         r="14.495741"
         cy="293.34506"
         cx="339.24237"
         id="path9777-97-1"
         style="opacity:1;fill:#000000;fill-opacity:1;fill-rule:evenodd;stroke:#000000;stroke-width:11.00851727;stroke-miterlimit:4;stroke-dasharray:none;stroke-dashoffset:0;stroke-opacity:1" />
      <circle
         r="14.495741"
         cy="293.34506"
         cx="454.24237"
         id="path9777-9-3-8"
         style="opacity:1;fill:#000000;fill-opacity:1;fill-rule:evenodd;stroke:#000000;stroke-width:11.00851727;stroke-miterlimit:4;stroke-dasharray:none;stroke-dashoffset:0;stroke-opacity:1" />
      <path
         sodipodi:nodetypes="cscc"
         inkscape:connector-curvature="0"
         id="path9814-2-7"
         d="m 343.79146,362.98859 c 0,0 19.99609,31.17049 53.22901,30.9512 38.13419,-0.25163 52.96418,-30.9512 52.96418,-30.9512 z"
         style="fill:none;fill-rule:evenodd;stroke:#000000;stroke-width:5.11099482;stroke-linecap:butt;stroke-linejoin:round;stroke-miterlimit:4;stroke-dasharray:none;stroke-dashoffset:0;stroke-opacity:1" />
      <path
         sodipodi:nodetypes="ccccccccccc"
         inkscape:connector-curvature="0"
         inkscape:original-d="m 292.61657,1006.0337 207.01652,-0.495 -5.46549,-291.43401 13.132,-229.30463 -12.87942,-26.01143 -79.58015,30.44771 -39.39595,0 -80.27649,-29.18502 -11.8916,33.80115 19.64721,225.75113 z"
         inkscape:path-effect="#path-effect4644-4-5"
         id="path4642-8-2"
         d="m 292.61657,1006.0337 207.01652,-0.495 -5.46549,-291.43401 13.132,-229.30463 -12.87942,-26.01143 -79.58015,30.44771 -39.39595,0 -80.27649,-29.18502 -11.8916,33.80115 19.64721,225.75113 -10.30663,286.4301 z"
         style="fill:#ffffff;fill-opacity:1;fill-rule:evenodd;stroke:#000000;stroke-width:1px;stroke-linecap:butt;stroke-linejoin:miter;stroke-opacity:1" />
      <path
         sodipodi:nodetypes="cc"
         inkscape:connector-curvature="0"
         inkscape:original-d="M 421.94488,486.55093 293.70309,614.15019"
         inkscape:path-effect="#path-effect4652-9-8"
         id="path4650-1-4"
         d="M 421.94488,486.55093 293.70309,614.15019"
         style="fill:none;fill-rule:evenodd;stroke:#000000;stroke-width:0.99356294px;stroke-linecap:butt;stroke-linejoin:miter;stroke-opacity:1" />
      <path
         sodipodi:nodetypes="csc"
         inkscape:connector-curvature="0"
         id="path4658-8-7"
         d="m 301.95253,730.89179 c 0,0 98.14015,33.28218 145.16564,-27.73519 47.02547,-61.01737 54.69266,-122.53903 54.69266,-122.53903"
         style="fill:none;fill-rule:evenodd;stroke:#000000;stroke-width:1.00519383px;stroke-linecap:butt;stroke-linejoin:miter;stroke-opacity:1" />
    </g>
    <path
       sodipodi:type="star"
       style="opacity:1;fill:#ffdb00;fill-opacity:1;fill-rule:evenodd;stroke:#000000;stroke-width:5.27857351;stroke-linecap:round;stroke-linejoin:miter;stroke-miterlimit:4;stroke-dasharray:none;stroke-dashoffset:0;stroke-opacity:1"
       id="path6591"
       sodipodi:sides="5"
       sodipodi:cx="271.96738"
       sodipodi:cy="413.3237"
       sodipodi:r1="97.471649"
       sodipodi:r2="48.735825"
       sodipodi:arg1="-0.32480865"
       sodipodi:arg2="0.30350988"
       inkscape:flatsided="false"
       inkscape:rounded="0"
       inkscape:randomized="0"
       d="m 364.34241,382.21782 -45.86676,45.67163 11.62063,63.67588 -57.60991,-29.50857 -56.96839,30.72881 10.26188,-63.90893 -46.82903,-44.68444 63.95209,-9.98932 28.02646,-58.3453 29.26269,57.73519 z"
       inkscape:transform-center-x="0.32075442"
       inkscape:transform-center-y="-9.0021301" />
    <path
       sodipodi:type="star"
       style="opacity:1;fill:#ffdb00;fill-opacity:1;fill-rule:evenodd;stroke:#000000;stroke-width:5.27857351;stroke-linecap:round;stroke-linejoin:miter;stroke-miterlimit:4;stroke-dasharray:none;stroke-dashoffset:0;stroke-opacity:1"
       id="path6591-2"
       sodipodi:sides="5"
       sodipodi:cx="1084.6261"
       sodipodi:cy="427.62936"
       sodipodi:r1="97.471649"
       sodipodi:r2="48.735825"
       sodipodi:arg1="-0.32480865"
       sodipodi:arg2="0.30350988"
       inkscape:flatsided="false"
       inkscape:rounded="0"
       inkscape:randomized="0"
       d="m 1177.0011,396.52349 -45.8667,45.67162 11.6206,63.67589 -57.6099,-29.50857 -56.9684,30.7288 10.2619,-63.90893 -46.82905,-44.68443 63.95205,-9.98932 28.0265,-58.34531 29.2627,57.73519 z"
       inkscape:transform-center-x="0.32075442"
       inkscape:transform-center-y="-9.0021301" />
    <path
       sodipodi:type="star"
       style="opacity:1;fill:#ffdb00;fill-opacity:1;fill-rule:evenodd;stroke:#000000;stroke-width:5.27857351;stroke-linecap:round;stroke-linejoin:miter;stroke-miterlimit:4;stroke-dasharray:none;stroke-dashoffset:0;stroke-opacity:1"
       id="path6591-2-3"
       sodipodi:sides="5"
       sodipodi:cx="1726.0547"
       sodipodi:cy="430.4865"
       sodipodi:r1="97.471649"
       sodipodi:r2="48.735825"
       sodipodi:arg1="-0.32480865"
       sodipodi:arg2="0.30350988"
       inkscape:flatsided="false"
       inkscape:rounded="0"
       inkscape:randomized="0"
       d="m 1818.4297,399.38063 -45.8667,45.67163 11.6206,63.67588 -57.6099,-29.50857 -56.9684,30.72881 10.2619,-63.90893 -46.8291,-44.68444 63.9521,-9.98931 28.0265,-58.34531 29.2627,57.73519 z"
       inkscape:transform-center-x="0.32075442"
       inkscape:transform-center-y="-9.0021301" />
  </g>
</svg>
